# Polynomial fit to Gilmore (2012) fiducial model EBL absorption tau parameter by polynomial log(tau) = col[1]*log10(E/TeV)**n_col - 2 + col[2]*log10(E/TeV)**n_col - 3 + ... first column is redshift
0.010000, 0.00497596, -0.01608506, -0.03509830, 0.15846920, 0.03521403, -0.54697745, 0.22364782, 0.69864056, -0.57516817, 0.00143113, 0.73333431, -0.86073266, 0.72434213, -1.05935786
0.020000, 0.00326568, -0.01298763, -0.01844900, 0.12953106, -0.02588374, -0.44739200, 0.32929221, 0.54397810, -0.66432726, 0.10715056, 0.76940312, -0.88301443, 0.71600363, -0.75606357
0.030000, 0.00000000, 0.00000000, 0.01502992, -0.01249284, -0.15380370, 0.13347927, 0.55415961, -0.54748402, -0.84640379, 1.02994150, 0.83060422, -1.16286986, 0.70663372, -0.56316508
0.040000, 0.00000000, 0.00000000, 0.01493500, -0.01220826, -0.15317959, 0.13120361, 0.55348011, -0.54154339, -0.84952743, 1.02372148, 0.83844549, -1.15698133, 0.70061370, -0.43500699
0.050000, 0.00000000, 0.00000000, 0.01485989, -0.01196004, -0.15272157, 0.12923000, 0.55325792, -0.53644563, -0.85304700, 1.01838951, 0.84622277, -1.15150326, 0.69482597, -0.33478365
0.060000, 0.00000000, 0.00000000, 0.01517856, -0.01215722, -0.15598011, 0.13105422, 0.56556913, -0.54246956, -0.87463882, 1.02596905, 0.86435229, -1.15100686, 0.68752919, -0.25197531
0.070000, 0.00000000, 0.00000000, 0.01512228, -0.01193009, -0.15568706, 0.12926070, 0.56587269, -0.53790711, -0.87897538, 1.02115175, 0.87280043, -1.14512535, 0.68154452, -0.18155510
0.080000, 0.00000000, 0.00000000, 0.01497610, -0.01159213, -0.15454225, 0.12649831, 0.56335886, -0.53045024, -0.87957245, 1.01287836, 0.87952036, -1.13741204, 0.67558047, -0.12006750
0.090000, 0.00000000, 0.00000000, 0.01481958, -0.01124894, -0.15328784, 0.12368190, 0.56043786, -0.52280089, -0.87954124, 1.00430870, 0.88584253, -1.12948202, 0.66974124, -0.06547863
0.100000, 0.00000000, 0.00000000, 0.01468216, -0.01093167, -0.15220874, 0.12108447, 0.55808819, -0.51577793, -0.88029085, 0.99641707, 0.89256061, -1.12179234, 0.66390968, -0.01631845
0.110000, 0.00000000, 0.00000000, 0.01456402, -0.01064348, -0.15130481, 0.11873292, 0.55629675, -0.50945734, -0.88175972, 0.98929400, 0.89959253, -1.11444351, 0.65812576, 0.02844517
0.150000, 0.00000000, 0.00000000, 0.01422666, -0.00965357, -0.14897494, 0.11068324, 0.55355550, -0.48796731, -0.89420282, 0.96482988, 0.93132428, -1.08665940, 0.63503759, 0.17610347
0.200000, 0.00000000, 0.00000000, 0.01370884, -0.00843689, -0.14496877, 0.10060603, 0.54575675, -0.46025220, -0.90211264, 0.93187889, 0.96479211, -1.05120319, 0.60887228, 0.31550793
0.250000, 0.00000000, 0.00000000, 0.01322246, -0.00728242, -0.14124017, 0.09100643, 0.53911910, -0.43374591, -0.91278247, 0.89961314, 1.00028767, -1.01394386, 0.58352153, 0.42551916
0.300000, 0.00000000, 0.00000000, 0.01236802, -0.00605287, -0.13353243, 0.08048893, 0.51726256, -0.40354920, -0.89873339, 0.86101668, 1.01932326, -0.97184338, 0.56249754, 0.51641174
0.350000, 0.00000000, 0.00000000, 0.01178689, -0.00510731, -0.12851541, 0.07242518, 0.50489312, -0.38041632, -0.89879578, 0.82997840, 1.04578356, -0.93269273, 0.54189542, 0.59394080
0.400000, 0.00000000, 0.00000000, 0.01117258, -0.00421331, -0.12306062, 0.06459465, 0.49067371, -0.35701176, -0.89571868, 0.79696180, 1.06942704, -0.89221561, 0.52312138, 0.66126425
0.450000, 0.00000000, 0.00000000, 0.01047910, -0.00341965, -0.11660880, 0.05746407, 0.47208540, -0.33489521, -0.88441910, 0.76393015, 1.08627774, -0.85119892, 0.50702951, 0.72066040
0.500000, 0.00000000, 0.00000000, 0.00997669, -0.00278983, -0.11210689, 0.05179443, 0.46062993, -0.31708002, -0.88414952, 0.73547945, 1.10919912, -0.81185134, 0.49126396, 0.77382756
0.550000, 0.00000000, 0.00000000, 0.00959976, -0.00223640, -0.10893498, 0.04675476, 0.45432996, -0.30081997, -0.89258617, 0.70801470, 1.13737225, -0.77239335, 0.47585147, 0.82175131
0.600000, 0.00000000, 0.00000000, 0.00901678, -0.00177332, -0.10338233, 0.04230517, 0.43814563, -0.28540122, -0.88315102, 0.67981705, 1.15191940, -0.73201345, 0.46436519, 0.86514237
0.650000, 0.00000000, 0.00000000, 0.00849589, -0.00138257, -0.09846721, 0.03844850, 0.42433407, -0.27142097, -0.87743762, 0.65241275, 1.16811697, -0.69143455, 0.45389139, 0.90478349
0.700000, 0.00000000, 0.00000000, 0.00861638, -0.00097341, -0.10070336, 0.03472126, 0.43919582, -0.25883343, -0.92103480, 0.62796060, 1.21753654, -0.65313420, 0.43844686, 0.94130622
0.750000, 0.00000000, 0.00000000, 0.00795052, -0.00075623, -0.09402288, 0.03216920, 0.41762943, -0.24755878, -0.90024376, 0.60131144, 1.22059549, -0.61213571, 0.43313260, 0.97474582
0.800000, 0.00000000, 0.00000000, 0.00750299, -0.00055401, -0.08972807, 0.02979847, 0.40533833, -0.23690685, -0.89455053, 0.57543086, 1.23269643, -0.57221664, 0.42714477, 1.00577522
0.850000, 0.00000000, 0.00000000, 0.00709956, -0.00037711, -0.08590089, 0.02759534, 0.39479796, -0.22640688, -0.89143331, 0.54897271, 1.24552502, -0.53194953, 0.42214777, 1.03458279
0.900000, 0.00000000, 0.00000000, 0.00743663, 0.00007438, -0.09052118, 0.02319659, 0.41902379, -0.21023712, -0.94992617, 0.51733262, 1.30151708, -0.49109786, 0.40975409, 1.06137492
0.950000, 0.00000000, 0.00000000, 0.00688423, 0.00010013, -0.08490011, 0.02215825, 0.40056003, -0.20229996, -0.93107016, 0.49209962, 1.30037716, -0.45113923, 0.40978893, 1.08634132
1.000000, 0.00000000, 0.00000000, 0.00652351, 0.00017766, -0.08142217, 0.02069494, 0.39064346, -0.19317240, -0.92653420, 0.46564300, 1.30816947, -0.41151856, 0.40891850, 1.10974493
1.200000, 0.00000000, 0.00000000, 0.00589867, 0.00082034, -0.07664327, 0.01153533, 0.38719436, -0.14474729, -0.96748647, 0.34270460, 1.37123273, -0.24975231, 0.40792033, 1.18970484
1.400000, 0.00000000, 0.00000000, 0.00565862, 0.00168020, -0.07573731, -0.00018969, 0.39627406, -0.08562248, -1.01953305, 0.20394936, 1.42548658, -0.08981969, 0.41910426, 1.25330255
1.600000, 0.00000000, 0.00000000, 0.00521317, 0.00336816, -0.06944933, -0.01895725, 0.37005464, -0.00482433, -0.98138623, 0.03917983, 1.38901146, 0.07177004, 0.45782422, 1.30474593
1.800000, 0.00000000, 0.00000000, 0.00505520, 0.00408225, -0.06848110, -0.02960162, 0.37184352, 0.05163140, -0.99842198, -0.09166122, 1.39029148, 0.20640781, 0.49175818, 1.34842314
2.000000, 0.00000000, 0.00000000, 0.00562381, 0.00724437, -0.07186562, -0.06051357, 0.37759925, 0.16565310, -0.99934421, -0.28494379, 1.36322356, 0.35551283, 0.53484502, 1.38431568
2.200000, 0.00000000, 0.00000000, 0.00479511, 0.00636304, -0.06343330, -0.05615760, 0.34597832, 0.17192076, -0.94363521, -0.34173248, 1.29623208, 0.43727265, 0.58582451, 1.41870471
2.400000, 0.00000000, 0.00000000, 0.00493916, 0.00756988, -0.06447817, -0.07040750, 0.34819823, 0.23447007, -0.94110946, -0.46272177, 1.26475398, 0.53630105, 0.62821386, 1.44695085
2.600000, 0.00000000, 0.00000000, 0.00466124, 0.00854585, -0.05834400, -0.07912650, 0.31265156, 0.26919753, -0.85701502, -0.53407107, 1.16457502, 0.60284986, 0.68486292, 1.47358266
2.800000, 0.00000000, 0.00000000, 0.00488066, 0.00995558, -0.05938532, -0.09408675, 0.31117331, 0.32875099, -0.84054776, -0.63866266, 1.11999951, 0.67847975, 0.72611556, 1.49573395
3.000000, 0.00000000, 0.00000000, 0.00425267, 0.00879398, -0.05312858, -0.08578981, 0.28607151, 0.31386969, -0.78791093, -0.64417164, 1.05140699, 0.70472975, 0.77024861, 1.51818400
3.200000, 0.00000000, 0.00000000, 0.00381635, 0.00808356, -0.04854457, -0.08110835, 0.26633824, 0.30821044, -0.74331732, -0.65653953, 0.99011312, 0.72850635, 0.81001743, 1.53806810
3.400000, 0.00000000, 0.00000000, 0.00424351, 0.01077595, -0.04795922, -0.10231901, 0.24704701, 0.37095348, -0.68184255, -0.74085628, 0.91194580, 0.77579153, 0.85052011, 1.55394881
3.600000, 0.00000000, 0.00000000, 0.00377273, 0.00964652, -0.04367452, -0.09384192, 0.23054121, 0.35173479, -0.64611042, -0.73018337, 0.86268853, 0.78193113, 0.88216711, 1.57035498
3.800000, 0.00000000, 0.00000000, 0.00341419, 0.00882232, -0.04027944, -0.08772399, 0.21672179, 0.33837990, -0.61466142, -0.72397396, 0.81837600, 0.78711665, 0.91055050, 1.58501451
4.000000, 0.00000000, 0.00000000, 0.00352580, 0.00968758, -0.03995631, -0.09573892, 0.20900299, 0.36653677, -0.58693955, -0.76705837, 0.77572967, 0.81145051, 0.93679011, 1.59687844
4.200000, 0.00000000, 0.00000000, 0.00314078, 0.00862489, -0.03659141, -0.08725885, 0.19647374, 0.34432325, -0.56006654, -0.74595764, 0.73883223, 0.80613897, 0.96000371, 1.60934844
4.400000, 0.00000000, 0.00000000, 0.00284197, 0.00781558, -0.03390519, -0.08081411, 0.18601526, 0.32759928, -0.53666128, -0.73031551, 0.70616710, 0.80195906, 0.98042749, 1.62032632
4.600000, 0.00000000, 0.00000000, 0.00302607, 0.00888457, -0.03407410, -0.09016500, 0.17957598, 0.35791076, -0.51155213, -0.77231653, 0.67013864, 0.82220158, 1.00005634, 1.62840953
4.800000, 0.00000000, 0.00000000, 0.00269354, 0.00783551, -0.03138992, -0.08150180, 0.17049124, 0.33350549, -0.49314249, -0.74501373, 0.64488525, 0.81103750, 1.01593503, 1.63761294
5.000000, 0.00101602, 0.00453740, -0.00625086, -0.04854845, -0.01069162, 0.18455970, 0.18128278, -0.25503775, -0.56989471, -0.14506644, 0.69739087, 0.58244471, 1.01797154, 1.65930450
5.500000, 0.00086430, 0.00415150, -0.00427513, -0.04391825, -0.02078166, 0.16362217, 0.20500738, -0.21056831, -0.59008356, -0.18770776, 0.68456248, 0.59384922, 1.03991092, 1.67421766
6.000000, 0.00093129, 0.00488616, -0.00300228, -0.05005462, -0.03617291, 0.18213942, 0.25959375, -0.23517582, -0.66618805, -0.17222877, 0.71337436, 0.58567904, 1.04943682, 1.68637233
6.500000, 0.00075540, 0.00418192, -0.00153772, -0.04247689, -0.04028783, 0.15089231, 0.26301658, -0.17435789, -0.66136026, -0.22591496, 0.69905091, 0.59999504, 1.06021168, 1.69290590