# Minimal concentration c_{200,min} needed for a subhalo to survive tidal disruption.
# Complete disruption is assumed when rt/rs = epsilon, with epsilon a free parameter.
# smooth halo: NFW McMillan 2017
# tidal effects: global + disk
# inner clump profile: NFW
# epsilon = 1
#
# radius    c_{200,min}
# [kpc]    [dimensionless]
0.       658.443
0.001    658.443
0.00101242    655.619
0.001025    652.808
0.00103774    650.011
0.00105063    647.228
0.00106369    644.457
0.0010769    641.699
0.00109028    638.955
0.00110383    636.223
0.00111754    633.505
0.00113143    630.799
0.00114549    628.107
0.00115972    625.428
0.00117413    622.761
0.00118871    620.107
0.00120348    617.467
0.00121844    614.839
0.00123357    612.224
0.0012489    609.621
0.00126442    607.032
0.00128013    604.455
0.00129603    601.892
0.00131214    599.34
0.00132844    596.801
0.00134494    594.275
0.00136165    591.762
0.00137857    589.261
0.0013957    586.773
0.00141304    584.297
0.0014306    581.834
0.00144837    579.384
0.00146637    576.945
0.00148459    574.52
0.00150303    572.107
0.00152171    569.705
0.00154061    567.317
0.00155975    564.941
0.00157913    562.578
0.00159875    560.227
0.00161862    557.888
0.00163873    555.562
0.00165909    553.248
0.0016797    550.946
0.00170057    548.657
0.0017217    546.38
0.00174309    544.115
0.00176475    541.863
0.00178668    539.622
0.00180887    537.395
0.00183135    535.179
0.0018541    532.976
0.00187714    530.785
0.00190046    528.607
0.00192407    526.44
0.00194798    524.286
0.00197218    522.144
0.00199669    520.014
0.00202149    517.897
0.00204661    515.792
0.00207204    513.699
0.00209778    511.618
0.00212385    509.551
0.00215023    507.494
0.00217695    505.451
0.002204    503.42
0.00223138    501.401
0.00225911    499.394
0.00228717    497.4
0.00231559    495.417
0.00234436    493.447
0.00237349    491.49
0.00240298    489.545
0.00243283    487.613
0.00246306    485.692
0.00249366    483.785
0.00252465    481.889
0.00255601    480.006
0.00258777    478.136
0.00261992    476.278
0.00265248    474.432
0.00268543    472.599
0.0027188    470.779
0.00275258    468.971
0.00278678    467.176
0.0028214    465.393
0.00285645    463.624
0.00289194    461.866
0.00292788    460.121
0.00296425    458.389
0.00300108    456.67
0.00303837    454.963
0.00307612    453.269
0.00311434    451.588
0.00315303    449.92
0.00319221    448.264
0.00323187    446.622
0.00327203    444.993
0.00331268    443.376
0.00335384    441.773
0.00339551    440.182
0.0034377    438.605
0.00348041    437.039
0.00352365    435.488
0.00356743    433.95
0.00361175    432.424
0.00365663    430.912
0.00370206    429.414
0.00374806    427.929
0.00379463    426.457
0.00384177    424.998
0.0038895    423.552
0.00393783    422.12
0.00398676    420.701
0.00403629    419.296
0.00408644    417.904
0.00413721    416.526
0.00418861    415.161
0.00424065    413.809
0.00429334    412.473
0.00434669    411.149
0.00440069    409.839
0.00445537    408.542
0.00451072    407.259
0.00456677    405.99
0.00462351    404.734
0.00468095    403.493
0.00473911    402.265
0.00479799    401.051
0.00485761    399.851
0.00491796    398.666
0.00497906    397.494
0.00504093    396.335
0.00510356    395.191
0.00516697    394.061
0.00523116    392.944
0.00529616    391.842
0.00536196    390.753
0.00542858    389.678
0.00549603    388.618
0.00556432    387.571
0.00563345    386.539
0.00570344    385.521
0.00577431    384.518
0.00584605    383.528
0.00591868    382.552
0.00599222    381.589
0.00606667    380.641
0.00614205    379.706
0.00621836    378.785
0.00629562    377.879
0.00637384    376.987
0.00645303    376.109
0.00653321    375.245
0.00661438    374.395
0.00669656    373.558
0.00677976    372.736
0.006864    371.926
0.00694928    371.131
0.00703562    370.348
0.00712304    369.58
0.00721154    368.826
0.00730114    368.084
0.00739185    367.357
0.00748369    366.644
0.00757667    365.944
0.00767081    365.256
0.00776612    364.583
0.00786261    363.922
0.0079603    363.275
0.0080592    362.639
0.00815933    362.018
0.00826071    361.408
0.00836335    360.813
0.00846726    360.23
0.00857246    359.659
0.00867897    359.102
0.0087868    358.557
0.00889597    358.025
0.0090065    357.504
0.0091184    356.994
0.00923169    356.496
0.00934639    356.011
0.00946252    355.539
0.00958009    355.077
0.00969912    354.628
0.00981962    354.19
0.00994163    353.764
0.0100651    353.349
0.0101902    352.945
0.0103168    352.551
0.010445    352.168
0.0105748    351.797
0.0107062    351.436
0.0108392    351.084
0.0109738    350.743
0.0111102    350.413
0.0112482    350.093
0.011388    349.784
0.0115295    349.483
0.0116727    349.192
0.0118178    348.91
0.0119646    348.638
0.0121132    348.374
0.0122637    348.119
0.0124161    347.872
0.0125704    347.637
0.0127266    347.408
0.0128847    347.188
0.0130448    346.978
0.0132068    346.774
0.0133709    346.578
0.0135371    346.389
0.0137053    346.21
0.0138755    346.035
0.0140479    345.868
0.0142225    345.71
0.0143992    345.557
0.0145781    345.411
0.0147592    345.272
0.0149426    345.141
0.0151282    345.015
0.0153162    344.894
0.0155065    344.779
0.0156992    344.672
0.0158942    344.569
0.0160917    344.47
0.0162916    344.376
0.016494    344.291
0.016699    344.208
0.0169065    344.13
0.0171165    344.057
0.0173292    343.988
0.0175445    343.923
0.0177625    343.865
0.0179832    343.808
0.0182066    343.755
0.0184328    343.705
0.0186618    343.659
0.0188937    343.616
0.0191284    343.577
0.0193661    343.541
0.0196067    343.508
0.0198503    343.477
0.0200969    343.449
0.0203466    343.424
0.0205994    343.4
0.0208554    343.379
0.0211145    343.359
0.0213768    343.341
0.0216424    343.322
0.0219113    343.308
0.0221836    343.295
0.0224592    343.284
0.0227382    343.274
0.0230207    343.261
0.0233068    343.253
0.0235963    343.245
0.0238895    343.238
0.0241863    343.227
0.0244868    343.221
0.0247911    343.21
0.0250991    343.204
0.0254109    343.198
0.0257267    343.189
0.0260463    343.182
0.0263699    343.172
0.0266976    343.165
0.0270293    343.153
0.0273651    343.14
0.0277051    343.13
0.0280493    343.115
0.0283978    343.103
0.0287506    343.087
0.0291079    343.068
0.0294695    343.049
0.0298357    343.033
0.0302063    343.01
0.0305816    342.985
0.0309616    342.959
0.0313463    342.931
0.0317358    342.905
0.0321301    342.873
0.0325293    342.838
0.0329334    342.802
0.0333426    342.763
0.0337569    342.722
0.0341763    342.678
0.0346009    342.632
0.0350308    342.583
0.0354661    342.526
0.0359067    342.472
0.0363528    342.414
0.0368045    342.354
0.0372618    342.291
0.0377247    342.219
0.0381935    342.15
0.038668    342.077
0.0391484    342.002
0.0396348    341.918
0.0401273    341.836
0.0406258    341.751
0.0411306    341.656
0.0416416    341.564
0.042159    341.462
0.0426828    341.363
0.0432131    341.254
0.04375    341.148
0.0442936    341.033
0.0448439    340.919
0.0454011    340.796
0.0459652    340.675
0.0465363    340.545
0.0471145    340.416
0.0476999    340.278
0.0482925    340.136
0.0488925    339.997
0.0495    339.847
0.050115    339.693
0.0507377    339.542
0.0513681    339.381
0.0520063    339.216
0.0526524    339.047
0.0533066    338.882
0.0539689    338.705
0.0546395    338.525
0.0553184    338.34
0.0560057    338.152
0.0567015    337.96
0.057406    337.772
0.0581192    337.573
0.0588414    337.369
0.0595724    337.163
0.0603126    336.952
0.061062    336.738
0.0618206    336.52
0.0625887    336.298
0.0633664    336.081
0.0641537    335.853
0.0649507    335.62
0.0657577    335.384
0.0665747    335.145
0.0674019    334.903
0.0682393    334.657
0.0690872    334.407
0.0699456    334.155
0.0708146    333.899
0.0716944    333.639
0.0725852    333.377
0.073487    333.112
0.0744001    332.843
0.0753245    332.572
0.0762604    332.297
0.0772079    332.02
0.0781671    331.75
0.0791383    331.466
0.0801216    331.181
0.0811171    330.892
0.0821249    330.601
0.0831453    330.308
0.0841783    330.011
0.0852242    329.713
0.0862831    329.412
0.0873551    329.108
0.0884404    328.802
0.0895393    328.505
0.0906518    328.195
0.0917781    327.883
0.0929184    327.568
0.0940728    327.252
0.0952417    326.945
0.096425    326.625
0.097623    326.303
0.098836    325.98
0.100064    325.666
0.101307    325.339
0.102566    325.01
0.10384    324.68
0.10513    324.361
0.106437    324.027
0.107759    323.706
0.109098    323.37
0.110453    323.032
0.111826    322.708
0.113215    322.368
0.114622    322.041
0.116046    321.699
0.117488    321.37
0.118947    321.026
0.120425    320.695
0.121922    320.364
0.123436    320.017
0.12497    319.684
0.126523    319.351
0.128095    319.001
0.129686    318.667
0.131298    318.332
0.132929    317.996
0.13458    317.66
0.136253    317.324
0.137945    316.97
0.139659    316.632
0.141395    316.294
0.143151    315.955
0.14493    315.616
0.146731    315.295
0.148554    314.955
0.150399    314.615
0.152268    314.275
0.15416    313.934
0.156075    313.593
0.158014    313.27
0.159978    312.929
0.161965    312.586
0.163978    312.263
0.166015    311.92
0.168078    311.597
0.170166    311.253
0.17228    310.929
0.174421    310.605
0.176588    310.26
0.178782    309.935
0.181003    309.61
0.183252    309.263
0.185529    308.937
0.187834    308.611
0.190168    308.285
0.19253    307.957
0.194923    307.63
0.197344    307.302
0.199796    306.973
0.202279    306.644
0.204792    306.314
0.207336    306.007
0.209912    305.676
0.21252    305.343
0.215161    305.01
0.217834    304.701
0.220541    304.366
0.223281    304.056
0.226055    303.719
0.228864    303.406
0.231707    303.093
0.234586    302.753
0.237501    302.437
0.240452    302.12
0.243439    301.803
0.246464    301.457
0.249526    301.137
0.252626    300.815
0.255765    300.492
0.258943    300.167
0.26216    299.841
0.265417    299.542
0.268715    299.213
0.272053    298.882
0.275434    298.549
0.278856    298.244
0.28232    297.907
0.285828    297.598
0.289379    297.257
0.292975    296.945
0.296615    296.6
0.3003    296.283
0.304031    295.964
0.307809    295.612
0.311633    295.289
0.315505    294.963
0.319425    294.636
0.323394    294.306
0.327412    293.973
0.33148    293.637
0.335598    293.299
0.339768    292.958
0.343989    292.614
0.348263    292.302
0.35259    291.952
0.356971    291.6
0.361406    291.279
0.365897    290.92
0.370443    290.594
0.375045    290.228
0.379705    289.895
0.384423    289.523
0.389199    289.183
0.394035    288.841
0.39893    288.457
0.403887    288.107
0.408905    287.754
0.413986    287.398
0.419129    287.037
0.424337    286.673
0.429609    286.305
0.434947    285.933
0.440351    285.557
0.445822    285.217
0.451361    284.834
0.456969    284.445
0.462647    284.053
0.468395    283.697
0.474214    283.296
0.480106    282.932
0.486071    282.522
0.492111    282.15
0.498225    281.73
0.504415    281.35
0.510682    280.964
0.517027    280.53
0.523451    280.135
0.529955    279.736
0.536539    279.332
0.543205    278.924
0.549955    278.51
0.556787    278.091
0.563705    277.668
0.570709    277.239
0.5778    276.805
0.584979    276.366
0.592247    275.922
0.599605    275.521
0.607055    275.065
0.614598    274.605
0.622234    274.188
0.629965    273.716
0.637792    273.289
0.645716    272.806
0.653739    272.368
0.661861    271.874
0.670084    271.425
0.67841    270.97
0.686839    270.457
0.695373    269.992
0.704012    269.52
0.712759    269.042
0.721615    268.504
0.730581    268.015
0.739658    267.519
0.748848    267.018
0.758152    266.51
0.767572    265.996
0.777109    265.475
0.786764    265.006
0.796539    264.473
0.806436    263.933
0.816455    263.387
0.826599    262.835
0.836869    262.335
0.847267    261.768
0.857794    261.196
0.868452    260.677
0.879242    260.09
0.890166    259.558
0.901226    258.958
0.912423    258.413
0.92376    257.798
0.935237    257.239
0.946857    256.674
0.958621    256.038
0.970532    255.459
0.98259    254.873
0.994799    254.214
1.00716    253.614
1.01967    253.006
1.03234    252.392
1.04517    251.771
1.05815    251.142
1.0713    250.506
1.08461    249.862
1.09809    249.211
1.11173    248.553
1.12554    247.887
1.13953    247.213
1.15369    246.531
1.16802    245.915
1.18253    245.218
1.19722    244.514
1.2121    243.801
1.22716    243.156
1.24241    242.427
1.25784    241.691
1.27347    241.023
1.28929    240.271
1.30531    239.588
1.32153    238.819
1.33795    238.121
1.35457    237.335
1.3714    236.622
1.38844    235.9
1.40569    235.09
1.42316    234.353
1.44084    233.608
1.45874    232.772
1.47686    232.012
1.49521    231.243
1.51379    230.466
1.5326    229.681
1.55164    228.889
1.57092    228.088
1.59044    227.28
1.6102    226.463
1.6302    225.638
1.65046    224.804
1.67097    223.963
1.69173    223.113
1.71275    222.254
1.73403    221.388
1.75557    220.512
1.77738    219.723
1.79947    218.831
1.82182    217.931
1.84446    217.022
1.86738    216.201
1.89058    215.275
1.91407    214.341
1.93785    213.496
1.96192    212.545
1.9863    211.685
2.01098    210.716
2.03596    209.84
2.06126    208.957
2.08687    207.962
2.1128    207.063
2.13905    206.05
2.16563    205.135
2.19253    204.211
2.21978    203.28
2.24736    202.232
2.27528    201.284
2.30355    200.328
2.33217    199.364
2.36114    198.391
2.39048    197.411
2.42018    196.422
2.45025    195.425
2.48069    194.42
2.51151    193.407
2.54272    192.385
2.57431    191.354
2.6063    190.314
2.63868    189.266
2.67146    188.209
2.70465    187.144
2.73826    186.192
2.77228    185.109
2.80672    184.017
2.8416    183.042
2.8769    181.932
2.91265    180.814
2.94884    179.814
2.98547    178.677
3.02257    177.661
3.06012    176.506
3.09814    175.341
3.13663    174.299
3.17561    173.249
3.21506    172.056
3.25501    170.989
3.29545    169.776
3.33639    168.691
3.37785    167.598
3.41982    166.355
3.4623    165.243
3.50532    164.123
3.54887    162.993
3.59297    161.71
3.63761    160.561
3.6828    159.403
3.72856    158.235
3.77489    157.058
3.82179    155.872
3.86927    154.676
3.91735    153.47
3.96602    152.254
4.01529    151.028
4.06518    149.792
4.11569    148.546
4.16683    147.29
4.2186    146.024
4.27101    144.747
4.32408    143.46
4.3778    142.162
4.43219    140.853
4.48726    139.533
4.54301    138.369
4.59946    137.029
4.65661    135.678
4.71446    134.316
4.77304    133.113
4.83234    131.73
4.89238    130.335
4.95317    129.103
5.01471    127.688
5.07701    126.261
5.14009    125
5.20396    123.551
5.26861    122.091
5.33407    120.801
5.40035    119.32
5.46744    118.011
5.53537    116.508
5.60415    115.18
5.67378    113.656
5.74427    112.31
5.81564    110.765
5.8879    109.401
5.96105    107.836
6.03512    106.454
6.1101    105.063
6.18602    103.47
6.26287    102.063
6.34069    100.451
6.41947    99.0289
6.49923    97.5995
6.57998    96.1635
6.66173    94.5206
6.7445    93.072
6.8283    91.6179
6.91314    89.9554
6.99903    88.4915
7.08599    87.0235
7.17403    85.5524
7.26316    83.8727
7.3534    82.3968
7.44477    80.9197
7.53727    79.4421
7.63091    77.9648
7.72572    76.4889
7.82171    75.0151
7.91889    73.3389
8.01728    71.8731
8.11689    70.4128
8.21774    68.9589
8.31984    67.5126
8.42321    66.0752
8.52787    64.6478
8.63382    63.2317
8.7411    61.8281
8.8497    60.4383
8.95965    59.0635
9.07097    57.7051
9.18368    56.3642
9.29778    55.0422
9.4133    53.7402
9.53026    52.4593
9.64867    51.2008
9.76855    49.9656
9.88992    48.7548
10.0128    47.5693
10.1372    46.5722
10.2631    45.4361
10.3907    44.3276
10.5198    43.2472
10.6505    42.1955
10.7828    41.1729
10.9168    40.1798
11.0524    39.349
11.1897    38.411
11.3288    37.5029
11.4695    36.6246
11.612    35.7758
11.7563    35.0668
11.9024    34.2722
12.0502    33.5063
12.2    32.7687
12.3515    32.1515
12.505    31.4645
12.6604    30.804
12.8177    30.2497
12.9769    29.6362
13.1381    29.0471
13.3014    28.4814
13.4666    28.0038
13.634    27.4792
13.8034    26.9756
13.9749    26.5476
14.1485    26.0804
14.3243    25.6812
14.5023    25.2473
14.6824    24.8303
14.8649    24.4708
15.0496    24.0826
15.2365    23.7458
15.4258    23.3837
15.6175    23.0349
15.8115    22.7288
16.008    22.4022
16.2069    22.1135
16.4083    21.8069
16.6121    21.5339
16.8185    21.2451
17.0275    20.9654
17.239    20.7135
17.4532    20.4489
17.6701    20.2089
17.8896    19.9578
18.1119    19.7285
18.3369    19.4896
18.5647    19.2699
18.7954    19.042
19.0289    18.831
19.2654    18.6237
19.5047    18.4099
19.7471    18.2102
19.9924    18.0049
20.2408    17.812
20.4923    17.6145
20.7469    17.428
21.0047    17.2375
21.2656    17.0568
21.5299    16.8786
21.7974    16.6975
22.0682    16.5244
22.3424    16.349
22.62    16.1808
22.901    16.0147
23.1855    15.8469
23.4736    15.6852
23.7653    15.5221
24.0605    15.3645
24.3595    15.2086
24.6621    15.052
24.9685    14.8999
25.2788    14.7495
25.5928    14.5987
25.9108    14.4518
26.2328    14.3046
26.5587    14.161
26.8887    14.0188
27.2227    13.8768
27.561    13.7376
27.9034    13.5999
28.2501    13.4625
28.6011    13.3277
28.9565    13.1942
29.3162    13.062
29.6805    12.9303
30.0492    12.8007
30.4226    12.6724
30.8006    12.5447
31.1833    12.4189
31.5707    12.2942
31.9629    12.1703
32.3601    12.048
32.7621    11.9268
33.1692    11.8067
33.5813    11.6875
33.9985    11.5696
34.4209    11.4528
34.8486    11.3371
35.2816    11.2222
35.7199    11.1085
36.1638    10.9959
36.6131    10.8842
37.068    10.7734
37.5285    10.6637
37.9948    10.555
38.4669    10.4472
38.9448    10.3403
39.4287    10.2344
39.9186    10.1294
40.4145    10.0253
40.9167    9.92209
41.425    9.8198
41.9397    9.71838
42.4608    9.61784
42.9884    9.51815
43.5225    9.4193
44.0632    9.32132
44.6107    9.22417
45.165    9.12785
45.7261    9.03236
46.2942    8.93765
46.8694    8.84378
47.4518    8.7507
48.0413    8.65842
48.6382    8.56692
49.2425    8.47619
49.8543    8.38623
50.4738    8.29705
51.1009    8.20862
51.7358    8.12094
52.3786    8.03401
53.0294    7.94783
53.6882    7.86237
54.3553    7.77766
55.0306    7.69365
55.7144    7.61037
56.4066    7.5278
57.1074    7.44592
57.8169    7.36476
58.5353    7.28429
59.2626    7.20451
59.9989    7.12542
60.7443    7.04701
61.4991    6.96928
62.2632    6.8922
63.0368    6.8158
63.82    6.74006
64.6129    6.66497
65.4157    6.59053
66.2284    6.51674
67.0513    6.4436
67.8844    6.37108
68.7278    6.29921
69.5817    6.22795
70.4463    6.15732
71.3215    6.08732
72.2077    6.01792
73.1048    5.94913
74.0131    5.88095
74.9327    5.81338
75.8637    5.74639
76.8063    5.68
77.7606    5.6142
78.7267    5.54899
79.7048    5.48436
80.6951    5.4203
81.6977    5.35682
82.7128    5.29391
83.7405    5.23156
84.7809    5.16977
85.8343    5.10855
86.9007    5.04787
87.9804    4.98774
89.0735    4.92816
90.1802    4.86912
91.3007    4.81062
92.4351    4.75266
93.5835    4.69522
94.7463    4.63832
95.9235    4.58194
97.1153    4.52608
98.3219    4.47074
99.5435    4.41591
100.78    4.36159
102.032    4.30777
103.3    4.25446
104.584    4.20166
105.883    4.14935
107.199    4.09752
108.53    4.04619
109.879    3.99535
111.244    3.94499
112.626    3.89511
114.026    3.8457
115.442    3.79677
116.877    3.74831
118.329    3.70032
119.799    3.65279
121.287    3.60572
122.794    3.5591
124.32    3.51295
125.865    3.46724
127.428    3.42198
129.012    3.37717
130.615    3.33279
132.237    3.28886
133.88    3.24536
135.544    3.20229
137.228    3.15965
138.933    3.11745
140.659    3.07566
142.407    3.03429
144.176    2.99334
145.967    2.95281
147.781    2.91268
149.617    2.87297
151.476    2.83366
153.358    2.79476
155.263    2.75625
157.192    2.71814
159.146    2.68043
161.123    2.6431
163.125    2.60617
165.151    2.56962
167.203    2.53346
169.281    2.49767
171.384    2.46226
173.513    2.42723
175.669    2.39257
177.852    2.35827
180.062    2.32435
182.299    2.29079
184.564    2.25758
186.857    2.22474
189.179    2.19226
191.529    2.16012
193.909    2.12833
196.318    2.0969
198.757    2.0658
201.227    2.03506
203.727    2.00464
206.258    1.97457
208.821    1.94483
211.415    1.91543
214.042    1.88635
216.701    1.8576
219.394    1.82917
222.119    1.80107
224.879    1.77328
227.673    1.74582
230.502    1.71867
1000000    1.71867
