#  E [GeV]	E^{2} #times d#Phi/d#Omega/dE [# cm^{-2} s^{-1} sr^{-1}  GeV]	Spectrum at source (same normalization)
1.0000e+00	1.42e-10	1.05e-10
1.0475e+00	1.46e-10	1.09e-10
1.0973e+00	1.49e-10	1.13e-10
1.1494e+00	1.53e-10	1.17e-10
1.2040e+00	1.57e-10	1.21e-10
1.2612e+00	1.60e-10	1.25e-10
1.3211e+00	1.63e-10	1.28e-10
1.3839e+00	1.67e-10	1.32e-10
1.4497e+00	1.70e-10	1.35e-10
1.5185e+00	1.73e-10	1.39e-10
1.5907e+00	1.77e-10	1.42e-10
1.6662e+00	1.80e-10	1.46e-10
1.7454e+00	1.83e-10	1.50e-10
1.8283e+00	1.85e-10	1.53e-10
1.9152e+00	1.88e-10	1.57e-10
2.0062e+00	1.91e-10	1.61e-10
2.1015e+00	1.93e-10	1.65e-10
2.2013e+00	1.95e-10	1.69e-10
2.3059e+00	1.97e-10	1.72e-10
2.4155e+00	1.98e-10	1.76e-10
2.5302e+00	2.00e-10	1.79e-10
2.6504e+00	2.01e-10	1.82e-10
2.7764e+00	2.02e-10	1.85e-10
2.9083e+00	2.02e-10	1.88e-10
3.0464e+00	2.02e-10	1.90e-10
3.1912e+00	2.02e-10	1.93e-10
3.3428e+00	2.02e-10	1.95e-10
3.5016e+00	2.01e-10	1.97e-10
3.6679e+00	2.00e-10	1.98e-10
3.8422e+00	1.99e-10	2.00e-10
4.0247e+00	1.97e-10	2.01e-10
4.2160e+00	1.95e-10	2.02e-10
4.4163e+00	1.92e-10	2.02e-10
4.6261e+00	1.90e-10	2.02e-10
4.8458e+00	1.87e-10	2.02e-10
5.0761e+00	1.83e-10	2.01e-10
5.3172e+00	1.80e-10	2.00e-10
5.5698e+00	1.76e-10	1.99e-10
5.8345e+00	1.72e-10	1.97e-10
6.1117e+00	1.67e-10	1.95e-10
6.4020e+00	1.62e-10	1.93e-10
6.7062e+00	1.58e-10	1.90e-10
7.0248e+00	1.52e-10	1.86e-10
7.3585e+00	1.47e-10	1.83e-10
7.7081e+00	1.42e-10	1.79e-10
8.0743e+00	1.36e-10	1.75e-10
8.4579e+00	1.30e-10	1.71e-10
8.8598e+00	1.24e-10	1.65e-10
9.2807e+00	1.18e-10	1.60e-10
9.7216e+00	1.12e-10	1.55e-10
1.0183e+01	1.06e-10	1.49e-10
1.0667e+01	1.01e-10	1.43e-10
1.1174e+01	9.48e-11	1.37e-10
1.1705e+01	8.90e-11	1.31e-10
1.2261e+01	8.34e-11	1.25e-10
1.2844e+01	7.79e-11	1.18e-10
1.3454e+01	7.25e-11	1.12e-10
1.4093e+01	6.74e-11	1.05e-10
1.4763e+01	6.24e-11	9.97e-11
1.5464e+01	5.76e-11	9.34e-11
1.6199e+01	5.30e-11	8.73e-11
1.6968e+01	4.85e-11	8.17e-11
1.7774e+01	4.43e-11	7.53e-11
1.8619e+01	4.03e-11	7.03e-11
1.9503e+01	3.66e-11	6.46e-11
2.0430e+01	3.31e-11	5.93e-11
2.1400e+01	2.98e-11	5.45e-11
2.2417e+01	2.67e-11	4.91e-11
2.3482e+01	2.39e-11	4.52e-11
2.4598e+01	2.13e-11	4.08e-11
2.5766e+01	1.90e-11	3.68e-11
2.6991e+01	1.67e-11	3.33e-11
2.8273e+01	1.48e-11	2.94e-11
2.9616e+01	1.29e-11	2.66e-11
3.1023e+01	1.13e-11	2.35e-11
3.2497e+01	9.87e-12	2.09e-11
3.4041e+01	8.52e-12	1.85e-11
3.5658e+01	7.36e-12	1.60e-11
3.7352e+01	6.31e-12	1.42e-11
3.9127e+01	5.40e-12	1.22e-11
4.0986e+01	4.61e-12	1.05e-11
4.2933e+01	3.91e-12	9.08e-12
4.4973e+01	3.32e-12	7.60e-12
4.7109e+01	2.81e-12	6.62e-12
4.9348e+01	2.38e-12	5.53e-12
5.1692e+01	2.00e-12	4.71e-12
5.4148e+01	1.70e-12	3.99e-12
5.6720e+01	1.45e-12	3.28e-12
5.9415e+01	1.23e-12	2.85e-12
6.2238e+01	1.05e-12	2.36e-12
6.5195e+01	8.95e-13	2.03e-12
6.8292e+01	7.70e-13	1.76e-12
7.1537e+01	6.46e-13	1.50e-12
7.4935e+01	5.47e-13	1.35e-12
7.8496e+01	4.57e-13	1.19e-12
8.2225e+01	3.66e-13	1.07e-12
8.6131e+01	2.81e-13	9.67e-13
9.0223e+01	1.99e-13	8.73e-13
9.4510e+01	1.14e-13	8.41e-13
9.9000e+01	2.11e-14	8.03e-13
