#		z = 0	z = 0.1	z = 0.2	z = 0.3	z = 0.4	z = 0.5	z = 0.6	z = 0.7	z = 0.8	z = 0.9	z = 1	z = 1.1	z = 1.2	z = 1.3	z = 1.4	z = 1.5	z = 1.6	z = 1.7	z = 1.8	z = 1.9	z = 2	z = 2.1	z = 2.2	z = 2.3	z = 2.4	z = 2.5	z = 2.6	z = 2.7	z = 2.8	z = 2.9	z = 3	z = 3.1	z = 3.2	z = 3.3	z = 3.4	z = 3.5	z = 3.6	z = 3.7	z = 3.8	z = 3.9	z = 4	
# M_200,m x h	Halo mass function M_{200,m}^{2} /#rho_{m,0} #times #frac{dn}{dM_{200,m}} (all following columns) 
# [Msol]	[unitless] (all following columns)
6.7800e+09	2.85e-02	2.80e-02	2.76e-02	2.72e-02	2.69e-02	2.66e-02	2.62e-02	2.59e-02	2.56e-02	2.53e-02	2.49e-02	2.46e-02	2.42e-02	2.39e-02	2.35e-02	2.31e-02	2.26e-02	2.22e-02	2.18e-02	2.13e-02	2.08e-02	2.04e-02	1.99e-02	1.94e-02	1.89e-02	1.84e-02	1.78e-02	1.73e-02	1.68e-02	1.63e-02	1.58e-02	1.52e-02	1.47e-02	1.42e-02	1.37e-02	1.32e-02	1.27e-02	1.22e-02	1.17e-02	1.12e-02	1.07e-02	
7.7954e+09	2.89e-02	2.84e-02	2.80e-02	2.76e-02	2.72e-02	2.69e-02	2.66e-02	2.62e-02	2.59e-02	2.56e-02	2.52e-02	2.48e-02	2.45e-02	2.41e-02	2.37e-02	2.32e-02	2.28e-02	2.24e-02	2.19e-02	2.14e-02	2.09e-02	2.04e-02	1.99e-02	1.94e-02	1.89e-02	1.84e-02	1.78e-02	1.73e-02	1.68e-02	1.62e-02	1.57e-02	1.51e-02	1.46e-02	1.41e-02	1.36e-02	1.30e-02	1.25e-02	1.20e-02	1.15e-02	1.10e-02	1.05e-02	
8.9628e+09	2.93e-02	2.88e-02	2.83e-02	2.79e-02	2.76e-02	2.72e-02	2.69e-02	2.65e-02	2.62e-02	2.58e-02	2.55e-02	2.51e-02	2.47e-02	2.43e-02	2.39e-02	2.34e-02	2.30e-02	2.25e-02	2.20e-02	2.15e-02	2.10e-02	2.05e-02	2.00e-02	1.94e-02	1.89e-02	1.83e-02	1.78e-02	1.72e-02	1.67e-02	1.61e-02	1.56e-02	1.50e-02	1.45e-02	1.39e-02	1.34e-02	1.29e-02	1.24e-02	1.18e-02	1.13e-02	1.08e-02	1.03e-02	
1.0305e+10	2.97e-02	2.92e-02	2.87e-02	2.83e-02	2.79e-02	2.76e-02	2.72e-02	2.68e-02	2.65e-02	2.61e-02	2.57e-02	2.53e-02	2.49e-02	2.45e-02	2.41e-02	2.36e-02	2.31e-02	2.26e-02	2.21e-02	2.16e-02	2.11e-02	2.06e-02	2.00e-02	1.95e-02	1.89e-02	1.83e-02	1.78e-02	1.72e-02	1.66e-02	1.61e-02	1.55e-02	1.49e-02	1.44e-02	1.38e-02	1.33e-02	1.27e-02	1.22e-02	1.17e-02	1.11e-02	1.06e-02	1.01e-02	
1.1848e+10	3.01e-02	2.96e-02	2.91e-02	2.87e-02	2.83e-02	2.79e-02	2.75e-02	2.72e-02	2.68e-02	2.64e-02	2.60e-02	2.56e-02	2.52e-02	2.47e-02	2.43e-02	2.38e-02	2.33e-02	2.28e-02	2.22e-02	2.17e-02	2.12e-02	2.06e-02	2.00e-02	1.95e-02	1.89e-02	1.83e-02	1.77e-02	1.71e-02	1.65e-02	1.60e-02	1.54e-02	1.48e-02	1.42e-02	1.37e-02	1.31e-02	1.25e-02	1.20e-02	1.15e-02	1.09e-02	1.04e-02	9.93e-03	
1.3623e+10	3.06e-02	3.00e-02	2.95e-02	2.91e-02	2.87e-02	2.83e-02	2.79e-02	2.75e-02	2.71e-02	2.67e-02	2.63e-02	2.59e-02	2.54e-02	2.49e-02	2.45e-02	2.40e-02	2.34e-02	2.29e-02	2.24e-02	2.18e-02	2.12e-02	2.07e-02	2.01e-02	1.95e-02	1.89e-02	1.83e-02	1.77e-02	1.71e-02	1.65e-02	1.59e-02	1.53e-02	1.47e-02	1.41e-02	1.35e-02	1.29e-02	1.24e-02	1.18e-02	1.13e-02	1.07e-02	1.02e-02	9.71e-03	
1.5663e+10	3.10e-02	3.04e-02	2.99e-02	2.95e-02	2.91e-02	2.86e-02	2.82e-02	2.78e-02	2.74e-02	2.70e-02	2.66e-02	2.61e-02	2.57e-02	2.52e-02	2.47e-02	2.41e-02	2.36e-02	2.30e-02	2.25e-02	2.19e-02	2.13e-02	2.07e-02	2.01e-02	1.95e-02	1.89e-02	1.82e-02	1.76e-02	1.70e-02	1.64e-02	1.57e-02	1.51e-02	1.45e-02	1.39e-02	1.33e-02	1.27e-02	1.22e-02	1.16e-02	1.10e-02	1.05e-02	9.99e-03	9.48e-03	
1.8008e+10	3.15e-02	3.09e-02	3.04e-02	2.99e-02	2.95e-02	2.90e-02	2.86e-02	2.82e-02	2.78e-02	2.73e-02	2.69e-02	2.64e-02	2.59e-02	2.54e-02	2.49e-02	2.43e-02	2.38e-02	2.32e-02	2.26e-02	2.20e-02	2.14e-02	2.07e-02	2.01e-02	1.95e-02	1.88e-02	1.82e-02	1.75e-02	1.69e-02	1.63e-02	1.56e-02	1.50e-02	1.44e-02	1.37e-02	1.31e-02	1.25e-02	1.20e-02	1.14e-02	1.08e-02	1.03e-02	9.75e-03	9.24e-03	
2.0705e+10	3.20e-02	3.14e-02	3.08e-02	3.03e-02	2.99e-02	2.94e-02	2.90e-02	2.85e-02	2.81e-02	2.76e-02	2.72e-02	2.67e-02	2.61e-02	2.56e-02	2.51e-02	2.45e-02	2.39e-02	2.33e-02	2.27e-02	2.21e-02	2.14e-02	2.08e-02	2.01e-02	1.95e-02	1.88e-02	1.81e-02	1.75e-02	1.68e-02	1.61e-02	1.55e-02	1.48e-02	1.42e-02	1.36e-02	1.29e-02	1.23e-02	1.17e-02	1.12e-02	1.06e-02	1.00e-02	9.51e-03	8.99e-03	
2.3806e+10	3.25e-02	3.18e-02	3.13e-02	3.08e-02	3.03e-02	2.98e-02	2.94e-02	2.89e-02	2.84e-02	2.79e-02	2.74e-02	2.69e-02	2.64e-02	2.58e-02	2.52e-02	2.47e-02	2.40e-02	2.34e-02	2.28e-02	2.21e-02	2.15e-02	2.08e-02	2.01e-02	1.94e-02	1.87e-02	1.80e-02	1.74e-02	1.67e-02	1.60e-02	1.53e-02	1.47e-02	1.40e-02	1.34e-02	1.27e-02	1.21e-02	1.15e-02	1.09e-02	1.03e-02	9.79e-03	9.25e-03	8.73e-03	
2.7371e+10	3.30e-02	3.23e-02	3.17e-02	3.12e-02	3.07e-02	3.02e-02	2.97e-02	2.93e-02	2.88e-02	2.83e-02	2.77e-02	2.72e-02	2.66e-02	2.60e-02	2.54e-02	2.48e-02	2.42e-02	2.35e-02	2.29e-02	2.22e-02	2.15e-02	2.08e-02	2.01e-02	1.94e-02	1.87e-02	1.80e-02	1.73e-02	1.65e-02	1.59e-02	1.52e-02	1.45e-02	1.38e-02	1.32e-02	1.25e-02	1.19e-02	1.13e-02	1.07e-02	1.01e-02	9.53e-03	8.99e-03	8.46e-03	
3.1470e+10	3.35e-02	3.28e-02	3.22e-02	3.16e-02	3.11e-02	3.06e-02	3.01e-02	2.96e-02	2.91e-02	2.86e-02	2.80e-02	2.74e-02	2.69e-02	2.62e-02	2.56e-02	2.50e-02	2.43e-02	2.36e-02	2.29e-02	2.22e-02	2.15e-02	2.08e-02	2.00e-02	1.93e-02	1.86e-02	1.78e-02	1.71e-02	1.64e-02	1.57e-02	1.50e-02	1.43e-02	1.36e-02	1.29e-02	1.23e-02	1.16e-02	1.10e-02	1.04e-02	9.83e-03	9.26e-03	8.72e-03	8.19e-03	
3.6183e+10	3.40e-02	3.33e-02	3.27e-02	3.21e-02	3.15e-02	3.10e-02	3.05e-02	3.00e-02	2.94e-02	2.89e-02	2.83e-02	2.77e-02	2.71e-02	2.64e-02	2.58e-02	2.51e-02	2.44e-02	2.37e-02	2.30e-02	2.22e-02	2.15e-02	2.07e-02	2.00e-02	1.92e-02	1.85e-02	1.77e-02	1.70e-02	1.62e-02	1.55e-02	1.48e-02	1.41e-02	1.34e-02	1.27e-02	1.20e-02	1.14e-02	1.07e-02	1.01e-02	9.55e-03	8.98e-03	8.43e-03	7.91e-03	
4.1601e+10	3.45e-02	3.38e-02	3.31e-02	3.25e-02	3.20e-02	3.14e-02	3.09e-02	3.03e-02	2.98e-02	2.92e-02	2.86e-02	2.80e-02	2.73e-02	2.66e-02	2.59e-02	2.52e-02	2.45e-02	2.38e-02	2.30e-02	2.23e-02	2.15e-02	2.07e-02	1.99e-02	1.91e-02	1.84e-02	1.76e-02	1.68e-02	1.61e-02	1.53e-02	1.46e-02	1.38e-02	1.31e-02	1.24e-02	1.18e-02	1.11e-02	1.05e-02	9.85e-03	9.26e-03	8.69e-03	8.14e-03	7.62e-03	
4.7832e+10	3.51e-02	3.43e-02	3.36e-02	3.30e-02	3.24e-02	3.18e-02	3.13e-02	3.07e-02	3.01e-02	2.95e-02	2.89e-02	2.82e-02	2.75e-02	2.68e-02	2.61e-02	2.54e-02	2.46e-02	2.38e-02	2.30e-02	2.23e-02	2.15e-02	2.06e-02	1.98e-02	1.90e-02	1.82e-02	1.74e-02	1.66e-02	1.59e-02	1.51e-02	1.43e-02	1.36e-02	1.29e-02	1.22e-02	1.15e-02	1.08e-02	1.02e-02	9.56e-03	8.96e-03	8.39e-03	7.84e-03	7.32e-03	
5.4995e+10	3.56e-02	3.48e-02	3.41e-02	3.35e-02	3.29e-02	3.23e-02	3.17e-02	3.11e-02	3.04e-02	2.98e-02	2.91e-02	2.84e-02	2.77e-02	2.70e-02	2.62e-02	2.55e-02	2.47e-02	2.39e-02	2.31e-02	2.22e-02	2.14e-02	2.06e-02	1.97e-02	1.89e-02	1.81e-02	1.73e-02	1.64e-02	1.56e-02	1.49e-02	1.41e-02	1.33e-02	1.26e-02	1.19e-02	1.12e-02	1.05e-02	9.87e-03	9.25e-03	8.65e-03	8.08e-03	7.54e-03	7.01e-03	
6.3231e+10	3.62e-02	3.54e-02	3.46e-02	3.40e-02	3.33e-02	3.27e-02	3.21e-02	3.14e-02	3.08e-02	3.01e-02	2.94e-02	2.87e-02	2.79e-02	2.72e-02	2.64e-02	2.56e-02	2.47e-02	2.39e-02	2.31e-02	2.22e-02	2.13e-02	2.05e-02	1.96e-02	1.88e-02	1.79e-02	1.71e-02	1.62e-02	1.54e-02	1.46e-02	1.38e-02	1.31e-02	1.23e-02	1.16e-02	1.09e-02	1.02e-02	9.56e-03	8.94e-03	8.34e-03	7.77e-03	7.22e-03	6.71e-03	
7.2700e+10	3.68e-02	3.59e-02	3.52e-02	3.45e-02	3.38e-02	3.31e-02	3.25e-02	3.18e-02	3.11e-02	3.04e-02	2.97e-02	2.89e-02	2.81e-02	2.73e-02	2.65e-02	2.57e-02	2.48e-02	2.39e-02	2.30e-02	2.22e-02	2.13e-02	2.04e-02	1.95e-02	1.86e-02	1.77e-02	1.69e-02	1.60e-02	1.52e-02	1.43e-02	1.35e-02	1.28e-02	1.20e-02	1.13e-02	1.06e-02	9.89e-03	9.24e-03	8.61e-03	8.02e-03	7.45e-03	6.91e-03	6.39e-03	
8.3587e+10	3.74e-02	3.65e-02	3.57e-02	3.50e-02	3.43e-02	3.36e-02	3.29e-02	3.22e-02	3.14e-02	3.07e-02	2.99e-02	2.91e-02	2.83e-02	2.75e-02	2.66e-02	2.57e-02	2.48e-02	2.39e-02	2.30e-02	2.21e-02	2.12e-02	2.02e-02	1.93e-02	1.84e-02	1.75e-02	1.66e-02	1.57e-02	1.49e-02	1.41e-02	1.32e-02	1.25e-02	1.17e-02	1.10e-02	1.02e-02	9.56e-03	8.91e-03	8.28e-03	7.69e-03	7.12e-03	6.59e-03	6.08e-03	
9.6105e+10	3.80e-02	3.71e-02	3.62e-02	3.55e-02	3.47e-02	3.40e-02	3.33e-02	3.25e-02	3.18e-02	3.10e-02	3.02e-02	2.94e-02	2.85e-02	2.76e-02	2.67e-02	2.58e-02	2.49e-02	2.39e-02	2.30e-02	2.20e-02	2.11e-02	2.01e-02	1.92e-02	1.82e-02	1.73e-02	1.64e-02	1.55e-02	1.46e-02	1.38e-02	1.29e-02	1.21e-02	1.14e-02	1.06e-02	9.90e-03	9.22e-03	8.56e-03	7.94e-03	7.35e-03	6.79e-03	6.26e-03	5.76e-03	
1.1050e+11	3.86e-02	3.77e-02	3.68e-02	3.60e-02	3.52e-02	3.45e-02	3.37e-02	3.29e-02	3.21e-02	3.13e-02	3.05e-02	2.96e-02	2.87e-02	2.78e-02	2.68e-02	2.59e-02	2.49e-02	2.39e-02	2.29e-02	2.19e-02	2.09e-02	1.99e-02	1.90e-02	1.80e-02	1.70e-02	1.61e-02	1.52e-02	1.43e-02	1.34e-02	1.26e-02	1.18e-02	1.10e-02	1.03e-02	9.55e-03	8.87e-03	8.22e-03	7.60e-03	7.01e-03	6.46e-03	5.93e-03	5.44e-03	
1.2704e+11	3.93e-02	3.83e-02	3.74e-02	3.65e-02	3.57e-02	3.49e-02	3.41e-02	3.33e-02	3.25e-02	3.16e-02	3.07e-02	2.98e-02	2.88e-02	2.79e-02	2.69e-02	2.59e-02	2.49e-02	2.39e-02	2.28e-02	2.18e-02	2.08e-02	1.98e-02	1.87e-02	1.78e-02	1.68e-02	1.58e-02	1.49e-02	1.40e-02	1.31e-02	1.23e-02	1.14e-02	1.07e-02	9.91e-03	9.19e-03	8.51e-03	7.86e-03	7.25e-03	6.67e-03	6.12e-03	5.61e-03	5.13e-03	
1.4607e+11	3.99e-02	3.89e-02	3.79e-02	3.71e-02	3.62e-02	3.54e-02	3.45e-02	3.37e-02	3.28e-02	3.19e-02	3.09e-02	3.00e-02	2.90e-02	2.80e-02	2.70e-02	2.59e-02	2.49e-02	2.38e-02	2.27e-02	2.17e-02	2.06e-02	1.95e-02	1.85e-02	1.75e-02	1.65e-02	1.55e-02	1.46e-02	1.37e-02	1.28e-02	1.19e-02	1.11e-02	1.03e-02	9.54e-03	8.82e-03	8.14e-03	7.50e-03	6.89e-03	6.32e-03	5.78e-03	5.28e-03	4.81e-03	
1.6795e+11	4.06e-02	3.95e-02	3.85e-02	3.76e-02	3.67e-02	3.58e-02	3.49e-02	3.40e-02	3.31e-02	3.22e-02	3.12e-02	3.02e-02	2.91e-02	2.81e-02	2.70e-02	2.59e-02	2.48e-02	2.37e-02	2.26e-02	2.15e-02	2.04e-02	1.93e-02	1.83e-02	1.72e-02	1.62e-02	1.52e-02	1.42e-02	1.33e-02	1.24e-02	1.15e-02	1.07e-02	9.91e-03	9.16e-03	8.44e-03	7.77e-03	7.13e-03	6.53e-03	5.97e-03	5.44e-03	4.95e-03	4.49e-03	
1.9310e+11	4.13e-02	4.02e-02	3.91e-02	3.82e-02	3.72e-02	3.63e-02	3.54e-02	3.44e-02	3.34e-02	3.24e-02	3.14e-02	3.03e-02	2.92e-02	2.81e-02	2.70e-02	2.59e-02	2.47e-02	2.36e-02	2.24e-02	2.13e-02	2.02e-02	1.91e-02	1.80e-02	1.69e-02	1.59e-02	1.48e-02	1.39e-02	1.29e-02	1.20e-02	1.11e-02	1.03e-02	9.52e-03	8.77e-03	8.06e-03	7.39e-03	6.76e-03	6.17e-03	5.61e-03	5.10e-03	4.62e-03	4.18e-03	
2.2201e+11	4.20e-02	4.08e-02	3.97e-02	3.87e-02	3.77e-02	3.68e-02	3.58e-02	3.48e-02	3.37e-02	3.27e-02	3.16e-02	3.05e-02	2.94e-02	2.82e-02	2.70e-02	2.58e-02	2.46e-02	2.35e-02	2.23e-02	2.11e-02	1.99e-02	1.88e-02	1.77e-02	1.66e-02	1.55e-02	1.45e-02	1.35e-02	1.25e-02	1.16e-02	1.07e-02	9.90e-03	9.11e-03	8.37e-03	7.66e-03	7.00e-03	6.38e-03	5.80e-03	5.26e-03	4.76e-03	4.30e-03	3.87e-03	
2.5526e+11	4.27e-02	4.15e-02	4.04e-02	3.93e-02	3.83e-02	3.72e-02	3.62e-02	3.51e-02	3.40e-02	3.29e-02	3.18e-02	3.06e-02	2.94e-02	2.82e-02	2.70e-02	2.58e-02	2.45e-02	2.33e-02	2.21e-02	2.09e-02	1.97e-02	1.85e-02	1.73e-02	1.62e-02	1.51e-02	1.41e-02	1.31e-02	1.21e-02	1.12e-02	1.03e-02	9.49e-03	8.70e-03	7.96e-03	7.26e-03	6.61e-03	6.00e-03	5.44e-03	4.91e-03	4.43e-03	3.98e-03	3.57e-03	
2.9349e+11	4.35e-02	4.22e-02	4.10e-02	3.99e-02	3.88e-02	3.77e-02	3.66e-02	3.55e-02	3.43e-02	3.32e-02	3.20e-02	3.07e-02	2.95e-02	2.82e-02	2.70e-02	2.57e-02	2.44e-02	2.31e-02	2.18e-02	2.06e-02	1.94e-02	1.82e-02	1.70e-02	1.58e-02	1.47e-02	1.37e-02	1.27e-02	1.17e-02	1.08e-02	9.89e-03	9.06e-03	8.28e-03	7.55e-03	6.86e-03	6.22e-03	5.63e-03	5.07e-03	4.57e-03	4.10e-03	3.67e-03	3.28e-03	
3.3744e+11	4.42e-02	4.28e-02	4.16e-02	4.04e-02	3.93e-02	3.81e-02	3.70e-02	3.58e-02	3.46e-02	3.34e-02	3.21e-02	3.08e-02	2.95e-02	2.82e-02	2.69e-02	2.55e-02	2.42e-02	2.29e-02	2.16e-02	2.03e-02	1.90e-02	1.78e-02	1.66e-02	1.54e-02	1.43e-02	1.32e-02	1.22e-02	1.12e-02	1.03e-02	9.45e-03	8.62e-03	7.85e-03	7.13e-03	6.45e-03	5.83e-03	5.25e-03	4.72e-03	4.22e-03	3.77e-03	3.36e-03	2.99e-03	
3.8798e+11	4.50e-02	4.35e-02	4.22e-02	4.10e-02	3.98e-02	3.86e-02	3.74e-02	3.61e-02	3.49e-02	3.36e-02	3.23e-02	3.09e-02	2.95e-02	2.82e-02	2.68e-02	2.54e-02	2.40e-02	2.26e-02	2.13e-02	2.00e-02	1.87e-02	1.74e-02	1.62e-02	1.50e-02	1.39e-02	1.28e-02	1.18e-02	1.08e-02	9.87e-03	9.00e-03	8.18e-03	7.42e-03	6.71e-03	6.05e-03	5.44e-03	4.88e-03	4.36e-03	3.89e-03	3.46e-03	3.07e-03	2.71e-03	
4.4608e+11	4.57e-02	4.42e-02	4.29e-02	4.16e-02	4.03e-02	3.90e-02	3.78e-02	3.64e-02	3.51e-02	3.38e-02	3.24e-02	3.10e-02	2.95e-02	2.81e-02	2.66e-02	2.52e-02	2.38e-02	2.24e-02	2.10e-02	1.96e-02	1.83e-02	1.70e-02	1.58e-02	1.46e-02	1.34e-02	1.23e-02	1.13e-02	1.03e-02	9.40e-03	8.54e-03	7.73e-03	6.98e-03	6.28e-03	5.64e-03	5.05e-03	4.51e-03	4.01e-03	3.56e-03	3.15e-03	2.78e-03	2.45e-03	
5.1288e+11	4.65e-02	4.50e-02	4.35e-02	4.22e-02	4.08e-02	3.95e-02	3.81e-02	3.67e-02	3.53e-02	3.39e-02	3.25e-02	3.10e-02	2.95e-02	2.80e-02	2.65e-02	2.50e-02	2.35e-02	2.21e-02	2.06e-02	1.92e-02	1.79e-02	1.66e-02	1.53e-02	1.41e-02	1.29e-02	1.18e-02	1.08e-02	9.84e-03	8.92e-03	8.07e-03	7.28e-03	6.54e-03	5.86e-03	5.24e-03	4.67e-03	4.15e-03	3.67e-03	3.24e-03	2.86e-03	2.51e-03	2.19e-03	
5.8969e+11	4.73e-02	4.57e-02	4.42e-02	4.27e-02	4.13e-02	3.99e-02	3.85e-02	3.70e-02	3.56e-02	3.40e-02	3.25e-02	3.10e-02	2.94e-02	2.79e-02	2.63e-02	2.47e-02	2.32e-02	2.17e-02	2.02e-02	1.88e-02	1.74e-02	1.61e-02	1.48e-02	1.36e-02	1.24e-02	1.13e-02	1.03e-02	9.34e-03	8.44e-03	7.60e-03	6.82e-03	6.10e-03	5.45e-03	4.84e-03	4.29e-03	3.80e-03	3.34e-03	2.94e-03	2.57e-03	2.24e-03	1.95e-03	
6.7800e+11	4.81e-02	4.64e-02	4.48e-02	4.33e-02	4.18e-02	4.03e-02	3.88e-02	3.73e-02	3.57e-02	3.42e-02	3.26e-02	3.09e-02	2.93e-02	2.77e-02	2.61e-02	2.45e-02	2.29e-02	2.13e-02	1.98e-02	1.84e-02	1.69e-02	1.56e-02	1.43e-02	1.31e-02	1.19e-02	1.08e-02	9.80e-03	8.84e-03	7.95e-03	7.13e-03	6.37e-03	5.67e-03	5.03e-03	4.45e-03	3.93e-03	3.45e-03	3.03e-03	2.64e-03	2.30e-03	2.00e-03	1.73e-03	
7.7954e+11	4.90e-02	4.72e-02	4.55e-02	4.39e-02	4.23e-02	4.07e-02	3.91e-02	3.75e-02	3.59e-02	3.42e-02	3.26e-02	3.09e-02	2.92e-02	2.75e-02	2.58e-02	2.41e-02	2.25e-02	2.09e-02	1.94e-02	1.79e-02	1.64e-02	1.51e-02	1.38e-02	1.25e-02	1.14e-02	1.03e-02	9.28e-03	8.33e-03	7.46e-03	6.65e-03	5.91e-03	5.24e-03	4.63e-03	4.07e-03	3.57e-03	3.12e-03	2.72e-03	2.36e-03	2.04e-03	1.76e-03	1.52e-03	
8.9628e+11	4.98e-02	4.79e-02	4.61e-02	4.45e-02	4.28e-02	4.11e-02	3.95e-02	3.78e-02	3.60e-02	3.43e-02	3.25e-02	3.08e-02	2.90e-02	2.72e-02	2.55e-02	2.38e-02	2.21e-02	2.05e-02	1.89e-02	1.74e-02	1.59e-02	1.45e-02	1.32e-02	1.20e-02	1.08e-02	9.75e-03	8.75e-03	7.82e-03	6.96e-03	6.18e-03	5.47e-03	4.82e-03	4.23e-03	3.70e-03	3.23e-03	2.80e-03	2.43e-03	2.10e-03	1.80e-03	1.54e-03	1.32e-03	
1.0305e+12	5.06e-02	4.87e-02	4.68e-02	4.50e-02	4.33e-02	4.15e-02	3.97e-02	3.80e-02	3.61e-02	3.43e-02	3.25e-02	3.06e-02	2.88e-02	2.69e-02	2.51e-02	2.34e-02	2.17e-02	2.00e-02	1.84e-02	1.68e-02	1.54e-02	1.40e-02	1.27e-02	1.14e-02	1.03e-02	9.20e-03	8.21e-03	7.30e-03	6.47e-03	5.71e-03	5.02e-03	4.40e-03	3.84e-03	3.34e-03	2.90e-03	2.50e-03	2.15e-03	1.85e-03	1.58e-03	1.34e-03	1.14e-03	
1.1848e+12	5.15e-02	4.94e-02	4.74e-02	4.56e-02	4.37e-02	4.19e-02	4.00e-02	3.81e-02	3.62e-02	3.43e-02	3.24e-02	3.04e-02	2.85e-02	2.66e-02	2.48e-02	2.29e-02	2.12e-02	1.95e-02	1.78e-02	1.63e-02	1.48e-02	1.34e-02	1.21e-02	1.08e-02	9.70e-03	8.64e-03	7.68e-03	6.79e-03	5.98e-03	5.25e-03	4.59e-03	4.00e-03	3.47e-03	3.00e-03	2.58e-03	2.22e-03	1.89e-03	1.61e-03	1.37e-03	1.15e-03	9.72e-04	
1.3623e+12	5.24e-02	5.01e-02	4.81e-02	4.61e-02	4.41e-02	4.22e-02	4.02e-02	3.82e-02	3.62e-02	3.42e-02	3.22e-02	3.02e-02	2.82e-02	2.63e-02	2.43e-02	2.25e-02	2.06e-02	1.89e-02	1.72e-02	1.57e-02	1.42e-02	1.28e-02	1.15e-02	1.02e-02	9.12e-03	8.08e-03	7.14e-03	6.28e-03	5.50e-03	4.80e-03	4.17e-03	3.61e-03	3.11e-03	2.67e-03	2.28e-03	1.95e-03	1.65e-03	1.40e-03	1.17e-03	9.85e-04	8.23e-04	
1.5663e+12	5.32e-02	5.09e-02	4.87e-02	4.66e-02	4.46e-02	4.25e-02	4.04e-02	3.83e-02	3.62e-02	3.41e-02	3.20e-02	2.99e-02	2.79e-02	2.58e-02	2.39e-02	2.19e-02	2.01e-02	1.83e-02	1.66e-02	1.50e-02	1.35e-02	1.21e-02	1.08e-02	9.64e-03	8.53e-03	7.52e-03	6.60e-03	5.77e-03	5.03e-03	4.36e-03	3.76e-03	3.23e-03	2.77e-03	2.36e-03	2.01e-03	1.70e-03	1.43e-03	1.20e-03	1.00e-03	8.32e-04	6.89e-04	
1.8008e+12	5.41e-02	5.16e-02	4.93e-02	4.71e-02	4.49e-02	4.28e-02	4.06e-02	3.84e-02	3.62e-02	3.40e-02	3.18e-02	2.96e-02	2.75e-02	2.54e-02	2.33e-02	2.14e-02	1.95e-02	1.77e-02	1.60e-02	1.44e-02	1.29e-02	1.15e-02	1.02e-02	9.02e-03	7.94e-03	6.96e-03	6.07e-03	5.28e-03	4.56e-03	3.93e-03	3.37e-03	2.88e-03	2.45e-03	2.07e-03	1.74e-03	1.46e-03	1.22e-03	1.02e-03	8.42e-04	6.95e-04	5.70e-04	
2.0705e+12	5.49e-02	5.24e-02	4.99e-02	4.76e-02	4.53e-02	4.30e-02	4.07e-02	3.84e-02	3.61e-02	3.38e-02	3.15e-02	2.92e-02	2.70e-02	2.49e-02	2.28e-02	2.08e-02	1.88e-02	1.70e-02	1.53e-02	1.37e-02	1.22e-02	1.08e-02	9.56e-03	8.41e-03	7.35e-03	6.40e-03	5.55e-03	4.79e-03	4.12e-03	3.52e-03	3.00e-03	2.54e-03	2.14e-03	1.80e-03	1.50e-03	1.25e-03	1.04e-03	8.55e-04	7.02e-04	5.74e-04	4.67e-04	
2.3806e+12	5.58e-02	5.31e-02	5.05e-02	4.81e-02	4.56e-02	4.32e-02	4.08e-02	3.84e-02	3.59e-02	3.35e-02	3.11e-02	2.88e-02	2.65e-02	2.43e-02	2.22e-02	2.01e-02	1.82e-02	1.63e-02	1.46e-02	1.30e-02	1.15e-02	1.02e-02	8.92e-03	7.79e-03	6.77e-03	5.86e-03	5.04e-03	4.32e-03	3.69e-03	3.13e-03	2.64e-03	2.22e-03	1.86e-03	1.55e-03	1.28e-03	1.06e-03	8.69e-04	7.10e-04	5.78e-04	4.68e-04	3.77e-04	
2.7371e+12	5.66e-02	5.38e-02	5.11e-02	4.85e-02	4.59e-02	4.34e-02	4.08e-02	3.83e-02	3.57e-02	3.32e-02	3.07e-02	2.83e-02	2.60e-02	2.37e-02	2.15e-02	1.94e-02	1.74e-02	1.56e-02	1.39e-02	1.23e-02	1.08e-02	9.48e-03	8.27e-03	7.18e-03	6.20e-03	5.32e-03	4.55e-03	3.87e-03	3.27e-03	2.76e-03	2.31e-03	1.93e-03	1.60e-03	1.32e-03	1.08e-03	8.86e-04	7.21e-04	5.83e-04	4.70e-04	3.76e-04	3.00e-04	
3.1470e+12	5.75e-02	5.45e-02	5.16e-02	4.89e-02	4.62e-02	4.35e-02	4.08e-02	3.81e-02	3.55e-02	3.29e-02	3.03e-02	2.78e-02	2.53e-02	2.30e-02	2.08e-02	1.87e-02	1.67e-02	1.48e-02	1.31e-02	1.16e-02	1.01e-02	8.80e-03	7.63e-03	6.57e-03	5.63e-03	4.80e-03	4.07e-03	3.44e-03	2.88e-03	2.41e-03	2.00e-03	1.65e-03	1.36e-03	1.11e-03	9.05e-04	7.32e-04	5.90e-04	4.73e-04	3.77e-04	2.99e-04	2.36e-04	
3.6183e+12	5.83e-02	5.51e-02	5.21e-02	4.92e-02	4.64e-02	4.35e-02	4.07e-02	3.79e-02	3.51e-02	3.24e-02	2.98e-02	2.72e-02	2.47e-02	2.23e-02	2.00e-02	1.79e-02	1.59e-02	1.41e-02	1.24e-02	1.08e-02	9.40e-03	8.13e-03	6.99e-03	5.98e-03	5.08e-03	4.30e-03	3.62e-03	3.03e-03	2.52e-03	2.08e-03	1.72e-03	1.41e-03	1.14e-03	9.27e-04	7.46e-04	5.98e-04	4.77e-04	3.78e-04	2.98e-04	2.33e-04	1.82e-04	
4.1601e+12	5.91e-02	5.57e-02	5.26e-02	4.95e-02	4.65e-02	4.35e-02	4.06e-02	3.76e-02	3.48e-02	3.19e-02	2.92e-02	2.65e-02	2.40e-02	2.15e-02	1.92e-02	1.71e-02	1.51e-02	1.33e-02	1.16e-02	1.01e-02	8.68e-03	7.45e-03	6.36e-03	5.40e-03	4.55e-03	3.82e-03	3.19e-03	2.64e-03	2.18e-03	1.79e-03	1.46e-03	1.18e-03	9.52e-04	7.63e-04	6.08e-04	4.82e-04	3.80e-04	2.97e-04	2.32e-04	1.80e-04	1.38e-04	
4.7832e+12	5.99e-02	5.63e-02	5.30e-02	4.98e-02	4.66e-02	4.35e-02	4.04e-02	3.73e-02	3.43e-02	3.14e-02	2.85e-02	2.58e-02	2.32e-02	2.07e-02	1.84e-02	1.63e-02	1.43e-02	1.24e-02	1.08e-02	9.30e-03	7.97e-03	6.79e-03	5.75e-03	4.84e-03	4.04e-03	3.36e-03	2.78e-03	2.28e-03	1.86e-03	1.51e-03	1.22e-03	9.80e-04	7.81e-04	6.19e-04	4.88e-04	3.82e-04	2.98e-04	2.30e-04	1.77e-04	1.36e-04	1.03e-04	
5.4995e+12	6.06e-02	5.69e-02	5.34e-02	5.00e-02	4.66e-02	4.33e-02	4.01e-02	3.69e-02	3.38e-02	3.07e-02	2.78e-02	2.50e-02	2.24e-02	1.99e-02	1.75e-02	1.54e-02	1.34e-02	1.16e-02	1.00e-02	8.55e-03	7.27e-03	6.14e-03	5.15e-03	4.30e-03	3.56e-03	2.93e-03	2.40e-03	1.95e-03	1.58e-03	1.27e-03	1.01e-03	8.03e-04	6.33e-04	4.96e-04	3.86e-04	2.99e-04	2.30e-04	1.76e-04	1.33e-04	1.01e-04	7.55e-05	
6.3231e+12	6.13e-02	5.74e-02	5.37e-02	5.01e-02	4.66e-02	4.31e-02	3.97e-02	3.64e-02	3.32e-02	3.00e-02	2.70e-02	2.42e-02	2.15e-02	1.90e-02	1.66e-02	1.45e-02	1.25e-02	1.08e-02	9.20e-03	7.81e-03	6.58e-03	5.51e-03	4.58e-03	3.79e-03	3.11e-03	2.53e-03	2.05e-03	1.65e-03	1.32e-03	1.05e-03	8.28e-04	6.49e-04	5.05e-04	3.91e-04	3.01e-04	2.30e-04	1.74e-04	1.31e-04	9.84e-05	7.32e-05	5.41e-05	
7.2700e+12	6.20e-02	5.78e-02	5.39e-02	5.02e-02	4.65e-02	4.28e-02	3.93e-02	3.58e-02	3.25e-02	2.93e-02	2.62e-02	2.33e-02	2.05e-02	1.80e-02	1.57e-02	1.36e-02	1.16e-02	9.93e-03	8.41e-03	7.08e-03	5.91e-03	4.90e-03	4.04e-03	3.30e-03	2.68e-03	2.16e-03	1.73e-03	1.38e-03	1.09e-03	8.56e-04	6.67e-04	5.16e-04	3.97e-04	3.03e-04	2.30e-04	1.73e-04	1.30e-04	9.63e-05	7.11e-05	5.21e-05	3.79e-05	
8.3587e+12	6.26e-02	5.82e-02	5.41e-02	5.01e-02	4.63e-02	4.25e-02	3.88e-02	3.52e-02	3.17e-02	2.84e-02	2.53e-02	2.23e-02	1.96e-02	1.70e-02	1.47e-02	1.26e-02	1.08e-02	9.10e-03	7.63e-03	6.36e-03	5.26e-03	4.32e-03	3.52e-03	2.85e-03	2.29e-03	1.83e-03	1.45e-03	1.14e-03	8.88e-04	6.88e-04	5.30e-04	4.05e-04	3.07e-04	2.31e-04	1.73e-04	1.28e-04	9.45e-05	6.91e-05	5.02e-05	3.62e-05	2.59e-05	
9.6105e+12	6.31e-02	5.86e-02	5.42e-02	5.00e-02	4.60e-02	4.20e-02	3.82e-02	3.44e-02	3.09e-02	2.75e-02	2.43e-02	2.13e-02	1.85e-02	1.60e-02	1.37e-02	1.17e-02	9.87e-03	8.27e-03	6.87e-03	5.67e-03	4.64e-03	3.77e-03	3.04e-03	2.44e-03	1.93e-03	1.52e-03	1.19e-03	9.25e-04	7.13e-04	5.45e-04	4.14e-04	3.11e-04	2.33e-04	1.73e-04	1.27e-04	9.29e-05	6.74e-05	4.85e-05	3.46e-05	2.46e-05	1.73e-05	
1.1050e+13	6.36e-02	5.88e-02	5.42e-02	4.98e-02	4.56e-02	4.14e-02	3.74e-02	3.36e-02	2.99e-02	2.65e-02	2.32e-02	2.02e-02	1.75e-02	1.50e-02	1.27e-02	1.07e-02	8.98e-03	7.45e-03	6.14e-03	5.01e-03	4.06e-03	3.26e-03	2.60e-03	2.05e-03	1.61e-03	1.25e-03	9.68e-04	7.41e-04	5.63e-04	4.24e-04	3.17e-04	2.35e-04	1.73e-04	1.26e-04	9.16e-05	6.58e-05	4.69e-05	3.32e-05	2.33e-05	1.62e-05	1.12e-05	
1.2704e+13	6.40e-02	5.89e-02	5.41e-02	4.95e-02	4.51e-02	4.08e-02	3.66e-02	3.27e-02	2.89e-02	2.54e-02	2.21e-02	1.91e-02	1.64e-02	1.39e-02	1.17e-02	9.79e-03	8.11e-03	6.66e-03	5.43e-03	4.38e-03	3.51e-03	2.78e-03	2.19e-03	1.71e-03	1.32e-03	1.02e-03	7.74e-04	5.84e-04	4.37e-04	3.24e-04	2.39e-04	1.74e-04	1.26e-04	9.06e-05	6.45e-05	4.55e-05	3.19e-05	2.21e-05	1.52e-05	1.04e-05	7.04e-06	
1.4607e+13	6.43e-02	5.90e-02	5.39e-02	4.91e-02	4.45e-02	4.00e-02	3.57e-02	3.17e-02	2.78e-02	2.43e-02	2.10e-02	1.80e-02	1.53e-02	1.28e-02	1.07e-02	8.86e-03	7.26e-03	5.90e-03	4.75e-03	3.79e-03	3.00e-03	2.35e-03	1.83e-03	1.41e-03	1.07e-03	8.11e-04	6.08e-04	4.52e-04	3.33e-04	2.43e-04	1.76e-04	1.26e-04	8.98e-05	6.33e-05	4.42e-05	3.07e-05	2.10e-05	1.43e-05	9.67e-06	6.47e-06	4.29e-06	
1.6795e+13	6.45e-02	5.89e-02	5.36e-02	4.86e-02	4.38e-02	3.91e-02	3.47e-02	3.06e-02	2.67e-02	2.31e-02	1.98e-02	1.68e-02	1.41e-02	1.18e-02	9.72e-03	7.95e-03	6.44e-03	5.17e-03	4.11e-03	3.24e-03	2.53e-03	1.96e-03	1.50e-03	1.14e-03	8.55e-04	6.37e-04	4.70e-04	3.43e-04	2.49e-04	1.79e-04	1.27e-04	8.94e-05	6.24e-05	4.32e-05	2.96e-05	2.01e-05	1.35e-05	9.00e-06	5.94e-06	3.89e-06	2.52e-06	
1.9310e+13	6.46e-02	5.87e-02	5.32e-02	4.79e-02	4.29e-02	3.81e-02	3.36e-02	2.93e-02	2.54e-02	2.18e-02	1.85e-02	1.56e-02	1.30e-02	1.07e-02	8.74e-03	7.07e-03	5.66e-03	4.49e-03	3.52e-03	2.74e-03	2.11e-03	1.61e-03	1.21e-03	9.05e-04	6.70e-04	4.91e-04	3.56e-04	2.56e-04	1.82e-04	1.28e-04	8.94e-05	6.17e-05	4.22e-05	2.86e-05	1.92e-05	1.28e-05	8.39e-06	5.47e-06	3.53e-06	2.26e-06	1.43e-06	
2.2201e+13	6.45e-02	5.84e-02	5.26e-02	4.71e-02	4.19e-02	3.70e-02	3.24e-02	2.81e-02	2.41e-02	2.05e-02	1.72e-02	1.43e-02	1.18e-02	9.64e-03	7.78e-03	6.22e-03	4.91e-03	3.84e-03	2.98e-03	2.28e-03	1.73e-03	1.30e-03	9.63e-04	7.08e-04	5.15e-04	3.70e-04	2.64e-04	1.86e-04	1.30e-04	8.97e-05	6.13e-05	4.15e-05	2.78e-05	1.84e-05	1.21e-05	7.84e-06	5.04e-06	3.21e-06	2.02e-06	1.26e-06	7.76e-07	
2.5526e+13	6.43e-02	5.79e-02	5.19e-02	4.62e-02	4.08e-02	3.58e-02	3.11e-02	2.67e-02	2.27e-02	1.91e-02	1.59e-02	1.31e-02	1.07e-02	8.61e-03	6.86e-03	5.41e-03	4.22e-03	3.25e-03	2.48e-03	1.87e-03	1.40e-03	1.03e-03	7.52e-04	5.43e-04	3.88e-04	2.74e-04	1.91e-04	1.32e-04	9.04e-05	6.11e-05	4.09e-05	2.71e-05	1.77e-05	1.15e-05	7.34e-06	4.65e-06	2.92e-06	1.81e-06	1.11e-06	6.73e-07	4.04e-07	
2.9349e+13	6.40e-02	5.73e-02	5.11e-02	4.52e-02	3.96e-02	3.44e-02	2.96e-02	2.52e-02	2.13e-02	1.77e-02	1.46e-02	1.19e-02	9.57e-03	7.61e-03	5.99e-03	4.65e-03	3.58e-03	2.72e-03	2.04e-03	1.51e-03	1.11e-03	8.04e-04	5.76e-04	4.08e-04	2.86e-04	1.98e-04	1.35e-04	9.16e-05	6.13e-05	4.05e-05	2.65e-05	1.71e-05	1.09e-05	6.90e-06	4.31e-06	2.66e-06	1.62e-06	9.78e-07	5.83e-07	3.44e-07	2.01e-07	
3.3744e+13	6.35e-02	5.65e-02	5.00e-02	4.39e-02	3.83e-02	3.30e-02	2.81e-02	2.37e-02	1.98e-02	1.63e-02	1.33e-02	1.07e-02	8.48e-03	6.66e-03	5.16e-03	3.95e-03	2.99e-03	2.23e-03	1.65e-03	1.20e-03	8.65e-04	6.16e-04	4.33e-04	3.00e-04	2.06e-04	1.39e-04	9.33e-05	6.17e-05	4.03e-05	2.60e-05	1.66e-05	1.04e-05	6.50e-06	4.00e-06	2.43e-06	1.46e-06	8.63e-07	5.06e-07	2.93e-07	1.67e-07	9.46e-08	
3.8798e+13	6.28e-02	5.56e-02	4.89e-02	4.26e-02	3.68e-02	3.14e-02	2.65e-02	2.22e-02	1.83e-02	1.49e-02	1.20e-02	9.49e-03	7.44e-03	5.75e-03	4.39e-03	3.31e-03	2.46e-03	1.81e-03	1.31e-03	9.37e-04	6.62e-04	4.61e-04	3.17e-04	2.15e-04	1.44e-04	9.56e-05	6.25e-05	4.03e-05	2.57e-05	1.61e-05	1.00e-05	6.14e-06	3.72e-06	2.22e-06	1.31e-06	7.63e-07	4.39e-07	2.49e-07	1.40e-07	7.73e-08	4.22e-08	
4.4608e+13	6.20e-02	5.45e-02	4.75e-02	4.11e-02	3.52e-02	2.98e-02	2.49e-02	2.05e-02	1.67e-02	1.35e-02	1.07e-02	8.35e-03	6.45e-03	4.91e-03	3.69e-03	2.73e-03	1.99e-03	1.44e-03	1.02e-03	7.16e-04	4.95e-04	3.38e-04	2.27e-04	1.51e-04	9.87e-05	6.37e-05	4.06e-05	2.55e-05	1.58e-05	9.67e-06	5.83e-06	3.47e-06	2.04e-06	1.18e-06	6.75e-07	3.81e-07	2.12e-07	1.16e-07	6.30e-08	3.37e-08	1.77e-08	
5.1288e+13	6.09e-02	5.31e-02	4.60e-02	3.94e-02	3.34e-02	2.80e-02	2.32e-02	1.89e-02	1.52e-02	1.21e-02	9.42e-03	7.26e-03	5.52e-03	4.13e-03	3.05e-03	2.22e-03	1.59e-03	1.12e-03	7.80e-04	5.35e-04	3.62e-04	2.41e-04	1.58e-04	1.02e-04	6.54e-05	4.11e-05	2.55e-05	1.56e-05	9.37e-06	5.57e-06	3.26e-06	1.88e-06	1.07e-06	5.99e-07	3.31e-07	1.80e-07	9.69e-08	5.13e-08	2.68e-08	1.38e-08	6.99e-09	
5.8969e+13	5.96e-02	5.16e-02	4.43e-02	3.76e-02	3.16e-02	2.62e-02	2.14e-02	1.72e-02	1.37e-02	1.07e-02	8.22e-03	6.24e-03	4.66e-03	3.42e-03	2.48e-03	1.77e-03	1.24e-03	8.57e-04	5.83e-04	3.91e-04	2.58e-04	1.67e-04	1.07e-04	6.75e-05	4.19e-05	2.56e-05	1.54e-05	9.14e-06	5.34e-06	3.07e-06	1.74e-06	9.69e-07	5.33e-07	2.88e-07	1.54e-07	8.07e-08	4.17e-08	2.12e-08	1.07e-08	5.27e-09	2.56e-09	
6.7800e+13	5.81e-02	4.99e-02	4.25e-02	3.57e-02	2.97e-02	2.43e-02	1.96e-02	1.56e-02	1.22e-02	9.36e-03	7.09e-03	5.28e-03	3.87e-03	2.79e-03	1.98e-03	1.38e-03	9.48e-04	6.40e-04	4.25e-04	2.78e-04	1.79e-04	1.13e-04	7.03e-05	4.30e-05	2.59e-05	1.54e-05	8.96e-06	5.14e-06	2.91e-06	1.61e-06	8.83e-07	4.75e-07	2.51e-07	1.31e-07	6.72e-08	3.39e-08	1.68e-08	8.22e-09	3.95e-09	1.87e-09	8.71e-10	
7.7954e+13	5.64e-02	4.80e-02	4.05e-02	3.37e-02	2.76e-02	2.23e-02	1.78e-02	1.39e-02	1.07e-02	8.10e-03	6.02e-03	4.40e-03	3.16e-03	2.23e-03	1.55e-03	1.06e-03	7.08e-04	4.66e-04	3.02e-04	1.92e-04	1.20e-04	7.38e-05	4.46e-05	2.65e-05	1.54e-05	8.86e-06	4.99e-06	2.77e-06	1.51e-06	8.08e-07	4.25e-07	2.20e-07	1.12e-07	5.60e-08	2.75e-08	1.33e-08	6.33e-09	2.96e-09	1.36e-09	6.14e-10	2.73e-10	
8.9628e+13	5.45e-02	4.60e-02	3.83e-02	3.15e-02	2.55e-02	2.03e-02	1.59e-02	1.23e-02	9.30e-03	6.91e-03	5.04e-03	3.61e-03	2.54e-03	1.75e-03	1.19e-03	7.91e-04	5.16e-04	3.31e-04	2.08e-04	1.29e-04	7.81e-05	4.65e-05	2.72e-05	1.56e-05	8.81e-06	4.88e-06	2.65e-06	1.42e-06	7.43e-07	3.82e-07	1.93e-07	9.59e-08	4.68e-08	2.24e-08	1.05e-08	4.86e-09	2.20e-09	9.82e-10	4.30e-10	1.85e-10	7.78e-11	
1.0305e+14	5.23e-02	4.37e-02	3.60e-02	2.92e-02	2.34e-02	1.84e-02	1.42e-02	1.07e-02	7.97e-03	5.81e-03	4.15e-03	2.91e-03	2.00e-03	1.35e-03	8.90e-04	5.77e-04	3.66e-04	2.28e-04	1.39e-04	8.35e-05	4.90e-05	2.83e-05	1.60e-05	8.84e-06	4.81e-06	2.56e-06	1.34e-06	6.87e-07	3.45e-07	1.70e-07	8.24e-08	3.91e-08	1.82e-08	8.32e-09	3.73e-09	1.64e-09	7.06e-10	2.99e-10	1.24e-10	5.05e-11	2.01e-11	
1.1848e+14	4.99e-02	4.12e-02	3.36e-02	2.69e-02	2.12e-02	1.64e-02	1.24e-02	9.23e-03	6.73e-03	4.80e-03	3.36e-03	2.30e-03	1.54e-03	1.01e-03	6.50e-04	4.09e-04	2.52e-04	1.52e-04	9.01e-05	5.22e-05	2.96e-05	1.65e-05	8.96e-06	4.77e-06	2.49e-06	1.28e-06	6.39e-07	3.14e-07	1.51e-07	7.11e-08	3.28e-08	1.48e-08	6.58e-09	2.86e-09	1.21e-09	5.06e-10	2.07e-10	8.27e-11	3.24e-11	1.24e-11	4.68e-12	
1.3623e+14	4.73e-02	3.86e-02	3.10e-02	2.45e-02	1.90e-02	1.44e-02	1.08e-02	7.84e-03	5.59e-03	3.90e-03	2.66e-03	1.78e-03	1.16e-03	7.40e-04	4.62e-04	2.82e-04	1.68e-04	9.83e-05	5.61e-05	3.14e-05	1.71e-05	9.16e-06	4.79e-06	2.45e-06	1.23e-06	6.00e-07	2.87e-07	1.35e-07	6.17e-08	2.77e-08	1.21e-08	5.21e-09	2.19e-09	8.99e-10	3.62e-10	1.42e-10	5.48e-11	2.06e-11	7.61e-12	2.74e-12	9.68e-13	
1.5663e+14	4.45e-02	3.59e-02	2.84e-02	2.21e-02	1.69e-02	1.26e-02	9.17e-03	6.54e-03	4.56e-03	3.10e-03	2.06e-03	1.34e-03	8.50e-04	5.26e-04	3.18e-04	1.88e-04	1.08e-04	6.10e-05	3.36e-05	1.80e-05	9.47e-06	4.85e-06	2.43e-06	1.19e-06	5.67e-07	2.65e-07	1.21e-07	5.38e-08	2.34e-08	9.95e-09	4.13e-09	1.68e-09	6.65e-10	2.58e-10	9.75e-11	3.61e-11	1.30e-11	4.60e-12	1.59e-12	5.35e-13	1.76e-13	
1.8008e+14	4.16e-02	3.30e-02	2.58e-02	1.97e-02	1.47e-02	1.08e-02	7.70e-03	5.37e-03	3.65e-03	2.42e-03	1.56e-03	9.86e-04	6.06e-04	3.63e-04	2.12e-04	1.21e-04	6.72e-05	3.64e-05	1.92e-05	9.90e-06	4.97e-06	2.43e-06	1.16e-06	5.42e-07	2.46e-07	1.09e-07	4.72e-08	1.99e-08	8.19e-09	3.29e-09	1.29e-09	4.91e-10	1.83e-10	6.65e-11	2.36e-11	8.16e-12	2.75e-12	9.07e-13	2.91e-13	9.13e-14	2.79e-14	
2.0705e+14	3.84e-02	3.01e-02	2.31e-02	1.73e-02	1.27e-02	9.11e-03	6.35e-03	4.32e-03	2.86e-03	1.84e-03	1.16e-03	7.06e-04	4.19e-04	2.43e-04	1.37e-04	7.48e-05	3.99e-05	2.07e-05	1.05e-05	5.15e-06	2.47e-06	1.15e-06	5.23e-07	2.31e-07	9.96e-08	4.18e-08	1.70e-08	6.78e-09	2.62e-09	9.90e-10	3.63e-10	1.30e-10	4.53e-11	1.54e-11	5.08e-12	1.63e-12	5.12e-13	1.56e-13	4.65e-14	1.35e-14	3.80e-15	
2.3806e+14	3.52e-02	2.71e-02	2.04e-02	1.51e-02	1.08e-02	7.56e-03	5.14e-03	3.40e-03	2.19e-03	1.37e-03	8.30e-04	4.89e-04	2.80e-04	1.56e-04	8.44e-05	4.44e-05	2.26e-05	1.12e-05	5.42e-06	2.54e-06	1.15e-06	5.11e-07	2.20e-07	9.18e-08	3.73e-08	1.47e-08	5.65e-09	2.11e-09	7.64e-10	2.69e-10	9.23e-11	3.08e-11	9.96e-12	3.14e-12	9.60e-13	2.86e-13	8.27e-14	2.33e-14	6.37e-15	1.69e-15	4.38e-16	
2.7371e+14	3.19e-02	2.41e-02	1.79e-02	1.29e-02	9.03e-03	6.16e-03	4.08e-03	2.62e-03	1.63e-03	9.86e-04	5.78e-04	3.28e-04	1.81e-04	9.66e-05	5.00e-05	2.51e-05	1.22e-05	5.77e-06	2.64e-06	1.17e-06	5.05e-07	2.11e-07	8.55e-08	3.36e-08	1.28e-08	4.74e-09	1.70e-09	5.93e-10	2.00e-10	6.56e-11	2.09e-11	6.44e-12	1.93e-12	5.60e-13	1.58e-13	4.31e-14	1.15e-14	2.95e-15	7.37e-16	1.79e-16	4.21e-17	
3.1470e+14	2.85e-02	2.12e-02	1.54e-02	1.08e-02	7.40e-03	4.91e-03	3.16e-03	1.96e-03	1.18e-03	6.89e-04	3.89e-04	2.12e-04	1.12e-04	5.71e-05	2.82e-05	1.35e-05	6.24e-06	2.79e-06	1.21e-06	5.07e-07	2.06e-07	8.07e-08	3.07e-08	1.13e-08	4.02e-09	1.38e-09	4.62e-10	1.49e-10	4.67e-11	1.41e-11	4.15e-12	1.18e-12	3.24e-13	8.61e-14	2.22e-14	5.54e-15	1.34e-15	3.13e-16	7.10e-17	1.56e-17	3.31e-18	
3.6183e+14	2.52e-02	1.83e-02	1.30e-02	8.93e-03	5.94e-03	3.83e-03	2.38e-03	1.43e-03	8.32e-04	4.66e-04	2.52e-04	1.32e-04	6.63e-05	3.22e-05	1.51e-05	6.86e-06	3.00e-06	1.27e-06	5.16e-07	2.03e-07	7.73e-08	2.84e-08	1.01e-08	3.44e-09	1.14e-09	3.63e-10	1.12e-10	3.34e-11	9.61e-12	2.67e-12	7.17e-13	1.86e-13	4.66e-14	1.13e-14	2.64e-15	5.96e-16	1.30e-16	2.75e-17	5.60e-18	1.10e-18	2.09e-19	
4.1601e+14	2.19e-02	1.56e-02	1.08e-02	7.22e-03	4.67e-03	2.91e-03	1.75e-03	1.01e-03	5.65e-04	3.03e-04	1.57e-04	7.81e-05	3.74e-05	1.73e-05	7.66e-06	3.28e-06	1.35e-06	5.35e-07	2.04e-07	7.51e-08	2.66e-08	9.07e-09	2.98e-09	9.44e-10	2.88e-10	8.46e-11	2.40e-11	6.54e-12	1.72e-12	4.35e-13	1.06e-13	2.50e-14	5.67e-15	1.24e-15	2.60e-16	5.28e-17	1.03e-17	1.95e-18	3.53e-19	6.19e-20	1.04e-20	
4.7832e+14	1.88e-02	1.31e-02	8.79e-03	5.71e-03	3.57e-03	2.15e-03	1.25e-03	6.92e-04	3.70e-04	1.90e-04	9.33e-05	4.41e-05	2.00e-05	8.71e-06	3.64e-06	1.46e-06	5.64e-07	2.09e-07	7.42e-08	2.53e-08	8.32e-09	2.62e-09	7.93e-10	2.31e-10	6.45e-11	1.73e-11	4.47e-12	1.11e-12	2.64e-13	6.04e-14	1.33e-14	2.81e-15	5.71e-16	1.12e-16	2.10e-17	3.78e-18	6.56e-19	1.09e-19	1.75e-20	2.70e-21	3.99e-22	
5.4995e+14	1.58e-02	1.07e-02	7.00e-03	4.40e-03	2.66e-03	1.54e-03	8.57e-04	4.56e-04	2.32e-04	1.13e-04	5.28e-05	2.36e-05	1.01e-05	4.13e-06	1.62e-06	6.06e-07	2.17e-07	7.47e-08	2.46e-08	7.75e-09	2.34e-09	6.76e-10	1.87e-10	4.96e-11	1.26e-11	3.07e-12	7.16e-13	1.60e-13	3.43e-14	7.03e-15	1.38e-15	2.60e-16	4.70e-17	8.12e-18	1.35e-18	2.14e-19	3.26e-20	4.75e-21	6.64e-22	8.90e-23	1.14e-23	
6.3231e+14	1.30e-02	8.58e-03	5.44e-03	3.31e-03	1.92e-03	1.07e-03	5.68e-04	2.88e-04	1.39e-04	6.43e-05	2.83e-05	1.19e-05	4.76e-06	1.82e-06	6.64e-07	2.31e-07	7.67e-08	2.43e-08	7.36e-09	2.12e-09	5.85e-10	1.54e-10	3.87e-11	9.29e-12	2.13e-12	4.65e-13	9.72e-14	1.94e-14	3.70e-15	6.73e-16	1.17e-16	1.94e-17	3.08e-18	4.67e-19	6.76e-20	9.35e-21	1.24e-21	1.56e-22	1.88e-23	2.17e-24	2.38e-25	
7.2700e+14	1.05e-02	6.72e-03	4.11e-03	2.41e-03	1.34e-03	7.14e-04	3.61e-04	1.74e-04	7.95e-05	3.46e-05	1.43e-05	5.61e-06	2.10e-06	7.44e-07	2.51e-07	8.05e-08	2.46e-08	7.13e-09	1.97e-09	5.16e-10	1.29e-10	3.06e-11	6.92e-12	1.49e-12	3.05e-13	5.93e-14	1.10e-14	1.94e-15	3.26e-16	5.20e-17	7.91e-18	1.15e-18	1.58e-19	2.07e-20	2.59e-21	3.08e-22	3.48e-23	3.75e-24	3.85e-25	3.76e-26	3.49e-27	
8.3587e+14	8.29e-03	5.12e-03	3.02e-03	1.70e-03	9.04e-04	4.58e-04	2.20e-04	9.98e-05	4.29e-05	1.75e-05	6.75e-06	2.46e-06	8.52e-07	2.79e-07	8.64e-08	2.54e-08	7.06e-09	1.86e-09	4.64e-10	1.10e-10	2.46e-11	5.23e-12	1.05e-12	2.01e-13	3.64e-14	6.24e-15	1.02e-15	1.57e-16	2.29e-17	3.17e-18	4.17e-19	5.20e-20	6.15e-21	6.89e-22	7.33e-23	7.39e-24	7.07e-25	6.41e-26	5.52e-27	4.50e-28	3.48e-29	
9.6105e+14	6.36e-03	3.79e-03	2.14e-03	1.15e-03	5.84e-04	2.80e-04	1.27e-04	5.42e-05	2.18e-05	8.27e-06	2.96e-06	9.98e-07	3.17e-07	9.51e-08	2.69e-08	7.17e-09	1.80e-09	4.27e-10	9.57e-11	2.02e-11	4.03e-12	7.57e-13	1.34e-13	2.25e-14	3.56e-15	5.32e-16	7.51e-17	1.00e-17	1.26e-18	1.49e-19	1.67e-20	1.77e-21	1.77e-22	1.67e-23	1.49e-24	1.26e-25	1.00e-26	7.52e-28	5.34e-29	3.58e-30	2.27e-31	
1.1050e+15	4.74e-03	2.71e-03	1.47e-03	7.50e-04	3.61e-04	1.63e-04	6.94e-05	2.77e-05	1.04e-05	3.64e-06	1.20e-06	3.70e-07	1.07e-07	2.92e-08	7.47e-09	1.79e-09	4.03e-10	8.53e-11	1.69e-11	3.16e-12	5.54e-13	9.12e-14	1.41e-14	2.05e-15	2.80e-16	3.60e-17	4.34e-18	4.93e-19	5.25e-20	5.27e-21	4.96e-22	4.40e-23	3.66e-24	2.87e-25	2.11e-26	1.46e-27	9.51e-29	5.82e-30	3.35e-31	1.81e-32	9.22e-34	
1.2704e+15	3.42e-03	1.87e-03	9.65e-04	4.67e-04	2.12e-04	8.99e-05	3.57e-05	1.32e-05	4.56e-06	1.47e-06	4.43e-07	1.25e-07	3.27e-08	8.00e-09	1.83e-09	3.91e-10	7.81e-11	1.46e-11	2.54e-12	4.14e-13	6.30e-14	8.97e-15	1.19e-15	1.48e-16	1.73e-17	1.88e-18	1.91e-19	1.82e-20	1.62e-21	1.35e-22	1.05e-23	7.67e-25	5.23e-26	3.34e-27	1.99e-28	1.11e-29	5.81e-31	2.84e-32	1.30e-33	5.56e-35	2.41e-36	
1.4607e+15	2.38e-03	1.24e-03	6.07e-04	2.77e-04	1.18e-04	4.66e-05	1.71e-05	5.84e-06	1.85e-06	5.44e-07	1.48e-07	3.76e-08	8.83e-09	1.93e-09	3.91e-10	7.36e-11	1.29e-11	2.09e-12	3.16e-13	4.44e-14	5.80e-15	7.04e-16	7.94e-17	8.34e-18	8.14e-19	7.39e-20	6.24e-21	4.90e-22	3.58e-23	2.44e-24	1.54e-25	9.08e-27	4.97e-28	2.54e-29	1.20e-30	5.31e-32	2.18e-33	8.34e-35	2.97e-36	1.71e-36	1.71e-36	
1.6795e+15	1.59e-03	7.87e-04	3.63e-04	1.55e-04	6.15e-05	2.25e-05	7.62e-06	2.38e-06	6.85e-07	1.82e-07	4.45e-08	1.01e-08	2.10e-09	4.03e-10	7.16e-11	1.17e-11	1.78e-12	2.49e-13	3.21e-14	3.83e-15	4.23e-16	4.31e-17	4.06e-18	3.54e-19	2.85e-20	2.12e-21	1.46e-22	9.30e-24	5.47e-25	2.98e-26	1.50e-27	7.00e-29	3.02e-30	1.20e-31	4.43e-33	1.51e-34	4.77e-36	1.96e-36	1.96e-36	1.96e-36	1.96e-36	
1.9310e+15	1.01e-03	4.75e-04	2.05e-04	8.19e-05	3.00e-05	1.01e-05	3.12e-06	8.83e-07	2.29e-07	5.43e-08	1.18e-08	2.36e-09	4.31e-10	7.21e-11	1.11e-11	1.56e-12	2.02e-13	2.39e-14	2.60e-15	2.60e-16	2.38e-17	2.00e-18	1.55e-19	1.10e-20	7.16e-22	4.29e-23	2.36e-24	1.19e-25	5.54e-27	2.37e-28	9.28e-30	3.35e-31	1.11e-32	3.37e-34	9.44e-36	2.26e-36	2.26e-36	2.26e-36	2.26e-36	2.26e-36	2.26e-36	
2.2201e+15	6.16e-04	2.71e-04	1.09e-04	4.03e-05	1.36e-05	4.17e-06	1.16e-06	2.96e-07	6.83e-08	1.43e-08	2.74e-09	4.76e-10	7.53e-11	1.08e-11	1.42e-12	1.69e-13	1.83e-14	1.81e-15	1.63e-16	1.34e-17	1.00e-18	6.84e-20	4.26e-21	2.41e-22	1.25e-23	5.89e-25	2.53e-26	9.94e-28	3.56e-29	1.16e-30	3.46e-32	9.42e-34	2.34e-35	2.60e-36	2.60e-36	2.60e-36	2.60e-36	2.60e-36	2.60e-36	2.60e-36	2.60e-36	
2.5526e+15	3.55e-04	1.45e-04	5.43e-05	1.84e-05	5.64e-06	1.56e-06	3.91e-07	8.83e-08	1.80e-08	3.30e-09	5.47e-10	8.16e-11	1.10e-11	1.34e-12	1.47e-13	1.46e-14	1.31e-15	1.06e-16	7.76e-18	5.14e-19	3.07e-20	1.66e-21	8.15e-23	3.61e-24	1.45e-25	5.25e-27	1.72e-28	5.12e-30	1.38e-31	3.35e-33	7.38e-35	3.05e-36	2.99e-36	2.99e-36	2.99e-36	2.99e-36	2.99e-36	2.99e-36	2.99e-36	2.99e-36	2.99e-36	
2.9349e+15	1.92e-04	7.29e-05	2.50e-05	7.72e-06	2.14e-06	5.29e-07	1.17e-07	2.32e-08	4.12e-09	6.51e-10	9.22e-11	1.17e-11	1.32e-12	1.34e-13	1.21e-14	9.81e-16	7.12e-17	4.63e-18	2.70e-19	1.41e-20	6.60e-22	2.77e-23	1.04e-24	3.52e-26	1.07e-27	2.90e-29	7.06e-31	1.54e-32	3.03e-34	5.33e-36	3.43e-36	3.43e-36	3.43e-36	3.43e-36	3.43e-36	3.43e-36	3.43e-36	3.43e-36	3.43e-36	3.43e-36	3.43e-36	
3.3744e+15	9.69e-05	3.39e-05	1.06e-05	2.94e-06	7.27e-07	1.59e-07	3.09e-08	5.31e-09	8.06e-10	1.08e-10	1.29e-11	1.36e-12	1.27e-13	1.05e-14	7.67e-16	4.98e-17	2.87e-18	1.46e-19	6.64e-21	2.67e-22	9.54e-24	3.03e-25	8.52e-27	2.13e-28	4.74e-30	9.37e-32	1.64e-33	2.57e-35	3.95e-36	3.95e-36	3.95e-36	3.95e-36	3.95e-36	3.95e-36	3.95e-36	3.95e-36	3.95e-36	3.95e-36	3.95e-36	3.95e-36	3.95e-36	
3.8798e+15	4.53e-05	1.44e-05	4.07e-06	1.01e-06	2.20e-07	4.21e-08	7.06e-09	1.03e-09	1.33e-10	1.49e-11	1.46e-12	1.26e-13	9.50e-15	6.28e-16	3.64e-17	1.85e-18	8.24e-20	3.22e-21	1.11e-22	3.34e-24	8.86e-26	2.06e-27	4.22e-29	7.60e-31	1.20e-32	1.67e-34	4.54e-36	4.54e-36	4.54e-36	4.54e-36	4.54e-36	4.54e-36	4.54e-36	4.54e-36	4.54e-36	4.54e-36	4.54e-36	4.54e-36	4.54e-36	4.54e-36	4.54e-36	
4.4608e+15	1.95e-05	5.60e-06	1.41e-06	3.08e-07	5.86e-08	9.64e-09	1.37e-09	1.69e-10	1.80e-11	1.66e-12	1.32e-13	9.08e-15	5.41e-16	2.79e-17	1.25e-18	4.84e-20	1.63e-21	4.75e-23	1.20e-24	2.64e-26	5.03e-28	8.33e-30	1.20e-31	1.50e-33	1.63e-35	5.22e-36	5.22e-36	5.22e-36	5.22e-36	5.22e-36	5.22e-36	5.22e-36	5.22e-36	5.22e-36	5.22e-36	5.22e-36	5.22e-36	5.22e-36	5.22e-36	5.22e-36	5.22e-36	
5.1288e+15	7.60e-06	1.95e-06	4.33e-07	8.26e-08	1.35e-08	1.88e-09	2.23e-10	2.27e-11	1.96e-12	1.45e-13	9.15e-15	4.93e-16	2.27e-17	8.91e-19	2.99e-20	8.60e-22	2.12e-23	4.46e-25	8.05e-27	1.24e-28	1.65e-30	1.87e-32	1.82e-34	6.00e-36	6.00e-36	6.00e-36	6.00e-36	6.00e-36	6.00e-36	6.00e-36	6.00e-36	6.00e-36	6.00e-36	6.00e-36	6.00e-36	6.00e-36	6.00e-36	6.00e-36	6.00e-36	6.00e-36	6.00e-36	
5.8969e+15	2.66e-06	6.05e-07	1.17e-07	1.91e-08	2.63e-09	3.05e-10	2.98e-11	2.44e-12	1.68e-13	9.76e-15	4.75e-16	1.95e-17	6.73e-19	1.95e-20	4.79e-22	9.89e-24	1.72e-25	2.53e-27	3.14e-29	3.30e-31	2.92e-33	2.19e-35	6.90e-36	6.90e-36	6.90e-36	6.90e-36	6.90e-36	6.90e-36	6.90e-36	6.90e-36	6.90e-36	6.90e-36	6.90e-36	6.90e-36	6.90e-36	6.90e-36	6.90e-36	6.90e-36	6.90e-36	6.90e-36	6.90e-36	
6.7800e+15	8.29e-07	1.64e-07	2.71e-08	3.74e-09	4.28e-10	4.05e-11	3.17e-12	2.06e-13	1.10e-14	4.87e-16	1.78e-17	5.41e-19	1.36e-20	2.83e-22	4.88e-24	6.98e-26	8.30e-28	8.19e-30	6.72e-32	4.58e-34	7.93e-36	7.93e-36	7.93e-36	7.93e-36	7.93e-36	7.93e-36	7.93e-36	7.93e-36	7.93e-36	7.93e-36	7.93e-36	7.93e-36	7.93e-36	7.93e-36	7.93e-36	7.93e-36	7.93e-36	7.93e-36	7.93e-36	7.93e-36	7.93e-36	
