#		z = 0	z = 0.1	z = 0.2	z = 0.3	z = 0.4	z = 0.5	z = 0.6	z = 0.7	z = 0.8	z = 0.9	z = 1	z = 1.1	z = 1.2	z = 1.3	z = 1.4	z = 1.5	z = 1.6	z = 1.7	z = 1.8	z = 1.9	z = 2	z = 2.1	z = 2.2	z = 2.3	z = 2.4	z = 2.5	z = 2.6	z = 2.7	z = 2.8	z = 2.9	z = 3	z = 3.1	z = 3.2	z = 3.3	z = 3.4	z = 3.5	z = 3.6	z = 3.7	z = 3.8	z = 3.9	z = 4	
# M_200,m	dN/dOmega(<M_max, >z_min) (all following columns) 
# [Msol]	[sr^{-1}] (all following columns)
1.0000e+10	0.00e+00	3.31e+06	2.42e+07	7.47e+07	1.62e+08	2.88e+08	4.53e+08	6.56e+08	8.91e+08	1.16e+09	1.45e+09	1.76e+09	2.09e+09	2.43e+09	2.78e+09	3.14e+09	3.50e+09	3.86e+09	4.21e+09	4.57e+09	4.91e+09	5.25e+09	5.58e+09	5.91e+09	6.22e+09	6.52e+09	6.81e+09	7.09e+09	7.35e+09	7.61e+09	7.85e+09	8.09e+09	8.31e+09	8.52e+09	8.72e+09	8.91e+09	9.08e+09	9.25e+09	9.41e+09	9.56e+09	9.70e+09	
1.1498e+10	0.00e+00	2.92e+06	2.14e+07	6.59e+07	1.42e+08	2.54e+08	3.99e+08	5.77e+08	7.85e+08	1.02e+09	1.27e+09	1.55e+09	1.84e+09	2.14e+09	2.44e+09	2.76e+09	3.07e+09	3.38e+09	3.70e+09	4.00e+09	4.31e+09	4.60e+09	4.89e+09	5.17e+09	5.44e+09	5.70e+09	5.95e+09	6.19e+09	6.42e+09	6.64e+09	6.85e+09	7.05e+09	7.24e+09	7.42e+09	7.59e+09	7.75e+09	7.90e+09	8.05e+09	8.18e+09	8.31e+09	8.65e+09	
1.3219e+10	0.00e+00	2.58e+06	1.89e+07	5.81e+07	1.26e+08	2.24e+08	3.52e+08	5.09e+08	6.91e+08	8.97e+08	1.12e+09	1.36e+09	1.62e+09	1.88e+09	2.15e+09	2.42e+09	2.69e+09	2.97e+09	3.24e+09	3.51e+09	3.77e+09	4.03e+09	4.28e+09	4.52e+09	4.76e+09	4.98e+09	5.20e+09	5.41e+09	5.60e+09	5.79e+09	5.98e+09	6.15e+09	6.31e+09	6.46e+09	6.61e+09	6.75e+09	6.88e+09	7.00e+09	7.11e+09	7.22e+09	7.52e+09	
1.5199e+10	0.00e+00	2.28e+06	1.66e+07	5.13e+07	1.11e+08	1.97e+08	3.10e+08	4.48e+08	6.09e+08	7.89e+08	9.87e+08	1.20e+09	1.42e+09	1.65e+09	1.89e+09	2.12e+09	2.36e+09	2.60e+09	2.84e+09	3.07e+09	3.30e+09	3.53e+09	3.75e+09	3.96e+09	4.16e+09	4.36e+09	4.54e+09	4.72e+09	4.89e+09	5.05e+09	5.21e+09	5.36e+09	5.50e+09	5.63e+09	5.75e+09	5.87e+09	5.98e+09	6.08e+09	6.18e+09	6.27e+09	6.53e+09	
1.7475e+10	0.00e+00	2.01e+06	1.47e+07	4.52e+07	9.77e+07	1.74e+08	2.73e+08	3.95e+08	5.36e+08	6.95e+08	8.68e+08	1.05e+09	1.25e+09	1.45e+09	1.66e+09	1.87e+09	2.08e+09	2.28e+09	2.49e+09	2.69e+09	2.89e+09	3.09e+09	3.28e+09	3.46e+09	3.64e+09	3.80e+09	3.96e+09	4.12e+09	4.27e+09	4.41e+09	4.54e+09	4.67e+09	4.79e+09	4.90e+09	5.00e+09	5.10e+09	5.20e+09	5.28e+09	5.37e+09	5.44e+09	5.67e+09	
2.0092e+10	0.00e+00	1.77e+06	1.30e+07	3.99e+07	8.62e+07	1.53e+08	2.41e+08	3.48e+08	4.72e+08	6.12e+08	7.64e+08	9.27e+08	1.10e+09	1.27e+09	1.45e+09	1.64e+09	1.82e+09	2.00e+09	2.18e+09	2.36e+09	2.53e+09	2.70e+09	2.87e+09	3.02e+09	3.18e+09	3.32e+09	3.46e+09	3.59e+09	3.72e+09	3.84e+09	3.96e+09	4.06e+09	4.17e+09	4.26e+09	4.35e+09	4.44e+09	4.52e+09	4.59e+09	4.66e+09	4.72e+09	4.92e+09	
2.3101e+10	0.00e+00	1.57e+06	1.14e+07	3.52e+07	7.60e+07	1.35e+08	2.12e+08	3.06e+08	4.16e+08	5.38e+08	6.72e+08	8.15e+08	9.65e+08	1.12e+09	1.28e+09	1.44e+09	1.60e+09	1.76e+09	1.91e+09	2.07e+09	2.22e+09	2.36e+09	2.51e+09	2.64e+09	2.77e+09	2.90e+09	3.02e+09	3.13e+09	3.24e+09	3.35e+09	3.44e+09	3.54e+09	3.62e+09	3.70e+09	3.78e+09	3.85e+09	3.92e+09	3.98e+09	4.04e+09	4.10e+09	4.27e+09	
2.6561e+10	0.00e+00	1.38e+06	1.01e+07	3.11e+07	6.70e+07	1.19e+08	1.87e+08	2.70e+08	3.66e+08	4.74e+08	5.91e+08	7.17e+08	8.48e+08	9.83e+08	1.12e+09	1.26e+09	1.40e+09	1.54e+09	1.68e+09	1.81e+09	1.94e+09	2.07e+09	2.19e+09	2.31e+09	2.42e+09	2.53e+09	2.63e+09	2.73e+09	2.83e+09	2.91e+09	3.00e+09	3.08e+09	3.15e+09	3.22e+09	3.28e+09	3.35e+09	3.40e+09	3.46e+09	3.50e+09	3.65e+09	3.70e+09	
3.0539e+10	0.00e+00	1.22e+06	8.92e+06	2.74e+07	5.91e+07	1.05e+08	1.65e+08	2.38e+08	3.22e+08	4.17e+08	5.20e+08	6.30e+08	7.45e+08	8.63e+08	9.84e+08	1.11e+09	1.23e+09	1.35e+09	1.47e+09	1.58e+09	1.70e+09	1.81e+09	1.91e+09	2.02e+09	2.11e+09	2.21e+09	2.30e+09	2.38e+09	2.46e+09	2.54e+09	2.61e+09	2.67e+09	2.74e+09	2.80e+09	2.85e+09	2.90e+09	2.95e+09	3.00e+09	3.04e+09	3.16e+09	3.20e+09	
3.5112e+10	0.00e+00	1.08e+06	7.88e+06	2.42e+07	5.22e+07	9.26e+07	1.45e+08	2.09e+08	2.84e+08	3.67e+08	4.57e+08	5.54e+08	6.54e+08	7.58e+08	8.64e+08	9.70e+08	1.08e+09	1.18e+09	1.28e+09	1.39e+09	1.48e+09	1.58e+09	1.67e+09	1.76e+09	1.84e+09	1.92e+09	2.00e+09	2.07e+09	2.14e+09	2.21e+09	2.27e+09	2.32e+09	2.38e+09	2.43e+09	2.47e+09	2.52e+09	2.56e+09	2.60e+09	2.63e+09	2.74e+09	2.78e+09	
4.0370e+10	0.00e+00	9.53e+05	6.95e+06	2.14e+07	4.60e+07	8.16e+07	1.28e+08	1.84e+08	2.50e+08	3.23e+08	4.02e+08	4.87e+08	5.75e+08	6.65e+08	7.58e+08	8.50e+08	9.43e+08	1.03e+09	1.12e+09	1.21e+09	1.30e+09	1.38e+09	1.46e+09	1.53e+09	1.61e+09	1.68e+09	1.74e+09	1.80e+09	1.86e+09	1.92e+09	1.97e+09	2.02e+09	2.06e+09	2.11e+09	2.14e+09	2.18e+09	2.22e+09	2.25e+09	2.28e+09	2.37e+09	2.40e+09	
4.6416e+10	0.00e+00	8.42e+05	6.14e+06	1.88e+07	4.06e+07	7.19e+07	1.13e+08	1.62e+08	2.20e+08	2.84e+08	3.54e+08	4.27e+08	5.05e+08	5.84e+08	6.64e+08	7.45e+08	8.26e+08	9.05e+08	9.83e+08	1.06e+09	1.13e+09	1.20e+09	1.27e+09	1.34e+09	1.40e+09	1.46e+09	1.52e+09	1.57e+09	1.62e+09	1.67e+09	1.71e+09	1.75e+09	1.79e+09	1.83e+09	1.86e+09	1.89e+09	1.92e+09	1.94e+09	2.03e+09	2.05e+09	2.08e+09	
5.3367e+10	0.00e+00	7.44e+05	5.42e+06	1.66e+07	3.58e+07	6.34e+07	9.93e+07	1.43e+08	1.93e+08	2.50e+08	3.11e+08	3.75e+08	4.43e+08	5.12e+08	5.82e+08	6.53e+08	7.23e+08	7.92e+08	8.60e+08	9.26e+08	9.89e+08	1.05e+09	1.11e+09	1.17e+09	1.22e+09	1.27e+09	1.32e+09	1.36e+09	1.41e+09	1.45e+09	1.48e+09	1.52e+09	1.55e+09	1.58e+09	1.61e+09	1.64e+09	1.66e+09	1.68e+09	1.75e+09	1.77e+09	1.79e+09	
6.1359e+10	0.00e+00	6.57e+05	4.79e+06	1.47e+07	3.16e+07	5.59e+07	8.75e+07	1.26e+08	1.70e+08	2.20e+08	2.73e+08	3.30e+08	3.89e+08	4.49e+08	5.11e+08	5.72e+08	6.33e+08	6.93e+08	7.51e+08	8.08e+08	8.64e+08	9.17e+08	9.68e+08	1.02e+09	1.06e+09	1.11e+09	1.15e+09	1.18e+09	1.22e+09	1.26e+09	1.29e+09	1.32e+09	1.34e+09	1.37e+09	1.39e+09	1.41e+09	1.43e+09	1.45e+09	1.51e+09	1.53e+09	1.50e+09	
7.0548e+10	0.00e+00	5.81e+05	4.22e+06	1.29e+07	2.78e+07	4.93e+07	7.71e+07	1.11e+08	1.50e+08	1.93e+08	2.40e+08	2.90e+08	3.41e+08	3.94e+08	4.47e+08	5.01e+08	5.54e+08	6.06e+08	6.56e+08	7.06e+08	7.53e+08	7.99e+08	8.43e+08	8.85e+08	9.24e+08	9.61e+08	9.96e+08	1.03e+09	1.06e+09	1.09e+09	1.12e+09	1.14e+09	1.16e+09	1.18e+09	1.20e+09	1.22e+09	1.24e+09	1.25e+09	1.31e+09	1.32e+09	1.29e+09	
8.1113e+10	0.00e+00	5.13e+05	3.73e+06	1.14e+07	2.45e+07	4.34e+07	6.79e+07	9.76e+07	1.32e+08	1.70e+08	2.11e+08	2.54e+08	2.99e+08	3.45e+08	3.92e+08	4.38e+08	4.84e+08	5.29e+08	5.73e+08	6.16e+08	6.57e+08	6.96e+08	7.34e+08	7.70e+08	8.03e+08	8.35e+08	8.65e+08	8.93e+08	9.19e+08	9.43e+08	9.66e+08	9.87e+08	1.01e+09	1.02e+09	1.04e+09	1.06e+09	1.07e+09	1.11e+09	1.13e+09	1.14e+09	1.11e+09	
9.3260e+10	0.00e+00	4.53e+05	3.29e+06	1.01e+07	2.16e+07	3.83e+07	5.98e+07	8.59e+07	1.16e+08	1.49e+08	1.85e+08	2.23e+08	2.62e+08	3.03e+08	3.43e+08	3.83e+08	4.23e+08	4.62e+08	5.00e+08	5.37e+08	5.73e+08	6.06e+08	6.39e+08	6.69e+08	6.98e+08	7.25e+08	7.50e+08	7.74e+08	7.96e+08	8.17e+08	8.36e+08	8.53e+08	8.70e+08	8.84e+08	8.98e+08	9.11e+08	9.22e+08	9.62e+08	9.73e+08	9.51e+08	9.59e+08	
1.0723e+11	0.00e+00	4.00e+05	2.91e+06	8.90e+06	1.91e+07	3.37e+07	5.27e+07	7.56e+07	1.02e+08	1.31e+08	1.63e+08	1.96e+08	2.30e+08	2.65e+08	3.00e+08	3.35e+08	3.70e+08	4.04e+08	4.37e+08	4.68e+08	4.99e+08	5.28e+08	5.55e+08	5.82e+08	6.06e+08	6.29e+08	6.50e+08	6.71e+08	6.89e+08	7.07e+08	7.23e+08	7.37e+08	7.51e+08	7.63e+08	7.75e+08	7.85e+08	7.95e+08	8.29e+08	8.39e+08	8.18e+08	8.25e+08	
1.2328e+11	0.00e+00	3.54e+05	2.57e+06	7.85e+06	1.68e+07	2.97e+07	4.64e+07	6.64e+07	8.95e+07	1.15e+08	1.43e+08	1.72e+08	2.02e+08	2.32e+08	2.63e+08	2.93e+08	3.23e+08	3.52e+08	3.81e+08	4.08e+08	4.34e+08	4.59e+08	4.83e+08	5.05e+08	5.26e+08	5.45e+08	5.64e+08	5.81e+08	5.96e+08	6.11e+08	6.24e+08	6.37e+08	6.48e+08	6.58e+08	6.68e+08	6.76e+08	7.06e+08	7.14e+08	7.22e+08	7.03e+08	7.09e+08	
1.4175e+11	0.00e+00	3.12e+05	2.27e+06	6.93e+06	1.48e+07	2.62e+07	4.08e+07	5.84e+07	7.87e+07	1.01e+08	1.25e+08	1.50e+08	1.77e+08	2.03e+08	2.30e+08	2.56e+08	2.82e+08	3.07e+08	3.32e+08	3.55e+08	3.78e+08	3.99e+08	4.19e+08	4.38e+08	4.56e+08	4.72e+08	4.88e+08	5.02e+08	5.15e+08	5.28e+08	5.39e+08	5.49e+08	5.59e+08	5.67e+08	5.75e+08	5.82e+08	6.08e+08	6.15e+08	6.00e+08	6.04e+08	6.09e+08	
1.6298e+11	0.00e+00	2.76e+05	2.00e+06	6.11e+06	1.31e+07	2.31e+07	3.59e+07	5.14e+07	6.91e+07	8.87e+07	1.10e+08	1.32e+08	1.55e+08	1.78e+08	2.01e+08	2.24e+08	2.46e+08	2.68e+08	2.89e+08	3.09e+08	3.28e+08	3.47e+08	3.64e+08	3.80e+08	3.95e+08	4.09e+08	4.22e+08	4.34e+08	4.45e+08	4.55e+08	4.65e+08	4.73e+08	4.81e+08	4.88e+08	4.95e+08	5.01e+08	5.23e+08	5.28e+08	5.15e+08	5.19e+08	5.22e+08	
1.8738e+11	0.00e+00	2.44e+05	1.77e+06	5.39e+06	1.15e+07	2.03e+07	3.16e+07	4.52e+07	6.08e+07	7.79e+07	9.63e+07	1.16e+08	1.35e+08	1.55e+08	1.75e+08	1.95e+08	2.15e+08	2.33e+08	2.51e+08	2.69e+08	2.85e+08	3.01e+08	3.15e+08	3.29e+08	3.42e+08	3.54e+08	3.65e+08	3.75e+08	3.84e+08	3.93e+08	4.00e+08	4.08e+08	4.14e+08	4.20e+08	4.25e+08	4.30e+08	4.49e+08	4.38e+08	4.42e+08	4.45e+08	4.47e+08	
2.1544e+11	0.00e+00	2.15e+05	1.56e+06	4.75e+06	1.02e+07	1.79e+07	2.78e+07	3.97e+07	5.33e+07	6.83e+07	8.44e+07	1.01e+08	1.18e+08	1.36e+08	1.53e+08	1.70e+08	1.87e+08	2.03e+08	2.19e+08	2.33e+08	2.47e+08	2.61e+08	2.73e+08	2.85e+08	2.96e+08	3.06e+08	3.15e+08	3.23e+08	3.31e+08	3.38e+08	3.45e+08	3.51e+08	3.56e+08	3.61e+08	3.65e+08	3.81e+08	3.86e+08	3.76e+08	3.78e+08	3.81e+08	3.83e+08	
2.4771e+11	0.00e+00	1.90e+05	1.38e+06	4.19e+06	8.95e+06	1.57e+07	2.45e+07	3.49e+07	4.68e+07	5.99e+07	7.39e+07	8.85e+07	1.03e+08	1.19e+08	1.34e+08	1.48e+08	1.63e+08	1.77e+08	1.90e+08	2.03e+08	2.15e+08	2.26e+08	2.36e+08	2.46e+08	2.55e+08	2.64e+08	2.71e+08	2.79e+08	2.85e+08	2.91e+08	2.96e+08	3.01e+08	3.06e+08	3.10e+08	3.13e+08	3.27e+08	3.31e+08	3.22e+08	3.24e+08	3.26e+08	3.28e+08	
2.8480e+11	0.00e+00	1.68e+05	1.21e+06	3.70e+06	7.89e+06	1.38e+07	2.15e+07	3.06e+07	4.11e+07	5.25e+07	6.47e+07	7.74e+07	9.04e+07	1.03e+08	1.16e+08	1.29e+08	1.42e+08	1.53e+08	1.65e+08	1.76e+08	1.86e+08	1.96e+08	2.04e+08	2.13e+08	2.20e+08	2.27e+08	2.34e+08	2.40e+08	2.45e+08	2.50e+08	2.55e+08	2.59e+08	2.62e+08	2.65e+08	2.77e+08	2.80e+08	2.73e+08	2.75e+08	2.77e+08	2.79e+08	2.80e+08	
3.2745e+11	0.00e+00	1.48e+05	1.07e+06	3.26e+06	6.94e+06	1.22e+07	1.89e+07	2.69e+07	3.60e+07	4.60e+07	5.66e+07	6.77e+07	7.89e+07	9.02e+07	1.01e+08	1.12e+08	1.23e+08	1.33e+08	1.43e+08	1.52e+08	1.61e+08	1.69e+08	1.76e+08	1.83e+08	1.90e+08	1.96e+08	2.01e+08	2.06e+08	2.11e+08	2.15e+08	2.18e+08	2.22e+08	2.25e+08	2.27e+08	2.37e+08	2.40e+08	2.33e+08	2.35e+08	2.37e+08	2.38e+08	2.39e+08	
3.7649e+11	0.00e+00	1.31e+05	9.45e+05	2.87e+06	6.11e+06	1.07e+07	1.66e+07	2.36e+07	3.16e+07	4.03e+07	4.95e+07	5.91e+07	6.89e+07	7.86e+07	8.83e+07	9.77e+07	1.07e+08	1.16e+08	1.24e+08	1.32e+08	1.39e+08	1.46e+08	1.52e+08	1.58e+08	1.64e+08	1.69e+08	1.73e+08	1.77e+08	1.81e+08	1.84e+08	1.87e+08	1.90e+08	1.92e+08	1.94e+08	2.03e+08	1.98e+08	1.99e+08	2.01e+08	2.02e+08	2.03e+08	2.04e+08	
4.3288e+11	0.00e+00	1.16e+05	8.33e+05	2.53e+06	5.38e+06	9.41e+06	1.46e+07	2.07e+07	2.77e+07	3.52e+07	4.33e+07	5.16e+07	6.00e+07	6.85e+07	7.68e+07	8.49e+07	9.27e+07	1.00e+08	1.07e+08	1.14e+08	1.20e+08	1.26e+08	1.31e+08	1.36e+08	1.41e+08	1.45e+08	1.49e+08	1.52e+08	1.55e+08	1.58e+08	1.60e+08	1.62e+08	1.64e+08	1.72e+08	1.74e+08	1.69e+08	1.70e+08	1.71e+08	1.72e+08	1.73e+08	1.73e+08	
4.9770e+11	0.00e+00	1.02e+05	7.34e+05	2.23e+06	4.73e+06	8.27e+06	1.28e+07	1.81e+07	2.42e+07	3.08e+07	3.78e+07	4.50e+07	5.23e+07	5.96e+07	6.67e+07	7.36e+07	8.04e+07	8.67e+07	9.27e+07	9.84e+07	1.04e+08	1.09e+08	1.13e+08	1.17e+08	1.21e+08	1.24e+08	1.27e+08	1.30e+08	1.33e+08	1.35e+08	1.37e+08	1.39e+08	1.40e+08	1.47e+08	1.48e+08	1.44e+08	1.45e+08	1.46e+08	1.46e+08	1.47e+08	1.47e+08	
5.7224e+11	0.00e+00	9.00e+04	6.47e+05	1.96e+06	4.16e+06	7.26e+06	1.12e+07	1.59e+07	2.12e+07	2.69e+07	3.30e+07	3.92e+07	4.55e+07	5.18e+07	5.79e+07	6.39e+07	6.96e+07	7.50e+07	8.01e+07	8.49e+07	8.93e+07	9.33e+07	9.71e+07	1.01e+08	1.04e+08	1.06e+08	1.09e+08	1.11e+08	1.13e+08	1.15e+08	1.17e+08	1.18e+08	1.19e+08	1.25e+08	1.22e+08	1.22e+08	1.23e+08	1.24e+08	1.24e+08	1.25e+08	1.25e+08	
6.5793e+11	0.00e+00	7.93e+04	5.70e+05	1.72e+06	3.65e+06	6.37e+06	9.83e+06	1.39e+07	1.85e+07	2.35e+07	2.87e+07	3.41e+07	3.96e+07	4.49e+07	5.02e+07	5.53e+07	6.02e+07	6.47e+07	6.91e+07	7.31e+07	7.68e+07	8.02e+07	8.34e+07	8.62e+07	8.88e+07	9.11e+07	9.32e+07	9.51e+07	9.67e+07	9.82e+07	9.95e+07	1.01e+08	1.05e+08	1.06e+08	1.03e+08	1.04e+08	1.05e+08	1.05e+08	1.05e+08	1.06e+08	1.06e+08	
7.5646e+11	0.00e+00	7.00e+04	5.02e+05	1.52e+06	3.21e+06	5.59e+06	8.61e+06	1.22e+07	1.62e+07	2.05e+07	2.50e+07	2.97e+07	3.44e+07	3.90e+07	4.35e+07	4.78e+07	5.20e+07	5.59e+07	5.95e+07	6.29e+07	6.60e+07	6.89e+07	7.15e+07	7.38e+07	7.60e+07	7.79e+07	7.96e+07	8.11e+07	8.25e+07	8.36e+07	8.47e+07	8.56e+07	8.96e+07	8.71e+07	8.77e+07	8.82e+07	8.87e+07	8.90e+07	8.94e+07	8.97e+07	8.99e+07	
8.6975e+11	0.00e+00	6.16e+04	4.42e+05	1.33e+06	2.82e+06	4.90e+06	7.54e+06	1.06e+07	1.41e+07	1.79e+07	2.18e+07	2.58e+07	2.98e+07	3.38e+07	3.76e+07	4.13e+07	4.48e+07	4.81e+07	5.12e+07	5.40e+07	5.66e+07	5.90e+07	6.12e+07	6.31e+07	6.49e+07	6.65e+07	6.78e+07	6.91e+07	7.02e+07	7.11e+07	7.19e+07	7.52e+07	7.61e+07	7.39e+07	7.43e+07	7.47e+07	7.51e+07	7.54e+07	7.56e+07	7.58e+07	7.60e+07	
1.0000e+12	0.00e+00	5.43e+04	3.89e+05	1.17e+06	2.47e+06	4.29e+06	6.59e+06	9.29e+06	1.23e+07	1.56e+07	1.89e+07	2.24e+07	2.58e+07	2.92e+07	3.25e+07	3.57e+07	3.86e+07	4.14e+07	4.40e+07	4.64e+07	4.85e+07	5.05e+07	5.23e+07	5.39e+07	5.53e+07	5.66e+07	5.77e+07	5.87e+07	5.96e+07	6.04e+07	6.10e+07	6.39e+07	6.21e+07	6.25e+07	6.29e+07	6.32e+07	6.35e+07	6.37e+07	6.39e+07	6.41e+07	6.42e+07	
1.1498e+12	0.00e+00	4.78e+04	3.42e+05	1.03e+06	2.17e+06	3.76e+06	5.76e+06	8.11e+06	1.07e+07	1.35e+07	1.65e+07	1.94e+07	2.24e+07	2.53e+07	2.81e+07	3.07e+07	3.32e+07	3.56e+07	3.77e+07	3.97e+07	4.15e+07	4.31e+07	4.46e+07	4.59e+07	4.71e+07	4.81e+07	4.90e+07	4.98e+07	5.05e+07	5.12e+07	5.17e+07	5.41e+07	5.25e+07	5.28e+07	5.31e+07	5.34e+07	5.36e+07	5.38e+07	5.39e+07	5.40e+07	5.41e+07	
1.3219e+12	0.00e+00	4.21e+04	3.00e+05	9.02e+05	1.90e+06	3.29e+06	5.03e+06	7.07e+06	9.34e+06	1.18e+07	1.43e+07	1.68e+07	1.93e+07	2.18e+07	2.42e+07	2.64e+07	2.85e+07	3.05e+07	3.23e+07	3.40e+07	3.54e+07	3.68e+07	3.80e+07	3.91e+07	4.00e+07	4.09e+07	4.16e+07	4.22e+07	4.28e+07	4.33e+07	4.53e+07	4.40e+07	4.44e+07	4.46e+07	4.48e+07	4.50e+07	4.52e+07	4.53e+07	4.54e+07	4.55e+07	4.56e+07	
1.5199e+12	0.00e+00	3.70e+04	2.64e+05	7.91e+05	1.66e+06	2.87e+06	4.39e+06	6.16e+06	8.12e+06	1.02e+07	1.24e+07	1.45e+07	1.67e+07	1.88e+07	2.08e+07	2.27e+07	2.45e+07	2.61e+07	2.76e+07	2.90e+07	3.02e+07	3.13e+07	3.23e+07	3.32e+07	3.39e+07	3.46e+07	3.52e+07	3.57e+07	3.62e+07	3.65e+07	3.83e+07	3.71e+07	3.74e+07	3.76e+07	3.77e+07	3.79e+07	3.80e+07	3.81e+07	3.82e+07	3.82e+07	3.83e+07	
1.7475e+12	0.00e+00	3.25e+04	2.31e+05	6.93e+05	1.45e+06	2.51e+06	3.83e+06	5.36e+06	7.05e+06	8.85e+06	1.07e+07	1.26e+07	1.44e+07	1.62e+07	1.79e+07	1.95e+07	2.10e+07	2.23e+07	2.36e+07	2.47e+07	2.57e+07	2.66e+07	2.74e+07	2.81e+07	2.87e+07	2.93e+07	2.97e+07	3.01e+07	3.05e+07	3.19e+07	3.23e+07	3.12e+07	3.14e+07	3.16e+07	3.17e+07	3.18e+07	3.19e+07	3.20e+07	3.20e+07	3.21e+07	3.21e+07	
2.0092e+12	0.00e+00	2.86e+04	2.03e+05	6.07e+05	1.27e+06	2.19e+06	3.33e+06	4.66e+06	6.12e+06	7.66e+06	9.25e+06	1.08e+07	1.24e+07	1.39e+07	1.53e+07	1.67e+07	1.79e+07	1.90e+07	2.01e+07	2.10e+07	2.18e+07	2.26e+07	2.32e+07	2.38e+07	2.43e+07	2.47e+07	2.51e+07	2.54e+07	2.57e+07	2.69e+07	2.61e+07	2.62e+07	2.64e+07	2.65e+07	2.66e+07	2.67e+07	2.67e+07	2.68e+07	2.68e+07	2.69e+07	2.69e+07	
2.3101e+12	0.00e+00	2.51e+04	1.78e+05	5.31e+05	1.11e+06	1.91e+06	2.90e+06	4.04e+06	5.30e+06	6.62e+06	7.98e+06	9.33e+06	1.06e+07	1.19e+07	1.31e+07	1.42e+07	1.53e+07	1.62e+07	1.71e+07	1.78e+07	1.85e+07	1.91e+07	1.96e+07	2.01e+07	2.05e+07	2.08e+07	2.11e+07	2.13e+07	2.24e+07	2.26e+07	2.19e+07	2.20e+07	2.21e+07	2.22e+07	2.23e+07	2.23e+07	2.24e+07	2.24e+07	2.24e+07	2.25e+07	2.25e+07	
2.6561e+12	0.00e+00	2.20e+04	1.56e+05	4.64e+05	9.68e+05	1.66e+06	2.52e+06	3.50e+06	4.58e+06	5.71e+06	6.87e+06	8.02e+06	9.13e+06	1.02e+07	1.12e+07	1.21e+07	1.30e+07	1.38e+07	1.45e+07	1.51e+07	1.56e+07	1.61e+07	1.65e+07	1.69e+07	1.72e+07	1.75e+07	1.77e+07	1.79e+07	1.88e+07	1.82e+07	1.83e+07	1.84e+07	1.85e+07	1.85e+07	1.86e+07	1.86e+07	1.87e+07	1.87e+07	1.87e+07	1.87e+07	1.87e+07	
3.0539e+12	0.00e+00	1.93e+04	1.36e+05	4.05e+05	8.43e+05	1.44e+06	2.18e+06	3.03e+06	3.96e+06	4.92e+06	5.91e+06	6.88e+06	7.82e+06	8.72e+06	9.55e+06	1.03e+07	1.10e+07	1.17e+07	1.22e+07	1.27e+07	1.32e+07	1.36e+07	1.39e+07	1.42e+07	1.44e+07	1.47e+07	1.48e+07	1.50e+07	1.57e+07	1.52e+07	1.53e+07	1.54e+07	1.54e+07	1.55e+07	1.55e+07	1.55e+07	1.56e+07	1.56e+07	1.56e+07	1.56e+07	1.56e+07	
3.5112e+12	0.00e+00	1.69e+04	1.19e+05	3.53e+05	7.33e+05	1.25e+06	1.89e+06	2.62e+06	3.41e+06	4.24e+06	5.07e+06	5.89e+06	6.68e+06	7.43e+06	8.13e+06	8.77e+06	9.36e+06	9.87e+06	1.03e+07	1.07e+07	1.11e+07	1.14e+07	1.17e+07	1.19e+07	1.21e+07	1.23e+07	1.24e+07	1.30e+07	1.26e+07	1.27e+07	1.27e+07	1.28e+07	1.28e+07	1.29e+07	1.29e+07	1.29e+07	1.29e+07	1.29e+07	1.29e+07	1.30e+07	1.30e+07	
4.0370e+12	0.00e+00	1.48e+04	1.04e+05	3.07e+05	6.37e+05	1.09e+06	1.63e+06	2.26e+06	2.94e+06	3.64e+06	4.34e+06	5.03e+06	5.70e+06	6.32e+06	6.90e+06	7.43e+06	7.91e+06	8.33e+06	8.70e+06	9.03e+06	9.31e+06	9.56e+06	9.77e+06	9.94e+06	1.01e+07	1.02e+07	1.03e+07	1.08e+07	1.05e+07	1.05e+07	1.06e+07	1.06e+07	1.07e+07	1.07e+07	1.07e+07	1.07e+07	1.07e+07	1.07e+07	1.07e+07	1.07e+07	1.07e+07	
4.6416e+12	0.00e+00	1.29e+04	9.05e+04	2.67e+05	5.53e+05	9.40e+05	1.41e+06	1.95e+06	2.52e+06	3.12e+06	3.71e+06	4.29e+06	4.84e+06	5.36e+06	5.84e+06	6.27e+06	6.67e+06	7.00e+06	7.31e+06	7.57e+06	7.80e+06	7.99e+06	8.15e+06	8.29e+06	8.40e+06	8.50e+06	8.91e+06	8.64e+06	8.70e+06	8.74e+06	8.77e+06	8.80e+06	8.83e+06	8.84e+06	8.85e+06	8.87e+06	8.87e+06	8.88e+06	8.88e+06	8.88e+06	8.89e+06	
5.3367e+12	0.00e+00	1.13e+04	7.88e+04	2.32e+05	4.79e+05	8.12e+05	1.22e+06	1.67e+06	2.16e+06	2.66e+06	3.16e+06	3.65e+06	4.11e+06	4.54e+06	4.93e+06	5.29e+06	5.61e+06	5.88e+06	6.12e+06	6.33e+06	6.51e+06	6.66e+06	6.78e+06	6.89e+06	6.98e+06	7.05e+06	7.40e+06	7.16e+06	7.20e+06	7.23e+06	7.25e+06	7.27e+06	7.29e+06	7.30e+06	7.31e+06	7.32e+06	7.32e+06	7.33e+06	7.33e+06	7.33e+06	7.33e+06	
6.1359e+12	0.00e+00	9.81e+03	6.85e+04	2.01e+05	4.14e+05	7.01e+05	1.05e+06	1.43e+06	1.85e+06	2.27e+06	2.69e+06	3.10e+06	3.48e+06	3.83e+06	4.15e+06	4.44e+06	4.70e+06	4.92e+06	5.11e+06	5.27e+06	5.41e+06	5.53e+06	5.63e+06	5.71e+06	5.78e+06	6.06e+06	5.88e+06	5.91e+06	5.94e+06	5.96e+06	5.98e+06	5.99e+06	6.01e+06	6.01e+06	6.02e+06	6.02e+06	6.03e+06	6.03e+06	6.03e+06	6.03e+06	6.03e+06	
7.0548e+12	0.00e+00	8.54e+03	5.95e+04	1.74e+05	3.58e+05	6.03e+05	8.98e+05	1.23e+06	1.58e+06	1.93e+06	2.28e+06	2.62e+06	2.94e+06	3.23e+06	3.49e+06	3.72e+06	3.93e+06	4.10e+06	4.25e+06	4.38e+06	4.49e+06	4.58e+06	4.66e+06	4.72e+06	4.77e+06	5.01e+06	4.84e+06	4.87e+06	4.89e+06	4.90e+06	4.92e+06	4.93e+06	4.94e+06	4.94e+06	4.94e+06	4.95e+06	4.95e+06	4.95e+06	4.95e+06	4.95e+06	4.95e+06	
8.1113e+12	0.00e+00	7.42e+03	5.15e+04	1.51e+05	3.08e+05	5.18e+05	7.69e+05	1.05e+06	1.34e+06	1.64e+06	1.93e+06	2.21e+06	2.47e+06	2.71e+06	2.92e+06	3.11e+06	3.27e+06	3.41e+06	3.53e+06	3.63e+06	3.71e+06	3.78e+06	3.84e+06	3.89e+06	4.08e+06	3.95e+06	3.98e+06	4.00e+06	4.01e+06	4.02e+06	4.03e+06	4.04e+06	4.05e+06	4.05e+06	4.05e+06	4.05e+06	4.05e+06	4.05e+06	4.05e+06	4.05e+06	4.06e+06	
9.3260e+12	0.00e+00	6.44e+03	4.46e+04	1.30e+05	2.65e+05	4.44e+05	6.57e+05	8.93e+05	1.14e+06	1.39e+06	1.63e+06	1.86e+06	2.07e+06	2.26e+06	2.44e+06	2.58e+06	2.71e+06	2.82e+06	2.92e+06	3.00e+06	3.06e+06	3.11e+06	3.16e+06	3.19e+06	3.35e+06	3.24e+06	3.26e+06	3.27e+06	3.28e+06	3.29e+06	3.29e+06	3.30e+06	3.30e+06	3.30e+06	3.30e+06	3.31e+06	3.31e+06	3.31e+06	3.31e+06	3.31e+06	3.31e+06	
1.0723e+13	0.00e+00	5.57e+03	3.85e+04	1.12e+05	2.27e+05	3.79e+05	5.60e+05	7.58e+05	9.66e+05	1.17e+06	1.37e+06	1.56e+06	1.73e+06	1.89e+06	2.02e+06	2.14e+06	2.25e+06	2.33e+06	2.40e+06	2.46e+06	2.51e+06	2.55e+06	2.58e+06	2.71e+06	2.63e+06	2.64e+06	2.66e+06	2.67e+06	2.67e+06	2.68e+06	2.68e+06	2.69e+06	2.69e+06	2.69e+06	2.69e+06	2.69e+06	2.69e+06	2.69e+06	2.69e+06	2.69e+06	2.69e+06	
1.2328e+13	0.00e+00	4.82e+03	3.32e+04	9.59e+04	1.94e+05	3.23e+05	4.76e+05	6.42e+05	8.15e+05	9.86e+05	1.15e+06	1.30e+06	1.44e+06	1.57e+06	1.68e+06	1.77e+06	1.85e+06	1.92e+06	1.97e+06	2.02e+06	2.05e+06	2.08e+06	2.11e+06	2.21e+06	2.14e+06	2.15e+06	2.16e+06	2.17e+06	2.17e+06	2.18e+06	2.18e+06	2.18e+06	2.18e+06	2.18e+06	2.18e+06	2.18e+06	2.18e+06	2.18e+06	2.18e+06	2.18e+06	2.18e+06	
1.4175e+13	0.00e+00	4.15e+03	2.85e+04	8.22e+04	1.66e+05	2.75e+05	4.03e+05	5.42e+05	6.86e+05	8.26e+05	9.60e+05	1.08e+06	1.20e+06	1.30e+06	1.38e+06	1.46e+06	1.52e+06	1.57e+06	1.61e+06	1.65e+06	1.67e+06	1.69e+06	1.78e+06	1.73e+06	1.74e+06	1.74e+06	1.75e+06	1.75e+06	1.76e+06	1.76e+06	1.76e+06	1.76e+06	1.76e+06	1.76e+06	1.76e+06	1.76e+06	1.76e+06	1.77e+06	1.77e+06	1.77e+06	1.77e+06	
1.6298e+13	0.00e+00	3.57e+03	2.44e+04	7.02e+04	1.41e+05	2.33e+05	3.40e+05	4.56e+05	5.75e+05	6.90e+05	7.99e+05	8.99e+05	9.89e+05	1.07e+06	1.14e+06	1.19e+06	1.24e+06	1.28e+06	1.31e+06	1.34e+06	1.36e+06	1.37e+06	1.44e+06	1.39e+06	1.40e+06	1.41e+06	1.41e+06	1.41e+06	1.42e+06	1.42e+06	1.42e+06	1.42e+06	1.42e+06	1.42e+06	1.42e+06	1.42e+06	1.42e+06	1.42e+06	1.42e+06	1.42e+06	1.42e+06	
1.8738e+13	0.00e+00	3.07e+03	2.09e+04	5.98e+04	1.20e+05	1.97e+05	2.86e+05	3.82e+05	4.80e+05	5.74e+05	6.62e+05	7.43e+05	8.14e+05	8.76e+05	9.28e+05	9.72e+05	1.01e+06	1.04e+06	1.06e+06	1.08e+06	1.10e+06	1.15e+06	1.12e+06	1.12e+06	1.13e+06	1.13e+06	1.13e+06	1.14e+06	1.14e+06	1.14e+06	1.14e+06	1.14e+06	1.14e+06	1.14e+06	1.14e+06	1.14e+06	1.14e+06	1.14e+06	1.14e+06	1.14e+06	1.14e+06	
2.1544e+13	0.00e+00	2.63e+03	1.78e+04	5.08e+04	1.01e+05	1.66e+05	2.40e+05	3.19e+05	3.99e+05	4.75e+05	5.46e+05	6.10e+05	6.67e+05	7.15e+05	7.56e+05	7.89e+05	8.18e+05	8.39e+05	8.56e+05	8.70e+05	8.81e+05	9.27e+05	8.95e+05	9.00e+05	9.03e+05	9.06e+05	9.08e+05	9.09e+05	9.10e+05	9.10e+05	9.10e+05	9.11e+05	9.12e+05	9.11e+05	9.11e+05	9.11e+05	9.11e+05	9.11e+05	9.11e+05	9.11e+05	9.11e+05	
2.4771e+13	0.00e+00	2.24e+03	1.51e+04	4.30e+04	8.54e+04	1.39e+05	2.01e+05	2.66e+05	3.30e+05	3.92e+05	4.49e+05	4.99e+05	5.43e+05	5.81e+05	6.12e+05	6.37e+05	6.59e+05	6.74e+05	6.87e+05	6.97e+05	7.33e+05	7.10e+05	7.15e+05	7.18e+05	7.20e+05	7.22e+05	7.23e+05	7.24e+05	7.24e+05	7.24e+05	7.25e+05	7.25e+05	7.26e+05	7.25e+05	7.25e+05	7.25e+05	7.25e+05	7.25e+05	7.25e+05	7.25e+05	7.25e+05	
2.8480e+13	0.00e+00	1.91e+03	1.28e+04	3.62e+04	7.17e+04	1.16e+05	1.67e+05	2.20e+05	2.72e+05	3.22e+05	3.67e+05	4.06e+05	4.41e+05	4.69e+05	4.93e+05	5.12e+05	5.28e+05	5.39e+05	5.48e+05	5.56e+05	5.85e+05	5.65e+05	5.68e+05	5.70e+05	5.71e+05	5.72e+05	5.73e+05	5.74e+05	5.74e+05	5.74e+05	5.74e+05	5.74e+05	5.75e+05	5.74e+05	5.74e+05	5.74e+05	5.74e+05	5.74e+05	5.74e+05	5.74e+05	5.99e+05	
3.2745e+13	0.00e+00	1.62e+03	1.08e+04	3.05e+04	5.99e+04	9.68e+04	1.38e+05	1.81e+05	2.23e+05	2.62e+05	2.98e+05	3.29e+05	3.55e+05	3.77e+05	3.95e+05	4.09e+05	4.21e+05	4.29e+05	4.35e+05	4.58e+05	4.44e+05	4.47e+05	4.49e+05	4.50e+05	4.51e+05	4.52e+05	4.52e+05	4.52e+05	4.52e+05	4.53e+05	4.53e+05	4.53e+05	4.53e+05	4.53e+05	4.53e+05	4.53e+05	4.53e+05	4.53e+05	4.53e+05	4.72e+05	4.53e+05	
3.7649e+13	0.00e+00	1.37e+03	9.11e+03	2.55e+04	4.99e+04	8.02e+04	1.14e+05	1.49e+05	1.82e+05	2.13e+05	2.41e+05	2.65e+05	2.85e+05	3.01e+05	3.14e+05	3.25e+05	3.33e+05	3.39e+05	3.44e+05	3.62e+05	3.50e+05	3.51e+05	3.53e+05	3.54e+05	3.54e+05	3.55e+05	3.55e+05	3.55e+05	3.55e+05	3.55e+05	3.55e+05	3.55e+05	3.56e+05	3.55e+05	3.55e+05	3.55e+05	3.55e+05	3.55e+05	3.70e+05	3.55e+05	3.55e+05	
4.3288e+13	0.00e+00	1.15e+03	7.63e+03	2.12e+04	4.13e+04	6.61e+04	9.34e+04	1.21e+05	1.48e+05	1.72e+05	1.93e+05	2.12e+05	2.27e+05	2.39e+05	2.49e+05	2.56e+05	2.62e+05	2.66e+05	2.70e+05	2.72e+05	2.74e+05	2.75e+05	2.76e+05	2.76e+05	2.77e+05	2.77e+05	2.77e+05	2.77e+05	2.77e+05	2.77e+05	2.77e+05	2.77e+05	2.77e+05	2.77e+05	2.77e+05	2.77e+05	2.77e+05	2.89e+05	2.77e+05	2.77e+05	2.77e+05	
4.9770e+13	0.00e+00	9.66e+02	6.37e+03	1.76e+04	3.41e+04	5.42e+04	7.61e+04	9.82e+04	1.19e+05	1.38e+05	1.54e+05	1.68e+05	1.80e+05	1.89e+05	1.96e+05	2.01e+05	2.05e+05	2.08e+05	2.19e+05	2.12e+05	2.13e+05	2.14e+05	2.14e+05	2.14e+05	2.15e+05	2.15e+05	2.15e+05	2.15e+05	2.15e+05	2.15e+05	2.15e+05	2.15e+05	2.15e+05	2.15e+05	2.15e+05	2.15e+05	2.24e+05	2.15e+05	2.15e+05	2.15e+05	2.15e+05	
5.7224e+13	0.00e+00	8.07e+02	5.29e+03	1.45e+04	2.79e+04	4.42e+04	6.17e+04	7.91e+04	9.55e+04	1.10e+05	1.22e+05	1.33e+05	1.41e+05	1.48e+05	1.53e+05	1.56e+05	1.59e+05	1.61e+05	1.63e+05	1.64e+05	1.64e+05	1.65e+05	1.65e+05	1.65e+05	1.66e+05	1.66e+05	1.66e+05	1.66e+05	1.66e+05	1.66e+05	1.66e+05	1.66e+05	1.66e+05	1.66e+05	1.66e+05	1.73e+05	1.66e+05	1.66e+05	1.66e+05	1.66e+05	1.66e+05	
6.5793e+13	0.00e+00	6.70e+02	4.36e+03	1.19e+04	2.28e+04	3.58e+04	4.96e+04	6.33e+04	7.60e+04	8.70e+04	9.64e+04	1.04e+05	1.10e+05	1.15e+05	1.18e+05	1.21e+05	1.23e+05	1.29e+05	1.25e+05	1.26e+05	1.26e+05	1.27e+05	1.27e+05	1.27e+05	1.27e+05	1.27e+05	1.27e+05	1.27e+05	1.27e+05	1.27e+05	1.27e+05	1.27e+05	1.27e+05	1.27e+05	1.32e+05	1.27e+05	1.27e+05	1.27e+05	1.27e+05	1.27e+05	1.27e+05	
7.5646e+13	0.00e+00	5.54e+02	3.58e+03	9.73e+03	1.85e+04	2.88e+04	3.97e+04	5.02e+04	6.00e+04	6.83e+04	7.53e+04	8.08e+04	8.52e+04	8.85e+04	9.10e+04	9.27e+04	9.42e+04	9.49e+04	9.55e+04	9.59e+04	9.62e+04	9.64e+04	9.65e+04	9.65e+04	9.65e+04	9.66e+04	9.66e+04	9.66e+04	9.66e+04	9.66e+04	9.66e+04	9.66e+04	9.68e+04	1.01e+05	9.66e+04	9.66e+04	9.66e+04	9.66e+04	9.66e+04	9.66e+04	9.66e+04	
8.6975e+13	0.00e+00	4.56e+02	2.93e+03	7.89e+03	1.49e+04	2.30e+04	3.15e+04	3.96e+04	4.70e+04	5.31e+04	5.83e+04	6.23e+04	6.54e+04	6.77e+04	6.94e+04	7.05e+04	7.45e+04	7.19e+04	7.23e+04	7.26e+04	7.28e+04	7.29e+04	7.29e+04	7.29e+04	7.29e+04	7.30e+04	7.30e+04	7.30e+04	7.30e+04	7.30e+04	7.30e+04	7.30e+04	7.61e+04	7.30e+04	7.30e+04	7.30e+04	7.30e+04	7.30e+04	7.30e+04	7.30e+04	7.30e+04	
1.0000e+14	0.00e+00	3.72e+02	2.37e+03	6.35e+03	1.19e+04	1.82e+04	2.48e+04	3.09e+04	3.65e+04	4.10e+04	4.47e+04	4.76e+04	4.97e+04	5.13e+04	5.24e+04	5.32e+04	5.38e+04	5.41e+04	5.43e+04	5.45e+04	5.46e+04	5.46e+04	5.46e+04	5.47e+04	5.47e+04	5.47e+04	5.47e+04	5.47e+04	5.47e+04	5.47e+04	5.47e+04	5.70e+04	5.48e+04	5.47e+04	5.47e+04	5.47e+04	5.47e+04	5.47e+04	5.47e+04	5.47e+04	5.47e+04	
1.1498e+14	0.00e+00	3.02e+02	1.91e+03	5.07e+03	9.41e+03	1.43e+04	1.93e+04	2.40e+04	2.81e+04	3.13e+04	3.40e+04	3.60e+04	3.75e+04	3.85e+04	3.93e+04	4.14e+04	4.02e+04	4.03e+04	4.04e+04	4.05e+04	4.06e+04	4.06e+04	4.06e+04	4.06e+04	4.06e+04	4.06e+04	4.06e+04	4.06e+04	4.06e+04	4.06e+04	4.23e+04	4.06e+04	4.07e+04	4.07e+04	4.06e+04	4.06e+04	4.06e+04	4.07e+04	4.07e+04	4.07e+04	4.07e+04	
1.3219e+14	0.00e+00	2.43e+02	1.53e+03	4.02e+03	7.39e+03	1.12e+04	1.49e+04	1.84e+04	2.14e+04	2.37e+04	2.56e+04	2.69e+04	2.79e+04	2.86e+04	2.91e+04	2.94e+04	2.97e+04	2.97e+04	2.98e+04	2.99e+04	2.99e+04	2.99e+04	2.99e+04	2.99e+04	2.99e+04	2.99e+04	2.99e+04	2.99e+04	2.99e+04	3.12e+04	2.99e+04	2.99e+04	3.00e+04	2.99e+04	2.99e+04	2.99e+04	2.99e+04	2.99e+04	2.99e+04	2.99e+04	2.99e+04	
1.5199e+14	0.00e+00	1.95e+02	1.21e+03	3.16e+03	5.75e+03	8.63e+03	1.14e+04	1.40e+04	1.61e+04	1.78e+04	1.90e+04	2.00e+04	2.06e+04	2.11e+04	2.22e+04	2.15e+04	2.17e+04	2.17e+04	2.18e+04	2.18e+04	2.18e+04	2.18e+04	2.18e+04	2.18e+04	2.18e+04	2.18e+04	2.18e+04	2.18e+04	2.27e+04	2.18e+04	2.18e+04	2.18e+04	2.19e+04	2.18e+04	2.18e+04	2.18e+04	2.18e+04	2.18e+04	2.18e+04	2.18e+04	2.18e+04	
1.7475e+14	0.00e+00	1.54e+02	9.51e+02	2.46e+03	4.44e+03	6.59e+03	8.65e+03	1.05e+04	1.20e+04	1.31e+04	1.40e+04	1.46e+04	1.50e+04	1.53e+04	1.55e+04	1.56e+04	1.57e+04	1.57e+04	1.57e+04	1.58e+04	1.58e+04	1.58e+04	1.58e+04	1.58e+04	1.58e+04	1.58e+04	1.58e+04	1.64e+04	1.58e+04	1.58e+04	1.58e+04	1.58e+04	1.58e+04	1.58e+04	1.58e+04	1.58e+04	1.58e+04	1.58e+04	1.58e+04	1.58e+04	1.58e+04	
2.0092e+14	0.00e+00	1.21e+02	7.40e+02	1.89e+03	3.38e+03	4.97e+03	6.47e+03	7.77e+03	8.83e+03	9.60e+03	1.02e+04	1.06e+04	1.08e+04	1.14e+04	1.11e+04	1.12e+04	1.12e+04	1.12e+04	1.12e+04	1.13e+04	1.13e+04	1.13e+04	1.13e+04	1.13e+04	1.13e+04	1.13e+04	1.17e+04	1.13e+04	1.13e+04	1.13e+04	1.13e+04	1.13e+04	1.13e+04	1.13e+04	1.13e+04	1.13e+04	1.13e+04	1.13e+04	1.13e+04	1.13e+04	1.13e+04	
2.3101e+14	0.00e+00	9.45e+01	5.70e+02	1.44e+03	2.55e+03	3.71e+03	4.78e+03	5.68e+03	6.41e+03	6.92e+03	7.29e+03	7.54e+03	7.71e+03	7.81e+03	7.87e+03	7.90e+03	7.95e+03	7.94e+03	7.94e+03	7.95e+03	7.95e+03	7.95e+03	7.95e+03	7.95e+03	7.95e+03	7.95e+03	7.95e+03	7.95e+03	7.95e+03	7.95e+03	7.95e+03	7.96e+03	7.97e+03	7.96e+03	7.95e+03	7.95e+03	7.95e+03	7.95e+03	7.95e+03	7.95e+03	7.95e+03	
2.6561e+14	0.00e+00	7.27e+01	4.34e+02	1.08e+03	1.90e+03	2.73e+03	3.48e+03	4.10e+03	4.58e+03	4.92e+03	5.16e+03	5.31e+03	5.41e+03	5.47e+03	5.50e+03	5.52e+03	5.55e+03	5.54e+03	5.54e+03	5.54e+03	5.54e+03	5.54e+03	5.54e+03	5.54e+03	5.54e+03	5.54e+03	5.54e+03	5.54e+03	5.54e+03	5.54e+03	5.54e+03	5.55e+03	5.56e+03	5.55e+03	5.54e+03	5.54e+03	5.54e+03	5.54e+03	5.54e+03	5.54e+03	5.54e+03	
3.0539e+14	0.00e+00	5.54e+01	3.26e+02	8.05e+02	1.39e+03	1.98e+03	2.50e+03	2.92e+03	3.23e+03	3.45e+03	3.59e+03	3.68e+03	3.74e+03	3.77e+03	3.79e+03	3.80e+03	3.82e+03	3.81e+03	3.81e+03	3.81e+03	3.81e+03	3.81e+03	3.81e+03	3.81e+03	3.99e+03	3.81e+03	3.81e+03	3.81e+03	3.81e+03	3.81e+03	3.81e+03	3.81e+03	3.82e+03	3.81e+03	3.81e+03	3.81e+03	3.81e+03	3.81e+03	3.81e+03	3.81e+03	3.81e+03	
3.5112e+14	0.00e+00	4.16e+01	2.42e+02	5.90e+02	1.01e+03	1.41e+03	1.77e+03	2.04e+03	2.24e+03	2.37e+03	2.46e+03	2.51e+03	2.55e+03	2.56e+03	2.57e+03	2.58e+03	2.58e+03	2.58e+03	2.58e+03	2.58e+03	2.58e+03	2.58e+03	2.58e+03	2.69e+03	2.58e+03	2.58e+03	2.58e+03	2.58e+03	2.58e+03	2.58e+03	2.58e+03	2.58e+03	2.58e+03	2.58e+03	2.58e+03	2.58e+03	2.58e+03	2.58e+03	2.58e+03	2.58e+03	2.58e+03	
4.0370e+14	0.00e+00	3.09e+01	1.77e+02	4.25e+02	7.16e+02	9.94e+02	1.23e+03	1.40e+03	1.53e+03	1.61e+03	1.66e+03	1.76e+03	1.70e+03	1.71e+03	1.72e+03	1.72e+03	1.72e+03	1.72e+03	1.72e+03	1.72e+03	1.72e+03	1.72e+03	1.79e+03	1.72e+03	1.72e+03	1.72e+03	1.72e+03	1.72e+03	1.72e+03	1.72e+03	1.72e+03	1.72e+03	1.72e+03	1.72e+03	1.72e+03	1.72e+03	1.72e+03	1.72e+03	1.72e+03	1.72e+03	1.72e+03	
4.6416e+14	0.00e+00	2.26e+01	1.27e+02	3.02e+02	5.00e+02	6.85e+02	8.35e+02	9.46e+02	1.02e+03	1.07e+03	1.10e+03	1.11e+03	1.12e+03	1.13e+03	1.13e+03	1.13e+03	1.13e+03	1.13e+03	1.13e+03	1.13e+03	1.13e+03	1.18e+03	1.13e+03	1.13e+03	1.13e+03	1.13e+03	1.13e+03	1.13e+03	1.13e+03	1.13e+03	1.13e+03	1.13e+03	1.13e+03	1.13e+03	1.13e+03	1.13e+03	1.13e+03	1.13e+03	1.13e+03	1.13e+03	1.13e+03	
5.3367e+14	0.00e+00	1.62e+01	9.01e+01	2.10e+02	3.43e+02	4.63e+02	5.58e+02	6.25e+02	6.69e+02	6.96e+02	7.40e+02	7.19e+02	7.24e+02	7.26e+02	7.27e+02	7.27e+02	7.27e+02	7.27e+02	7.28e+02	7.28e+02	7.28e+02	7.28e+02	7.28e+02	7.28e+02	7.28e+02	7.28e+02	7.28e+02	7.28e+02	7.28e+02	7.28e+02	7.28e+02	7.27e+02	7.28e+02	7.27e+02	7.27e+02	7.28e+02	7.28e+02	7.28e+02	7.28e+02	7.28e+02	7.28e+02	
6.1359e+14	0.00e+00	1.15e+01	6.25e+01	1.43e+02	2.30e+02	3.07e+02	3.65e+02	4.04e+02	4.29e+02	4.44e+02	4.52e+02	4.56e+02	4.58e+02	4.59e+02	4.59e+02	4.59e+02	4.59e+02	4.59e+02	4.59e+02	4.59e+02	4.59e+02	4.59e+02	4.59e+02	4.59e+02	4.59e+02	4.60e+02	4.60e+02	4.59e+02	4.59e+02	4.59e+02	4.59e+02	4.59e+02	4.59e+02	4.59e+02	4.59e+02	4.59e+02	4.59e+02	4.59e+02	4.59e+02	4.78e+02	4.59e+02	
7.0548e+14	0.00e+00	7.93e+00	4.25e+01	9.57e+01	1.51e+02	1.98e+02	2.32e+02	2.55e+02	2.69e+02	2.76e+02	2.80e+02	2.82e+02	2.83e+02	2.83e+02	2.84e+02	2.84e+02	2.84e+02	2.84e+02	2.84e+02	2.84e+02	2.84e+02	2.84e+02	2.84e+02	2.84e+02	2.84e+02	2.84e+02	2.84e+02	2.84e+02	2.84e+02	2.84e+02	2.84e+02	2.84e+02	2.84e+02	2.84e+02	2.84e+02	2.84e+02	2.84e+02	2.95e+02	2.84e+02	2.84e+02	2.84e+02	
8.1113e+14	0.00e+00	5.38e+00	2.83e+01	6.24e+01	9.68e+01	1.25e+02	1.45e+02	1.57e+02	1.64e+02	1.68e+02	1.70e+02	1.71e+02	1.71e+02	1.71e+02	1.71e+02	1.71e+02	1.71e+02	1.71e+02	1.71e+02	1.71e+02	1.71e+02	1.71e+02	1.71e+02	1.71e+02	1.71e+02	1.71e+02	1.71e+02	1.71e+02	1.71e+02	1.71e+02	1.71e+02	1.71e+02	1.71e+02	1.71e+02	1.71e+02	1.78e+02	1.71e+02	1.71e+02	1.71e+02	1.71e+02	1.71e+02	
9.3260e+14	0.00e+00	3.56e+00	1.83e+01	3.96e+01	6.03e+01	7.65e+01	8.74e+01	9.40e+01	9.75e+01	9.94e+01	1.00e+02	1.01e+02	1.01e+02	1.01e+02	1.01e+02	1.01e+02	1.01e+02	1.05e+02	1.01e+02	1.01e+02	1.01e+02	1.01e+02	1.01e+02	1.01e+02	1.01e+02	1.01e+02	1.01e+02	1.01e+02	1.01e+02	1.01e+02	1.01e+02	1.01e+02	1.01e+02	1.01e+02	1.05e+02	1.01e+02	1.01e+02	1.01e+02	1.01e+02	1.01e+02	1.01e+02	
1.0723e+15	0.00e+00	2.30e+00	1.16e+01	2.45e+01	3.65e+01	4.55e+01	5.13e+01	5.46e+01	5.88e+01	5.71e+01	5.75e+01	5.76e+01	5.77e+01	5.77e+01	5.77e+01	5.77e+01	6.03e+01	5.77e+01	5.77e+01	5.77e+01	5.77e+01	5.77e+01	5.77e+01	5.77e+01	5.77e+01	5.77e+01	5.77e+01	5.77e+01	5.77e+01	5.77e+01	5.77e+01	5.77e+01	6.03e+01	5.77e+01	5.77e+01	5.77e+01	5.77e+01	5.77e+01	5.77e+01	5.77e+01	5.77e+01	
1.2328e+15	0.00e+00	1.44e+00	7.08e+00	1.46e+01	2.14e+01	2.62e+01	2.91e+01	3.07e+01	3.15e+01	3.19e+01	3.20e+01	3.20e+01	3.21e+01	3.21e+01	3.21e+01	3.21e+01	3.21e+01	3.21e+01	3.21e+01	3.21e+01	3.21e+01	3.21e+01	3.21e+01	3.21e+01	3.21e+01	3.21e+01	3.21e+01	3.21e+01	3.21e+01	3.21e+01	3.21e+01	3.35e+01	3.21e+01	3.20e+01	3.21e+01	3.21e+01	3.21e+01	3.21e+01	3.21e+01	3.21e+01	3.21e+01	
1.4175e+15	0.00e+00	8.80e-01	4.20e+00	8.46e+00	1.21e+01	1.46e+01	1.60e+01	1.67e+01	1.70e+01	1.72e+01	1.72e+01	1.72e+01	1.72e+01	1.72e+01	1.72e+01	1.72e+01	1.72e+01	1.72e+01	1.73e+01	1.73e+01	1.73e+01	1.72e+01	1.72e+01	1.72e+01	1.72e+01	1.72e+01	1.72e+01	1.72e+01	1.72e+01	1.79e+01	1.72e+01	1.72e+01	1.72e+01	1.72e+01	1.72e+01	1.72e+01	1.73e+01	1.73e+01	1.73e+01	1.73e+01	1.73e+01	
1.6298e+15	0.00e+00	5.18e-01	2.40e+00	4.71e+00	6.58e+00	7.78e+00	8.43e+00	8.74e+00	8.87e+00	8.93e+00	8.94e+00	8.94e+00	8.95e+00	8.95e+00	9.31e+00	8.94e+00	8.95e+00	8.94e+00	8.95e+00	8.96e+00	8.95e+00	8.95e+00	8.95e+00	8.95e+00	8.95e+00	8.95e+00	8.95e+00	8.95e+00	9.31e+00	8.95e+00	8.94e+00	8.94e+00	8.95e+00	8.94e+00	8.94e+00	8.95e+00	8.95e+00	8.95e+00	8.96e+00	8.95e+00	8.95e+00	
1.8738e+15	0.00e+00	2.94e-01	1.32e+00	2.52e+00	3.43e+00	3.99e+00	4.27e+00	4.39e+00	4.44e+00	4.46e+00	4.46e+00	4.46e+00	4.47e+00	4.63e+00	4.47e+00	4.46e+00	4.47e+00	4.47e+00	4.47e+00	4.47e+00	4.46e+00	4.47e+00	4.47e+00	4.47e+00	4.47e+00	4.47e+00	4.63e+00	4.47e+00	4.47e+00	4.47e+00	4.46e+00	4.46e+00	4.47e+00	4.46e+00	4.47e+00	4.47e+00	4.47e+00	4.47e+00	4.47e+00	4.47e+00	4.46e+00	
2.1544e+15	0.00e+00	1.60e-01	6.95e-01	1.29e+00	1.71e+00	1.95e+00	2.07e+00	2.11e+00	2.13e+00	2.13e+00	2.13e+00	2.14e+00	2.14e+00	2.14e+00	2.14e+00	2.13e+00	2.14e+00	2.14e+00	2.14e+00	2.14e+00	2.14e+00	2.14e+00	2.14e+00	2.14e+00	2.14e+00	2.22e+00	2.14e+00	2.14e+00	2.14e+00	2.14e+00	2.13e+00	2.14e+00	2.14e+00	2.14e+00	2.14e+00	2.14e+00	2.14e+00	2.14e+00	2.14e+00	2.14e+00	2.14e+00	
2.4771e+15	0.00e+00	8.32e-02	3.49e-01	6.25e-01	8.11e-01	9.09e-01	9.52e-01	9.68e-01	9.73e-01	9.74e-01	9.75e-01	9.75e-01	1.01e+00	9.75e-01	9.75e-01	9.75e-01	9.75e-01	9.75e-01	9.75e-01	9.75e-01	9.75e-01	9.75e-01	9.75e-01	9.75e-01	1.01e+00	9.75e-01	9.75e-01	9.75e-01	9.75e-01	9.75e-01	9.75e-01	9.74e-01	9.75e-01	9.74e-01	9.75e-01	9.75e-01	9.75e-01	9.75e-01	9.75e-01	9.75e-01	9.75e-01	
2.8480e+15	0.00e+00	4.12e-02	1.66e-01	2.88e-01	3.64e-01	4.01e-01	4.16e-01	4.21e-01	4.22e-01	4.23e-01	4.23e-01	4.38e-01	4.23e-01	4.23e-01	4.23e-01	4.23e-01	4.23e-01	4.23e-01	4.23e-01	4.23e-01	4.23e-01	4.23e-01	4.38e-01	4.23e-01	4.23e-01	4.23e-01	4.23e-01	4.23e-01	4.23e-01	4.23e-01	4.23e-01	4.22e-01	4.23e-01	4.23e-01	4.23e-01	4.23e-01	4.23e-01	4.23e-01	4.23e-01	4.23e-01	4.23e-01	
3.2745e+15	0.00e+00	1.93e-02	7.45e-02	1.25e-01	1.54e-01	1.67e-01	1.71e-01	1.73e-01	1.73e-01	1.73e-01	1.73e-01	1.73e-01	1.73e-01	1.73e-01	1.73e-01	1.73e-01	1.73e-01	1.73e-01	1.73e-01	1.73e-01	1.73e-01	1.80e-01	1.73e-01	1.73e-01	1.73e-01	1.73e-01	1.73e-01	1.73e-01	1.73e-01	1.73e-01	1.73e-01	1.73e-01	1.73e-01	1.73e-01	1.73e-01	1.73e-01	1.73e-01	1.73e-01	1.73e-01	1.73e-01	1.73e-01	
3.7649e+15	0.00e+00	8.48e-03	3.14e-02	5.06e-02	6.08e-02	6.49e-02	6.62e-02	6.66e-02	6.67e-02	6.67e-02	6.67e-02	6.67e-02	6.67e-02	6.68e-02	6.67e-02	6.67e-02	6.67e-02	6.67e-02	6.67e-02	6.67e-02	6.67e-02	6.67e-02	6.67e-02	6.67e-02	6.67e-02	6.67e-02	6.68e-02	6.67e-02	6.67e-02	6.67e-02	6.67e-02	6.67e-02	6.67e-02	6.67e-02	6.67e-02	6.67e-02	6.67e-02	6.67e-02	6.67e-02	6.91e-02	6.67e-02	
4.3288e+15	0.00e+00	3.49e-03	1.23e-02	1.91e-02	2.23e-02	2.35e-02	2.39e-02	2.39e-02	2.40e-02	2.40e-02	2.40e-02	2.40e-02	2.40e-02	2.40e-02	2.40e-02	2.40e-02	2.40e-02	2.40e-02	2.40e-02	2.40e-02	2.40e-02	2.40e-02	2.40e-02	2.40e-02	2.40e-02	2.40e-02	2.40e-02	2.40e-02	2.40e-02	2.40e-02	2.40e-02	2.40e-02	2.40e-02	2.40e-02	2.40e-02	2.40e-02	2.40e-02	2.49e-02	2.40e-02	2.40e-02	2.40e-02	
4.9770e+15	0.00e+00	1.33e-03	4.45e-03	6.63e-03	7.58e-03	7.89e-03	7.97e-03	7.98e-03	7.99e-03	7.99e-03	7.99e-03	7.99e-03	7.99e-03	7.99e-03	7.99e-03	7.98e-03	7.99e-03	8.31e-03	7.99e-03	7.99e-03	7.99e-03	7.99e-03	7.99e-03	7.99e-03	7.99e-03	7.99e-03	7.99e-03	7.99e-03	7.99e-03	7.99e-03	7.98e-03	7.98e-03	7.99e-03	7.98e-03	8.31e-03	8.32e-03	7.99e-03	7.99e-03	7.99e-03	7.99e-03	7.99e-03	
5.7224e+15	0.00e+00	4.64e-04	1.47e-03	2.11e-03	2.47e-03	2.42e-03	2.44e-03	2.44e-03	2.56e-03	2.44e-03	2.44e-03	2.45e-03	2.44e-03	2.44e-03	2.44e-03	2.44e-03	2.56e-03	2.44e-03	2.44e-03	2.44e-03	2.44e-03	2.45e-03	2.45e-03	2.44e-03	2.44e-03	2.44e-03	2.44e-03	2.44e-03	2.44e-03	2.44e-03	2.44e-03	2.44e-03	2.56e-03	2.44e-03	2.44e-03	2.44e-03	2.44e-03	2.44e-03	2.44e-03	2.44e-03	2.44e-03	
6.5793e+15	0.00e+00	1.46e-04	4.38e-04	6.03e-04	6.60e-04	6.74e-04	6.76e-04	6.77e-04	6.77e-04	6.77e-04	6.77e-04	6.76e-04	6.77e-04	6.77e-04	6.77e-04	7.05e-04	6.77e-04	6.77e-04	6.77e-04	6.77e-04	6.77e-04	6.76e-04	6.76e-04	6.77e-04	6.77e-04	6.77e-04	6.77e-04	6.77e-04	6.77e-04	6.77e-04	7.05e-04	6.76e-04	6.77e-04	6.77e-04	6.77e-04	6.77e-04	6.77e-04	6.77e-04	6.77e-04	6.77e-04	6.77e-04	
7.5646e+15	0.00e+00	4.03e-05	1.14e-04	1.51e-04	1.62e-04	1.64e-04	1.65e-04	1.71e-04	1.65e-04	1.65e-04	1.65e-04	1.65e-04	1.65e-04	1.65e-04	1.71e-04	1.65e-04	1.65e-04	1.65e-04	1.65e-04	1.65e-04	1.65e-04	1.65e-04	1.65e-04	1.65e-04	1.65e-04	1.65e-04	1.65e-04	1.65e-04	1.71e-04	1.65e-04	1.65e-04	1.65e-04	1.65e-04	1.65e-04	1.65e-04	1.65e-04	1.65e-04	1.65e-04	1.65e-04	1.65e-04	1.65e-04	
8.6975e+15	0.00e+00	8.48e-06	2.27e-05	2.91e-05	3.07e-05	3.10e-05	3.11e-05	3.11e-05	3.11e-05	3.11e-05	3.11e-05	3.11e-05	3.11e-05	3.21e-05	3.11e-05	3.11e-05	3.11e-05	3.11e-05	3.11e-05	3.11e-05	3.11e-05	3.11e-05	3.11e-05	3.11e-05	3.11e-05	3.11e-05	3.21e-05	3.22e-05	3.11e-05	3.11e-05	3.11e-05	3.11e-05	3.11e-05	3.11e-05	3.11e-05	3.11e-05	3.11e-05	3.11e-05	3.11e-05	3.11e-05	3.11e-05	
1.0000e+16	0.00e+00	0.00e+00	0.00e+00	0.00e+00	0.00e+00	0.00e+00	0.00e+00	0.00e+00	0.00e+00	0.00e+00	0.00e+00	0.00e+00	0.00e+00	0.00e+00	0.00e+00	0.00e+00	0.00e+00	0.00e+00	0.00e+00	0.00e+00	0.00e+00	0.00e+00	0.00e+00	0.00e+00	0.00e+00	0.00e+00	0.00e+00	0.00e+00	0.00e+00	0.00e+00	0.00e+00	0.00e+00	0.00e+00	0.00e+00	0.00e+00	0.00e+00	0.00e+00	0.00e+00	0.00e+00	0.00e+00	0.00e+00	
