# x= #theta [deg] ,  y= dJ/d#Omega(#theta) [GeV^{2} cm^{-5} sr^{-1}]
#      x     y[    sm       <subs>     <cp>       tot     <subs>/tot]
  0.0000e+00     5.75e+25   9.66e+20   1.18e+21   5.75e+25   1.68e-05
  1.8182e+00     3.97e+24   9.51e+20   6.62e+20   3.97e+24   2.40e-04
  3.6364e+00     1.63e+24   9.39e+20   5.06e+20   1.64e+24   5.74e-04
  5.4545e+00     8.98e+23   9.28e+20   4.12e+20   8.99e+23   1.03e-03
  7.2727e+00     5.65e+23   9.17e+20   3.50e+20   5.66e+23   1.62e-03
  9.0909e+00     3.85e+23   9.07e+20   3.04e+20   3.86e+23   2.35e-03
  1.0909e+01     2.79e+23   8.96e+20   2.68e+20   2.81e+23   3.19e-03
  1.2727e+01     2.08e+23   8.87e+20   2.39e+20   2.09e+23   4.24e-03
  1.4545e+01     1.61e+23   8.77e+20   2.15e+20   1.62e+23   5.41e-03
  1.6364e+01     1.27e+23   8.68e+20   1.96e+20   1.29e+23   6.75e-03
  1.8182e+01     1.03e+23   8.58e+20   1.79e+20   1.04e+23   8.25e-03
  2.0000e+01     8.47e+22   8.49e+20   1.64e+20   8.57e+22   9.91e-03
  2.1818e+01     7.13e+22   8.41e+20   1.52e+20   7.23e+22   1.16e-02
  2.3636e+01     5.95e+22   8.32e+20   1.41e+20   6.05e+22   1.38e-02
  2.5455e+01     5.08e+22   8.23e+20   1.31e+20   5.17e+22   1.59e-02
  2.7273e+01     4.37e+22   8.15e+20   1.22e+20   4.46e+22   1.83e-02
  2.9091e+01     3.79e+22   8.07e+20   1.14e+20   3.89e+22   2.08e-02
  3.0909e+01     3.32e+22   7.99e+20   1.07e+20   3.41e+22   2.34e-02
  3.2727e+01     2.92e+22   7.91e+20   1.01e+20   3.01e+22   2.63e-02
  3.4545e+01     2.59e+22   7.83e+20   9.53e+19   2.68e+22   2.92e-02
  3.6364e+01     2.31e+22   7.52e+20   9.01e+19   2.39e+22   3.14e-02
  3.8182e+01     2.07e+22   7.44e+20   8.53e+19   2.15e+22   3.46e-02
  4.0000e+01     1.86e+22   7.37e+20   8.09e+19   1.95e+22   3.79e-02
  4.1818e+01     1.69e+22   7.53e+20   7.43e+19   1.77e+22   4.26e-02
  4.3636e+01     1.53e+22   7.45e+20   7.31e+19   1.61e+22   4.62e-02
  4.5455e+01     1.40e+22   7.38e+20   6.97e+19   1.48e+22   5.00e-02
  4.7273e+01     1.28e+22   7.32e+20   6.73e+19   1.36e+22   5.39e-02
  4.9091e+01     1.17e+22   7.25e+20   6.36e+19   1.25e+22   5.79e-02
  5.0909e+01     1.08e+22   7.18e+20   6.08e+19   1.16e+22   6.20e-02
  5.2727e+01     9.99e+21   7.12e+20   5.83e+19   1.08e+22   6.61e-02
  5.4545e+01     8.93e+21   7.05e+20   5.59e+19   9.69e+21   7.28e-02
  5.6364e+01     8.61e+21   6.99e+20   5.37e+19   9.36e+21   7.46e-02
  5.8182e+01     8.02e+21   6.93e+20   5.16e+19   8.77e+21   7.90e-02
  6.0000e+01     7.50e+21   6.87e+20   4.97e+19   8.23e+21   8.34e-02
  6.1818e+01     7.02e+21   6.81e+20   4.78e+19   7.75e+21   8.79e-02
  6.3636e+01     6.59e+21   6.75e+20   4.61e+19   7.31e+21   9.23e-02
  6.5455e+01     6.19e+21   6.69e+20   4.45e+19   6.91e+21   9.68e-02
  6.7273e+01     5.84e+21   6.63e+20   4.30e+19   6.54e+21   1.01e-01
  6.9091e+01     5.51e+21   6.58e+20   4.16e+19   6.21e+21   1.06e-01
  7.0909e+01     5.21e+21   6.52e+20   4.03e+19   5.90e+21   1.10e-01
  7.2727e+01     4.94e+21   6.47e+20   3.90e+19   5.63e+21   1.15e-01
  7.4545e+01     4.69e+21   6.42e+20   3.78e+19   5.37e+21   1.19e-01
  7.6364e+01     4.47e+21   6.37e+20   3.67e+19   5.14e+21   1.24e-01
  7.8182e+01     4.25e+21   6.32e+20   3.56e+19   4.92e+21   1.28e-01
  8.0000e+01     4.06e+21   6.27e+20   3.46e+19   4.72e+21   1.33e-01
  8.1818e+01     3.88e+21   6.22e+20   3.36e+19   4.53e+21   1.37e-01
  8.3636e+01     3.71e+21   6.17e+20   3.27e+19   4.36e+21   1.42e-01
  8.5455e+01     3.56e+21   6.13e+20   3.19e+19   4.20e+21   1.46e-01
  8.7273e+01     3.41e+21   6.08e+20   3.10e+19   4.05e+21   1.50e-01
  8.9091e+01     3.28e+21   6.04e+20   3.03e+19   3.91e+21   1.54e-01
  9.0909e+01     3.16e+21   5.96e+20   2.95e+19   3.78e+21   1.58e-01
  9.2727e+01     3.04e+21   5.92e+20   2.88e+19   3.66e+21   1.62e-01
  9.4545e+01     2.93e+21   5.88e+20   2.82e+19   3.55e+21   1.66e-01
  9.6364e+01     2.83e+21   5.84e+20   2.75e+19   3.44e+21   1.70e-01
  9.8182e+01     2.74e+21   5.80e+20   2.69e+19   3.34e+21   1.74e-01
  1.0000e+02     2.65e+21   5.76e+20   2.64e+19   3.25e+21   1.77e-01
  1.0182e+02     2.56e+21   5.73e+20   2.58e+19   3.16e+21   1.81e-01
  1.0364e+02     2.49e+21   5.69e+20   2.53e+19   3.08e+21   1.85e-01
  1.0545e+02     2.41e+21   5.66e+20   2.48e+19   3.00e+21   1.88e-01
  1.0727e+02     2.34e+21   5.62e+20   2.43e+19   2.93e+21   1.92e-01
  1.0909e+02     2.28e+21   5.59e+20   2.39e+19   2.86e+21   1.95e-01
  1.1091e+02     2.22e+21   5.56e+20   2.34e+19   2.80e+21   1.99e-01
  1.1273e+02     2.16e+21   5.53e+20   2.30e+19   2.74e+21   2.02e-01
  1.1455e+02     2.11e+21   5.50e+20   2.26e+19   2.68e+21   2.05e-01
  1.1636e+02     2.06e+21   5.47e+20   2.23e+19   2.63e+21   2.08e-01
  1.1818e+02     2.01e+21   5.44e+20   2.19e+19   2.58e+21   2.11e-01
  1.2000e+02     1.97e+21   5.41e+20   2.16e+19   2.53e+21   2.14e-01
  1.2182e+02     1.92e+21   5.39e+20   2.13e+19   2.48e+21   2.17e-01
  1.2364e+02     1.88e+21   5.36e+20   2.10e+19   2.44e+21   2.20e-01
  1.2545e+02     1.85e+21   5.34e+20   2.07e+19   2.40e+21   2.22e-01
  1.2727e+02     1.81e+21   5.31e+20   2.04e+19   2.36e+21   2.25e-01
  1.2909e+02     1.78e+21   5.29e+20   2.01e+19   2.33e+21   2.27e-01
  1.3091e+02     1.75e+21   5.27e+20   1.99e+19   2.29e+21   2.30e-01
  1.3273e+02     1.72e+21   5.24e+20   1.96e+19   2.26e+21   2.32e-01
  1.3455e+02     1.69e+21   5.22e+20   1.94e+19   2.23e+21   2.34e-01
  1.3636e+02     1.66e+21   5.20e+20   1.92e+19   2.20e+21   2.36e-01
  1.3818e+02     1.64e+21   5.19e+20   1.90e+19   2.18e+21   2.38e-01
  1.4000e+02     1.62e+21   5.17e+20   1.88e+19   2.15e+21   2.40e-01
  1.4182e+02     1.59e+21   5.15e+20   1.86e+19   2.13e+21   2.42e-01
  1.4364e+02     1.57e+21   5.13e+20   1.85e+19   2.11e+21   2.44e-01
  1.4545e+02     1.55e+21   5.12e+20   1.83e+19   2.09e+21   2.45e-01
  1.4727e+02     1.54e+21   5.10e+20   1.82e+19   2.07e+21   2.47e-01
  1.4909e+02     1.52e+21   5.09e+20   1.80e+19   2.05e+21   2.49e-01
  1.5091e+02     1.51e+21   5.08e+20   1.79e+19   2.03e+21   2.50e-01
  1.5273e+02     1.49e+21   5.07e+20   1.78e+19   2.02e+21   2.51e-01
  1.5455e+02     1.48e+21   5.05e+20   1.77e+19   2.00e+21   2.53e-01
  1.5636e+02     1.47e+21   5.04e+20   1.76e+19   1.99e+21   2.54e-01
  1.5818e+02     1.45e+21   5.03e+20   1.75e+19   1.98e+21   2.55e-01
  1.6000e+02     1.44e+21   5.02e+20   1.74e+19   1.96e+21   2.56e-01
  1.6182e+02     1.44e+21   5.02e+20   1.73e+19   1.95e+21   2.57e-01
  1.6364e+02     1.43e+21   5.01e+20   1.72e+19   1.95e+21   2.58e-01
  1.6545e+02     1.42e+21   5.00e+20   1.72e+19   1.94e+21   2.58e-01
  1.6727e+02     1.41e+21   5.00e+20   1.71e+19   1.93e+21   2.59e-01
  1.6909e+02     1.41e+21   4.99e+20   1.70e+19   1.92e+21   2.59e-01
  1.7091e+02     1.40e+21   4.99e+20   1.70e+19   1.92e+21   2.60e-01
  1.7273e+02     1.40e+21   4.98e+20   1.70e+19   1.91e+21   2.60e-01
  1.7455e+02     1.40e+21   4.98e+20   1.69e+19   1.91e+21   2.61e-01
  1.7636e+02     1.39e+21   4.98e+20   1.69e+19   1.91e+21   2.61e-01
  1.7818e+02     1.39e+21   4.98e+20   1.69e+19   1.91e+21   2.61e-01
  1.8000e+02     1.39e+21   4.98e+20   1.69e+19   1.91e+21   2.61e-01
