
x= r [kpc] ,  y= v_{r}^{2}(r) [km^{2} s^{-2}]
     x       y_pdf_median  y_pdf_mean  y_mostlikely  y_chi2_best    CL_lo_PDF   CL_up_PDF
                                                                 |          68.0% CL         |          95.0% CL          
1.0000e-02 2.03e+00 2.23e+00 6.15e-01 6.59e+01   3.65e-01 1.57e+01   1.26e-01 6.74e+01  
1.3216e-02 2.57e+00 2.73e+00 8.76e-01 5.25e+01   5.75e-01 1.62e+01   1.98e-01 5.46e+01  
1.7467e-02 3.26e+00 3.36e+00 5.06e+00 4.48e+01   8.67e-01 1.52e+01   2.98e-01 4.90e+01  
2.3085e-02 4.07e+00 4.16e+00 5.70e+00 4.11e+01   1.26e+00 1.56e+01   4.28e-01 4.62e+01  
3.0509e-02 5.06e+00 5.19e+00 6.39e+00 3.96e+01   1.82e+00 1.73e+01   6.26e-01 4.75e+01  
4.0321e-02 5.78e+00 6.53e+00 6.89e+00 4.12e+01   2.57e+00 2.14e+01   8.77e-01 4.99e+01  
5.3289e-02 7.29e+00 8.18e+00 7.42e+00 4.34e+01   3.27e+00 2.48e+01   1.22e+00 5.69e+01  
7.0428e-02 8.81e+00 1.01e+01 7.79e+00 4.59e+01   4.15e+00 2.90e+01   1.51e+00 6.58e+01  
9.3080e-02 1.13e+01 1.22e+01 7.70e+00 4.79e+01   4.83e+00 3.54e+01   1.86e+00 9.35e+01  
1.2302e-01 1.28e+01 1.43e+01 7.45e+00 4.89e+01   5.03e+00 4.30e+01   1.75e+00 1.45e+02  
1.6258e-01 1.47e+01 1.62e+01 3.92e+01 4.83e+01   4.85e+00 5.48e+01   1.55e+00 2.27e+02  
2.1487e-01 1.55e+01 1.77e+01 5.59e+00 4.62e+01   4.49e+00 7.63e+01   1.21e+00 3.53e+02  
2.8398e-01 1.63e+01 1.88e+01 1.55e+01 4.24e+01   3.93e+00 1.05e+02   9.50e-01 5.34e+02  
3.7531e-01 1.61e+01 1.93e+01 3.68e+00 3.75e+01   3.27e+00 1.50e+02   7.84e-01 7.87e+02  
4.9602e-01 1.52e+01 1.93e+01 1.27e+01 3.20e+01   2.60e+00 1.96e+02   5.93e-01 1.02e+03  
6.5555e-01 1.40e+01 1.88e+01 1.56e+00 2.64e+01   1.98e+00 2.64e+02   4.64e-01 1.53e+03  
8.6638e-01 1.17e+01 1.79e+01 1.69e+00 2.12e+01   1.58e+00 3.16e+02   3.60e-01 2.18e+03  
1.1450e+00 1.03e+01 1.66e+01 1.28e+00 1.66e+01   1.18e+00 3.83e+02   2.68e-01 3.00e+03  
1.5133e+00 8.76e+00 1.51e+01 1.00e+00 1.28e+01   9.20e-01 4.38e+02   2.08e-01 4.80e+03  
2.0000e+00 7.12e+00 1.34e+01 7.59e-01 9.80e+00   6.92e-01 4.81e+02   1.49e-01 7.16e+03  
