
x= r [kpc] ,  y= #nu(r) [L_{#odot} cm^{-3}]
     x       y_pdf_median  y_pdf_mean  y_mostlikely  y_chi2_best    CL_lo_PDF   CL_up_PDF
                                                                 |          68.0% CL         |          95.0% CL          
1.0000e-02 1.55e+04 1.00e+00 1.55e+04 1.55e+04   1.55e+04 1.55e+04   1.55e+04 1.55e+04  
1.3216e-02 1.12e+04 1.00e+00 1.12e+04 1.12e+04   1.12e+04 1.12e+04   1.12e+04 1.12e+04  
1.7467e-02 6.92e+03 1.00e+00 6.92e+03 6.92e+03   6.92e+03 6.92e+03   6.92e+03 6.92e+03  
2.3085e-02 3.56e+03 1.00e+00 3.56e+03 3.56e+03   3.56e+03 3.56e+03   3.56e+03 3.56e+03  
3.0509e-02 1.51e+03 1.00e+00 1.51e+03 1.51e+03   1.51e+03 1.51e+03   1.51e+03 1.51e+03  
4.0321e-02 5.42e+02 1.00e+00 5.42e+02 5.42e+02   5.42e+02 5.42e+02   5.42e+02 5.42e+02  
5.3289e-02 1.71e+02 1.00e+00 1.71e+02 1.71e+02   1.71e+02 1.71e+02   1.71e+02 1.71e+02  
7.0428e-02 4.91e+01 1.00e+00 4.91e+01 4.91e+01   4.91e+01 4.91e+01   4.91e+01 4.91e+01  
9.3080e-02 1.33e+01 1.00e+00 1.33e+01 1.33e+01   1.33e+01 1.33e+01   1.33e+01 1.33e+01  
1.2302e-01 3.48e+00 1.00e+00 3.48e+00 3.48e+00   3.48e+00 3.48e+00   3.48e+00 3.48e+00  
1.6258e-01 8.89e-01 1.00e+00 8.89e-01 8.89e-01   8.89e-01 8.89e-01   8.89e-01 8.89e-01  
2.1487e-01 2.24e-01 1.00e+00 2.24e-01 2.24e-01   2.24e-01 2.24e-01   2.24e-01 2.24e-01  
2.8398e-01 5.62e-02 1.00e+00 5.62e-02 5.62e-02   5.62e-02 5.62e-02   5.62e-02 5.62e-02  
3.7531e-01 1.40e-02 1.00e+00 1.40e-02 1.40e-02   1.40e-02 1.40e-02   1.40e-02 1.40e-02  
4.9602e-01 3.49e-03 1.00e+00 3.49e-03 3.49e-03   3.49e-03 3.49e-03   3.49e-03 3.49e-03  
6.5555e-01 8.67e-04 1.00e+00 8.67e-04 8.67e-04   8.67e-04 8.67e-04   8.67e-04 8.67e-04  
8.6638e-01 2.15e-04 1.00e+00 2.15e-04 2.15e-04   2.15e-04 2.15e-04   2.15e-04 2.15e-04  
1.1450e+00 5.34e-05 1.00e+00 5.34e-05 5.34e-05   5.34e-05 5.34e-05   5.34e-05 5.34e-05  
1.5133e+00 1.33e-05 1.00e+00 1.33e-05 1.33e-05   1.33e-05 1.33e-05   1.33e-05 1.33e-05  
2.0000e+00 3.29e-06 1.00e+00 3.29e-06 3.29e-06   3.29e-06 3.29e-06   3.29e-06 3.29e-06  
