# l_crit for RSE = 1e-2
#
# smooth halo: NFW McMillan 2017
# tidal effects: global + disk
# inner clump profile: NFW
# disruption parameter: epsilon = 1
#
# mass decade     l_crit [kpc]
-6 : -5             1e-3
-5 : -4             1e-3
-4 : -3             1e-3
-3 : -2             4.3e-3
-2 : -1             3.2e-2
-1 : 0              3.1e-1
0 : 1               4.4
1 : 2               3.2e1
2 : 3               1.3e2
3 : 4               2.1e2
4 : 5               2.3e2
5 : 6               2.3e2
6 : 7               2.3e2
7 : 8               2.3e2
8 : 9               2.3e2
9 : 10              2.3e2
