# Matter power spectrum P(k) at redshift z=9.75
# for k=1.02819e-05 to 10292.4 h/Mpc,
# number of wavenumbers equal to 152
#    1:k (h/Mpc)              2:P (Mpc/h)^3        
       1.028186309556e-05       5.320957417152e-01 
       1.294409873158e-05       6.698682558191e-01 
       1.629565482596e-05       8.433129870767e-01 
       2.051501396223e-05       1.061665794632e+00 
       2.582687240037e-05       1.336553347577e+00 
       3.251410597199e-05       1.682611596375e+00 
       4.093283424990e-05       2.118263787830e+00 
       5.153138521396e-05       2.666698784249e+00 
       6.487417035081e-05       3.357100401589e+00 
       8.167174162370e-05       4.226190459980e+00 
       1.028186309556e-04       5.320162279090e+00 
       1.294409873158e-04       6.697096630392e+00 
       1.629565482596e-04       8.429967196634e+00 
       2.051501396223e-04       1.061035275337e+01 
       2.582687240037e-04       1.335296925954e+01 
       3.251410597199e-04       1.680109836788e+01 
       4.093283424990e-04       2.113288240968e+01 
       5.153138521396e-04       2.656821731629e+01 
       6.487417035081e-04       3.337550193471e+01 
       8.167174162370e-04       4.187667344652e+01 
       1.028186309556e-03       5.244773002736e+01 
       1.294409873158e-03       6.551064870580e+01 
       1.629565482596e-03       8.151130827870e+01 
       2.051501396223e-03       1.008857727551e+02 
       2.582687240037e-03       1.240114476492e+02 
       3.251410597199e-03       1.511336613757e+02 
       4.093283424990e-03       1.822339050248e+02 
       5.153138521396e-03       2.168361657520e+02 
       6.487417035081e-03       2.538023195167e+02 
       8.167174162370e-03       2.910786436574e+02 
       1.028186309556e-02       3.254432184315e+02 
       1.294409873158e-02       3.523392436840e+02 
       1.629565482590e-02       3.660547657680e+02 
       2.051501365311e-02       3.607905824378e+02 
       2.582667253972e-02       3.335096167549e+02 
       3.248988695204e-02       2.885304235614e+02 
       4.021880175384e-02       2.425387282611e+02 
       4.652144083979e-02       2.158926814054e+02 
       5.113531061808e-02       2.018537171585e+02 
       5.497442673502e-02       1.925142803325e+02 
       5.841854908973e-02       1.851147192045e+02 
       6.163969256634e-02       1.784656430092e+02 
       6.473002904072e-02       1.719668809555e+02 
       6.774531431751e-02       1.653005161087e+02 
       7.072241628960e-02       1.583214977605e+02 
       7.368745547832e-02       1.510044693588e+02 
       7.666000484630e-02       1.434131488120e+02 
       7.965543770801e-02       1.356762377546e+02 
       8.268632566147e-02       1.279649005330e+02 
       8.576331404303e-02       1.204701972391e+02 
       8.889569325250e-02       1.133804479010e+02 
       9.209178448803e-02       1.068598869914e+02 
       9.535920759703e-02       1.010311522327e+02 
       9.870507141333e-02       9.595932783378e+01 
       1.021361115577e-01       9.164687656923e+01 
       1.056587916662e-01       8.802746968892e+01 
       1.092793785549e-01       8.497093153899e+01 
       1.130039984285e-01       8.229346722591e+01 
       1.168386790778e-01       7.977659339115e+01 
       1.207893815985e-01       7.719570862359e+01 
       1.248620242409e-01       7.435804498213e+01 
       1.290625003803e-01       7.114179687837e+01 
       1.333966921901e-01       6.752715265985e+01 
       1.378704813260e-01       6.360599715186e+01 
       1.424897577513e-01       5.956363809586e+01 
       1.472604277150e-01       5.563487324358e+01 
       1.521884218237e-01       5.204690994331e+01 
       1.572797041003e-01       4.896202237033e+01 
       1.625402828938e-01       4.643451715147e+01 
       1.679762244856e-01       4.439748715840e+01 
       1.735936702284e-01       4.267744240273e+01 
       1.793988580407e-01       4.104580204551e+01 
       1.853981490815e-01       3.929286988279e+01 
       1.915980604284e-01       3.727541469421e+01 
       1.980053046017e-01       3.500970992816e+01 
       2.046268368053e-01       3.265742059454e+01 
       2.114699108172e-01       3.043722896335e+01 
       2.185421445592e-01       2.850725346609e+01 
       2.258515965235e-01       2.691754905699e+01 
       2.334068544475e-01       2.560209773878e+01 
       2.412171379337e-01       2.440251904246e+01 
       2.492924171242e-01       2.315054455079e+01 
       2.576435500978e-01       2.177754482454e+01 
       2.662824424022e-01       2.034085721531e+01 
       2.752222331166e-01       1.896948469697e+01 
       2.844775131425e-01       1.777638957896e+01 
       2.940645831437e-01       1.676644329429e+01 
       3.040017608551e-01       1.584579039521e+01 
       3.143097505674e-01       1.491907669393e+01 
       3.250120917842e-01       1.395514289653e+01 
       3.361357098084e-01       1.301195146154e+01 
       3.477115990261e-01       1.215752423977e+01 
       3.597756809812e-01       1.139885434119e+01 
       3.723698955839e-01       1.068292576202e+01 
       3.855436075238e-01       9.967616444445e+00 
       3.993554452615e-01       9.269696024930e+00 
       4.138757435632e-01       8.621895245716e+00 
       4.291898437481e-01       8.021429140719e+00 
       4.454026382203e-01       7.444358674999e+00 
       4.626449623634e-01       6.880921179730e+00 
       4.810828019284e-01       6.346581214822e+00 
       5.009309209595e-01       5.841295395861e+00 
       5.224736704039e-01       5.349094024852e+00 
       5.460979262521e-01       4.874555581650e+00 
       5.723474651910e-01       4.415683791281e+00 
       6.020172733138e-01       3.965230442414e+00 
       6.363269206526e-01       3.522172765504e+00 
       6.772618081761e-01       3.078939758379e+00 
       7.282988925093e-01       2.629184316410e+00 
       7.960727852782e-01       2.162868804527e+00 
       8.942998125020e-01       1.670565728856e+00 
       1.050618116200e+00       1.162338927878e+00 
       1.297349434593e+00       7.168202546258e-01 
       1.631255788595e+00       4.199859228901e-01 
       2.053595908975e+00       2.431011095082e-01 
       2.585323968624e+00       1.395303789404e-01 
       3.254730041774e+00       7.947771061736e-02 
       4.097462358120e+00       4.495961363659e-02 
       5.158399486507e+00       2.527376220931e-02 
       6.494040197750e+00       1.412621706720e-02 
       8.175512230160e+00       7.854184424527e-03 
       1.029236010098e+01       4.345946604003e-03 
       1.295731367846e+01       2.394061828832e-03 
       1.631229145840e+01       1.313453093690e-03 
       2.053595824158e+01       7.178129903030e-04 
       2.585323968587e+01       3.908935453834e-04 
       3.254730041774e+01       2.121453631363e-04 
       4.097462358120e+01       1.147596614237e-04 
       5.158399486507e+01       6.187971071152e-05 
       6.494040197750e+01       3.325727218800e-05 
       8.175512230160e+01       1.781197725890e-05 
       1.029236010098e+02       9.502767196855e-06 
       1.295731367846e+02       5.045883981290e-06 
       1.631229145840e+02       2.663664011337e-06 
       2.053595824158e+02       1.395411759237e-06 
       2.585323968587e+02       7.236845482123e-07 
       3.254730041774e+02       3.705194092585e-07 
       4.097462358120e+02       1.868504090716e-07 
       5.158399486507e+02       9.284307152007e-08 
       6.494040197750e+02       4.570008664256e-08 
       8.175512230160e+02       2.249102568024e-08 
       1.029236010098e+03       1.113116299482e-08 
       1.295731367846e+03       5.540673460194e-09 
       1.631229145840e+03       2.781077571154e-09 
       2.053595824158e+03       1.406600523375e-09 
       2.585323968587e+03       7.168087820587e-10 
       3.254730041774e+03       3.675865356244e-10 
       4.097462358120e+03       1.894528073898e-10 
       5.158399486507e+03       9.800569240834e-11 
       6.494040197750e+03       5.083081640984e-11 
       8.175512230160e+03       2.640593285629e-11 
       1.029236010098e+04       1.372649112935e-11 
       1.295731367846e+04       7.240838621628e-12 
       1.631229145839e+04       3.814727033108e-12 
       2.053595824156e+04       2.007291030125e-12 
       2.585323968584e+04       1.055005167453e-12 
       3.254730041770e+04       5.538849133203e-13 
       4.097462358113e+04       2.904871614443e-13 
       5.158399486497e+04       1.521938525174e-13 
       6.494040197736e+04       7.966159920584e-14 
       8.175512230141e+04       4.165819460179e-14 
       1.029236010096e+05       2.176546972919e-14 
       1.295731367843e+05       1.136233171053e-14 
       1.631229145836e+05       5.926706345572e-15 
       2.053595824151e+05       3.089012911552e-15 
       2.585323968578e+05       1.608790344206e-15 
       3.254730041762e+05       8.372687831786e-16 
       4.097462358103e+05       4.354393698765e-16 
       5.158399486485e+05       2.263074354615e-16 
       6.494040197721e+05       1.175408138679e-16 
       8.175512230122e+05       6.101086187990e-17 
       1.029236010093e+06       3.164926074746e-17 
       1.295731367840e+06       1.640842123198e-17 
       1.631229145832e+06       8.502081586290e-18 
       2.053595824146e+06       4.402982916336e-18 
       2.585323968572e+06       2.278975315419e-18 
       3.254730041755e+06       1.178990744017e-18 
       4.097462358094e+06       6.096298847424e-19 
       5.158399486473e+06       3.150748843230e-19 
       6.494040197705e+06       1.627643590511e-19 
       8.175512230102e+06       8.404441385476e-20 
       1.029236010091e+07       4.337786418420e-20 
       1.295731367837e+07       2.237910718601e-20 
       1.631229145828e+07       1.154085275527e-20 
       2.053595824142e+07       5.949201044481e-21 
       2.585323968566e+07       3.065560081094e-21 
       3.254730041747e+07       1.579050795838e-21 
       4.097462358084e+07       8.130587060427e-22 
       5.158399486461e+07       4.184961991023e-22 
       6.494040197690e+07       2.153322347555e-22 
       8.175512230083e+07       1.107588505264e-22 
       1.029236010088e+08       5.695128003944e-23 
       1.295731367834e+08       2.927438957263e-23 
       1.631229145824e+08       1.504301985253e-23 
       2.053595824137e+08       7.727667295992e-24 
       2.585323968559e+08       3.968544641236e-24 
       3.254730041739e+08       2.037448938642e-24 
       4.097462358074e+08       1.045725833778e-24 
       5.158399486449e+08       5.365713797997e-25 
       6.494040197675e+08       2.752444409815e-25 
       8.175512230064e+08       1.411541718950e-25 
       1.029236010086e+09       7.236950831322e-26 
       1.295731367830e+09       3.709426839186e-26 
       1.631229145820e+09       1.900858287807e-26 
       2.053595824132e+09       9.738381670875e-27 
       2.585323968553e+09       4.987928995845e-27 
       3.254730041732e+09       2.554185172430e-27 
       4.097462358065e+09       1.307631267949e-27 
       5.158399486437e+09       6.693004264156e-28 
       6.494040197660e+09       3.425009777290e-28 
       8.175512230045e+09       1.752303779606e-28 
       1.029236010083e+10       8.963254900559e-29 
       1.295731367827e+10       4.583874364373e-29 
       1.631229145816e+10       2.343754183191e-29 
       2.053595824127e+10       1.198134416913e-29 
       2.585323968547e+10       6.123713144924e-30 
       3.254730041724e+10       3.129259497203e-30 
       4.097462358055e+10       1.598775008555e-30 
       5.158399486425e+10       8.166833389501e-31 
       6.494040197644e+10       4.171018449983e-31 
       8.175512230025e+10       2.129874687232e-31 
       1.029236010081e+11       1.087404021166e-31 
       1.295731367824e+11       5.550781532825e-32 
       1.631229145813e+11       2.832989671405e-32 
       2.053595824122e+11       1.445655479077e-32 
       2.585323968541e+11       7.375897088476e-33 
       3.254730041716e+11       3.762671912963e-33 
       4.097462358046e+11       1.919157055599e-33 
       5.158399486412e+11       9.787201174037e-34 
       6.494040197629e+11       4.990470427895e-34 
       8.175512230006e+11       2.544254441829e-34 
       1.029236010079e+12       1.296930676462e-34 
