# Matter power spectrum P(k) at redshift z=3.5
# for k=1.03822e-05 to 10392.9 h/Mpc,
# number of wavenumbers equal to 152
#    1:k (h/Mpc)              2:P (Mpc/h)^3        
       1.038219230196e-05       4.168935377681e+00 
       1.307040571907e-05       5.200255058456e+00 
       1.645466590220e-05       6.486700199915e+00 
       2.071519704687e-05       8.091378684425e+00 
       2.607888797262e-05       1.009300449572e+01 
       3.283137478007e-05       1.258975289426e+01 
       4.133225201477e-05       1.570406322897e+01 
       5.203422238807e-05       1.958862004937e+01 
       6.550720484729e-05       2.443379125315e+01 
       8.246868483786e-05       3.047686504815e+01 
       1.038219230196e-04       3.801348750923e+01 
       1.307040571907e-04       4.741176656694e+01 
       1.645466590220e-04       5.912954320516e+01 
       2.071519704687e-04       7.373530931449e+01 
       2.607888797262e-04       9.193308889879e+01 
       3.283137478007e-04       1.145911641339e+02 
       4.133225201477e-04       1.427735898249e+02 
       5.203422238807e-04       1.777716992917e+02 
       6.550720484729e-04       2.211300373475e+02 
       8.246868483786e-04       2.746576891351e+02 
       1.038219230196e-03       3.404135467469e+02 
       1.307040571907e-03       4.206550553415e+02 
       1.645466590220e-03       5.177268322565e+02 
       2.071519704687e-03       6.339033571516e+02 
       2.607888797262e-03       7.709997411261e+02 
       3.283137478007e-03       9.298007477103e+02 
       4.133225201477e-03       1.109336617624e+03 
       5.203422238807e-03       1.305611355228e+03 
       6.550720484729e-03       1.511429954122e+03 
       8.246868483786e-03       1.713764128963e+03 
       1.038219230196e-02       1.893340812254e+03 
       1.307040571907e-02       2.023699519645e+03 
       1.645466590218e-02       2.072678600105e+03 
       2.071519688507e-02       2.008871278955e+03 
       2.607876417226e-02       1.818106950674e+03 
       3.281416722823e-02       1.529648305365e+03 
       4.075744376176e-02       1.242018550916e+03 
       4.746658777003e-02       1.077423461681e+03 
       5.233009061300e-02       9.966538088774e+02 
       5.633876997938e-02       9.463318507248e+02 
       5.991701375256e-02       9.083541841009e+02 
       6.325382191649e-02       8.751766770222e+02 
       6.644915140549e-02       8.429985433489e+02 
       6.956290348649e-02       8.097983208686e+02 
       7.263440849079e-02       7.746075283915e+02 
       7.569137574516e-02       7.371880728556e+02 
       7.875447272837e-02       6.978508163040e+02 
       8.183986863846e-02       6.573148577459e+02 
       8.496074110659e-02       6.165739217384e+02 
       8.812821588611e-02       5.767625368589e+02 
       9.135197802118e-02       5.390171654884e+02 
       9.464068332738e-02       5.043474234222e+02 
       9.800224345987e-02       4.735320183555e+02 
       1.014440281024e-01       4.470325400583e+02 
       1.049730111281e-01       4.249461584580e+02 
       1.085958778455e-01       4.069895953820e+02 
       1.123191045667e-01       3.925050071724e+02 
       1.161490180798e-01       3.805061289957e+02 
       1.200918402850e-01       3.697676125410e+02 
       1.241537217471e-01       3.589656603531e+02 
       1.283407669205e-01       3.468829767236e+02 
       1.326590531502e-01       3.326498306649e+02 
       1.371146451078e-01       3.159533214705e+02 
       1.417136060343e-01       2.971409969508e+02 
       1.464620069664e-01       2.771641538240e+02 
       1.513659349991e-01       2.573485512674e+02 
       1.564315015614e-01       2.390745035289e+02 
       1.616648516253e-01       2.234199709020e+02 
       1.670721747463e-01       2.108898318241e+02 
       1.726597188044e-01       2.013077476993e+02 
       1.784338073098e-01       1.938307309346e+02 
       1.844008611238e-01       1.872368971951e+02 
       1.905674254422e-01       1.801650083808e+02 
       1.969402028920e-01       1.715750998622e+02 
       2.035260936059e-01       1.613045761224e+02 
       2.103322431697e-01       1.501058499604e+02 
       2.173660993969e-01       1.391998243627e+02 
       2.246354789811e-01       1.296569814838e+02 
       2.321486452227e-01       1.220222554405e+02 
       2.399143982438e-01       1.161348646655e+02 
       2.479421794051e-01       1.111484806454e+02 
       2.562421920582e-01       1.060042571117e+02 
       2.648255413223e-01       1.000804885875e+02 
       2.737043963274e-01       9.348574812321e+01 
       2.828921793508e-01       8.694448900695e+01 
       2.924037875840e-01       8.126251176346e+01 
       3.022558549994e-01       7.666262708847e+01 
       3.124670640937e-01       7.272765209487e+01 
       3.230585203843e-01       6.881918329768e+01 
       3.340542067337e-01       6.457551193429e+01 
       3.454815403454e-01       6.024007848136e+01 
       3.573720632874e-01       5.627319504167e+01 
       3.697623087076e-01       5.287935935752e+01 
       3.826949011147e-01       4.979005533320e+01 
       3.962199727176e-01       4.667816301284e+01 
       4.103970129069e-01       4.353511636990e+01 
       4.252973211223e-01       4.059746081869e+01 
       4.410073157209e-01       3.794065649618e+01 
       4.576330822164e-01       3.542039881315e+01 
       4.753067575460e-01       3.291502348502e+01 
       4.941957055755e-01       3.051905731495e+01 
       5.145160626260e-01       2.828795784385e+01 
       5.365533585280e-01       2.610981244336e+01 
       5.606950447507e-01       2.399191600714e+01 
       5.874839753840e-01       2.195766616689e+01 
       6.177107211601e-01       1.995196720056e+01 
       6.525823218278e-01       1.797807720612e+01 
       6.940522612693e-01       1.599794286954e+01 
       7.455171781678e-01       1.398362401470e+01 
       8.134065949556e-01       1.188394309211e+01 
       9.109395868563e-01       9.644625792011e+00 
       1.065113380274e+00       7.273015443160e+00 
       1.310628484582e+00       5.067025495396e+00 
       1.647201751434e+00       3.469649914343e+00 
       2.073650984165e+00       2.420682197002e+00 
       2.610571719889e+00       1.722185969186e+00 
       3.286515077374e+00       1.244002780913e+00 
       4.137477347151e+00       9.067135982501e-01 
       5.208775373051e+00       6.620675713879e-01 
       6.557459681462e+00       4.806872789583e-01 
       8.255352629808e+00       3.445496430761e-01 
       1.039287320899e+01       2.423138398496e-01 
       1.308385218435e+01       1.664216745182e-01 
       1.647159399903e+01       1.113182601037e-01 
       2.073650825814e+01       7.246765735428e-02 
       2.610571719805e+01       4.595514759962e-02 
       3.286515077374e+01       2.844335796432e-02 
       4.137477347151e+01       1.723068374154e-02 
       5.208775373051e+01       1.025295152454e-02 
       6.557459681462e+01       6.015144702859e-03 
       8.255352629808e+01       3.490884928473e-03 
       1.039287320899e+02       2.009534116882e-03 
       1.308385218435e+02       1.149872737742e-03 
       1.647159399903e+02       6.550927731326e-04 
       2.073650825814e+02       3.720315600724e-04 
       2.610571719805e+02       2.107981610685e-04 
       3.286515077374e+02       1.192462476452e-04 
       4.137477347151e+02       6.737770097470e-05 
       5.208775373051e+02       3.803879470105e-05 
       6.557459681462e+02       2.146250936704e-05 
       8.255352629808e+02       1.210463516975e-05 
       1.039287320899e+03       6.824852224589e-06 
       1.308385218435e+03       3.847182173250e-06 
       1.647159399903e+03       2.168337730115e-06 
       2.073650825814e+03       1.221981847042e-06 
       2.610571719805e+03       6.886042580373e-07 
       3.286515077374e+03       3.880175177458e-07 
       4.137477347151e+03       2.186333566148e-07 
       5.208775373051e+03       1.231883906910e-07 
       6.557459681462e+03       6.940884574957e-08 
       8.255352629808e+03       3.910695156174e-08 
       1.039287320899e+04       2.203377554818e-08 
