# Matter power spectrum P(k) at redshift z=1.5
# for k=1.03902e-05 to 10400.9 h/Mpc,
# number of wavenumbers equal to 152
#    1:k (h/Mpc)              2:P (Mpc/h)^3        
       1.039020730028e-05       1.206898258309e+01 
       1.308049600413e-05       1.508238508087e+01 
       1.646736881847e-05       1.884816703066e+01 
       2.073118907096e-05       2.355415957590e+01 
       2.609902073814e-05       2.943508118014e+01 
       3.285672043019e-05       3.678421183484e+01 
       4.136416029779e-05       4.596798621108e+01 
       5.207439253641e-05       5.744417654953e+01 
       6.555777606783e-05       7.178455280141e+01 
       8.253235023250e-05       8.970305316723e+01 
       1.039020730028e-04       1.120907012958e+02 
       1.308049600413e-04       1.400586807546e+02 
       1.646736881847e-04       1.749910726388e+02 
       2.073118907096e-04       2.186086376033e+02 
       2.609902073814e-04       2.730444711122e+02 
       3.285672043019e-04       3.409309575466e+02 
       4.136416029779e-04       4.254946770113e+02 
       5.207439253641e-04       5.306513165274e+02 
       6.555777606783e-04       6.610865686372e+02 
       8.253235023250e-04       8.223036037845e+02 
       1.039020730028e-03       1.020614591872e+03 
       1.308049600413e-03       1.263039902625e+03 
       1.646736881847e-03       1.556973206909e+03 
       2.073118907096e-03       1.909599242102e+03 
       2.609902073814e-03       2.326685552851e+03 
       3.285672043019e-03       2.810996330145e+03 
       4.136416029779e-03       3.359989105673e+03 
       5.207439253641e-03       3.959210772458e+03 
       6.555777606783e-03       4.591270646784e+03 
       8.253235023250e-03       5.214862800318e+03 
       1.039020730028e-02       5.770602232676e+03 
       1.308049600413e-02       6.177395073692e+03 
       1.646736881845e-02       6.335526870977e+03 
       2.073118891276e-02       6.147264440670e+03 
       2.609889896706e-02       5.567812690799e+03 
       3.283971297933e-02       4.686522657737e+03 
       4.079356262944e-02       3.806315128487e+03 
       4.752015166632e-02       3.302738614321e+03 
       5.239481028097e-02       3.056271365488e+03 
       5.641131911577e-02       2.903009087255e+03 
       5.999590757796e-02       2.787397101029e+03 
       6.333828390374e-02       2.686502106422e+03 
       6.653873314774e-02       2.588588495569e+03 
       6.965733331224e-02       2.487571916974e+03 
       7.273352095174e-02       2.380530972714e+03 
       7.579507475039e-02       2.266761496111e+03 
       7.886271054522e-02       2.147232953274e+03 
       8.195263312834e-02       2.024118838310e+03 
       8.507804756739e-02       1.900423280410e+03 
       8.825010163054e-02       1.779660319809e+03 
       9.147849866152e-02       1.665152907906e+03 
       9.477191016850e-02       1.559955169391e+03 
       9.813826163670e-02       1.466437915573e+03 
       1.015849352320e-01       1.385949931843e+03 
       1.051189163259e-01       1.318751816951e+03 
       1.087469010046e-01       1.264003627630e+03 
       1.124753758293e-01       1.219679567247e+03 
       1.163106774523e-01       1.182837875353e+03 
       1.202590373600e-01       1.149803739595e+03 
       1.243266155048e-01       1.116638117287e+03 
       1.285195255917e-01       1.079731412289e+03 
       1.328438541235e-01       1.036539824643e+03 
       1.373056748713e-01       9.861396926872e+02 
       1.419110601419e-01       9.295659502614e+02 
       1.466660900219e-01       8.696030791378e+02 
       1.515768606555e-01       8.101538017638e+02 
       1.566494925298e-01       7.552504435920e+02 
       1.618901396942e-01       7.080476072326e+02 
       1.673050008094e-01       6.700362667985e+02 
       1.729003328998e-01       6.407003351915e+02 
       1.786824686726e-01       6.175599218657e+02 
       1.846578382555e-01       5.970813599815e+02 
       1.908329962029e-01       5.753467797889e+02 
       1.972146546215e-01       5.493141701996e+02 
       2.038097232820e-01       5.185111716578e+02 
       2.106253576112e-01       4.851009179013e+02 
       2.176690155230e-01       4.525498580978e+02 
       2.249485241370e-01       4.239112161717e+02 
       2.324721575858e-01       4.007660836226e+02 
       2.402487273220e-01       3.826727640401e+02 
       2.482876866447e-01       3.672226113904e+02 
       2.565992515763e-01       3.514335716476e+02 
       2.651945407848e-01       3.335301591066e+02 
       2.740857379920e-01       3.137922821822e+02 
       2.832862813012e-01       2.942229283830e+02 
       2.928110851822e-01       2.770820108980e+02 
       3.026768025905e-01       2.630068566491e+02 
       3.129021370022e-01       2.508578717750e+02 
       3.235082172493e-01       2.388599262894e+02 
       3.345190522418e-01       2.259939490950e+02 
       3.459620884306e-01       2.129049484093e+02 
       3.578689008861e-01       2.008460249965e+02 
       3.702760601777e-01       1.903988134396e+02 
       3.832262334513e-01       1.808318681505e+02 
       3.967696017356e-01       1.712585627076e+02 
       4.109657105973e-01       1.616243092167e+02 
       4.258859244430e-01       1.525626557717e+02 
       4.416167371343e-01       1.442843787872e+02 
       4.582643223479e-01       1.364023923226e+02 
       4.759609203735e-01       1.285800602743e+02 
       4.948740165338e-01       1.210561050822e+02 
       5.152198897967e-01       1.139756826807e+02 
       5.372842363932e-01       1.070392732959e+02 
       5.614546980844e-01       1.002472134336e+02 
       5.882743358543e-01       9.365354158685e+01 
       6.185339160756e-01       8.709348322093e+01 
       6.534405790436e-01       8.055045097568e+01 
       6.949475751758e-01       7.388750159197e+01 
       7.464502966034e-01       6.697008708140e+01 
       8.143741099258e-01       5.956410713033e+01 
       9.119268599882e-01       5.135079270468e+01 
       1.066093864103e+00       4.209675371695e+01 
       1.311666547981e+00       3.258603244169e+01 
       1.648476358058e+00       2.466374748830e+01 
       2.075254743611e+00       1.855954977523e+01 
       2.612590728999e+00       1.380820560397e+01 
       3.289056859246e+00       1.009161661904e+01 
       4.140677260941e+00       7.207770540003e+00 
       5.212803825837e+00       5.012138669721e+00 
       6.562531203044e+00       3.385386788778e+00 
       8.261737297205e+00       2.219880437315e+00 
       1.040091102902e+01       1.415599690692e+00 
       1.309397120024e+01       8.809839652949e-01 
       1.648433308529e+01       5.373034701762e-01 
       2.075254581754e+01       3.224395587334e-01 
       2.612590728913e+01       1.910775078723e-01 
       3.289056859246e+01       1.121513614419e-01 
       4.140677260941e+01       6.535456816200e-02 
       5.212803825837e+01       3.788206925271e-02 
       6.562531203044e+01       2.187221804968e-02 
       8.261737297205e+01       1.259252590466e-02 
       1.040091102902e+02       7.234909401411e-03 
       1.309397120024e+02       4.150515820276e-03 
       1.648433308529e+02       2.378486711290e-03 
       2.075254581754e+02       1.361947212725e-03 
       2.612590728913e+02       7.794272485991e-04 
       3.289056859246e+02       4.458770510086e-04 
       4.140677260941e+02       2.549929763565e-04 
       5.212803825837e+02       1.457976079681e-04 
       6.562531203044e+02       8.335030974721e-05 
       8.261737297205e+02       4.764496977007e-05 
       1.040091102902e+03       2.723285201878e-05 
       1.309397120024e+03       1.556484959523e-05 
       1.648433308529e+03       8.895682829997e-06 
       2.075254581754e+03       5.083948211457e-06 
       2.612590728913e+03       2.905453561822e-06 
       3.289056859246e+03       1.660428908651e-06 
       4.140677260941e+03       9.489033540660e-07 
       5.212803825837e+03       5.422759382821e-07 
       6.562531203044e+03       3.098962241821e-07 
       8.261737297205e+03       1.770967162619e-07 
       1.040091102902e+04       1.012053547585e-07 
