# Matter power spectrum P(k) at redshift z=0.5
# for k=9.89163e-06 to 6247.64 h/Mpc,
# number of wavenumbers equal to 150
#    1:k (h/Mpc)              2:P (Mpc/h)^3        
       9.891634807387e-06       3.432202260929e+01 
       1.245283042321e-05       4.288866248564e+01 
       1.567718466854e-05       5.359340652318e+01 
       1.973640616461e-05       6.696990063952e+01 
       2.484666325812e-05       8.368485258686e+01 
       3.128009577394e-05       1.045712802618e+02 
       3.937930745317e-05       1.306698540718e+02 
       4.957561085165e-05       1.632804893498e+02 
       6.241199630637e-05       2.040265475381e+02 
       7.857204815089e-05       2.549346101774e+02 
       9.891634807387e-05       3.185331855763e+02 
       1.245283042321e-04       3.979742187718e+02 
       1.567718466854e-04       4.971813505870e+02 
       1.973640616461e-04       6.210282961570e+02 
       2.484666325812e-04       7.755488160028e+02 
       3.128009577394e-04       9.681754735590e+02 
       3.937930745317e-04       1.207996756617e+03 
       4.957561085165e-04       1.506011222727e+03 
       6.241199630637e-04       1.875345485889e+03 
       7.857204815089e-04       2.331391710142e+03 
       9.891634807387e-04       2.891789185871e+03 
       1.245283042321e-03       3.576060588418e+03 
       1.567718466854e-03       4.404437036937e+03 
       1.973640616461e-03       5.396122367591e+03 
       2.484666325812e-03       6.565860060166e+03 
       3.128009577394e-03       7.919268181726e+03 
       3.937930745317e-03       9.446309389780e+03 
       4.957561085165e-03       1.111272281674e+04 
       6.241199630637e-03       1.284990288069e+04 
       7.857204815089e-03       1.454531338172e+04 
       9.891634807387e-03       1.602913324707e+04 
       1.245283042321e-02       1.707251862873e+04 
       1.567718466851e-02       1.739853715878e+04 
       1.973640601675e-02       1.674197255236e+04 
       2.484654890827e-02       1.499702611401e+04 
       3.126406360419e-02       1.244333389289e+04 
       3.883957754466e-02       9.955204545057e+03 
       4.525264445976e-02       8.565715983995e+03 
       4.989898304376e-02       7.903071470563e+03 
       5.372633424479e-02       7.500718904173e+03 
       5.714161983679e-02       7.202075811058e+03 
       6.032587004935e-02       6.942083482239e+03 
       6.337474739320e-02       6.688366445598e+03 
       6.634554560003e-02       6.423793638541e+03 
       6.927586615102e-02       6.140193791857e+03 
       7.219219098704e-02       5.835373880428e+03 
       7.511426635807e-02       5.512834148417e+03 
       7.805753691501e-02       5.178579181282e+03 
       8.103458711019e-02       4.841526205939e+03 
       8.405603991863e-02       4.511911863695e+03 
       8.713114123645e-02       4.199792350990e+03 
       9.026815326863e-02       3.913954922012e+03 
       9.347462702282e-02       3.660965241523e+03 
       9.675759555691e-02       3.445208011396e+03 
       1.001237136626e-01       3.267335792664e+03 
       1.035793603517e-01       3.124996437428e+03 
       1.071307148883e-01       3.012702067030e+03 
       1.107838136173e-01       2.921844822773e+03 
       1.145445926149e-01       2.842089029946e+03 
       1.184189197486e-01       2.761901297103e+03 
       1.224126187800e-01       2.670568740582e+03 
       1.265314875205e-01       2.560608247377e+03 
       1.307813116235e-01       2.428979101931e+03 
       1.351678753237e-01       2.278556344385e+03 
       1.396969702463e-01       2.117298082140e+03 
       1.443744032931e-01       1.956777857978e+03 
       1.492060045337e-01       1.808799142279e+03 
       1.541976359841e-01       1.682705471930e+03 
       1.593552021264e-01       1.583033825076e+03 
       1.646846630014e-01       1.508487821335e+03 
       1.701920506962e-01       1.452063500980e+03 
       1.758834900398e-01       1.403527442346e+03 
       1.817652243142e-01       1.351084794688e+03 
       1.878436467939e-01       1.285693189248e+03 
       1.941253389359e-01       1.205649685042e+03 
       2.006171160764e-01       1.117148699772e+03 
       2.073260815433e-01       1.030369030364e+03 
       2.142596901851e-01       9.545901080902e+02 
       2.214258224589e-01       8.947145054175e+02 
       2.288328704226e-01       8.497178586621e+02 
       2.364898372663e-01       8.125542062112e+02 
       2.444064524133e-01       7.742456448789e+02 
       2.525933047558e-01       7.292646694961e+02 
       2.610619973009e-01       6.781984170282e+02 
       2.698253274465e-01       6.271043075794e+02 
       2.788974983507e-01       5.829050867901e+02 
       2.882943685106e-01       5.476852833215e+02 
       2.980337488627e-01       5.182051445078e+02 
       3.081357596698e-01       4.890415484075e+02 
       3.186232634580e-01       4.569461272416e+02 
       3.295223957585e-01       4.237722340803e+02 
       3.408632230413e-01       3.934126921514e+02 
       3.526805679938e-01       3.677936437522e+02 
       3.650150577246e-01       3.447759429916e+02 
       3.779144729646e-01       3.215765140183e+02 
       3.914355097285e-01       2.979418004689e+02 
       4.056461155005e-01       2.758573398548e+02 
       4.206286403836e-01       2.560843401416e+02 
       4.364841680643e-01       2.374710205350e+02 
       4.533385943359e-01       2.189193643226e+02 
       4.713513619559e-01       2.011799467403e+02 
       4.907283535815e-01       1.848082906032e+02 
       5.117415157137e-01       1.688836845739e+02 
       5.347598073052e-01       1.534269225397e+02 
       5.603000709707e-01       1.386921923648e+02 
       5.891148162343e-01       1.242298593298e+02 
       6.223526334482e-01       1.100941264281e+02 
       6.618717363415e-01       9.602592790793e+01 
       7.109016794601e-01       8.185318268091e+01 
       7.755526500522e-01       6.726874847627e+01 
       8.683825896207e-01       5.199665793705e+01 
       1.015057210819e+00       3.627580040456e+01 
       1.248746443838e+00       2.232043982283e+01 
       1.569376804244e+00       1.294363489065e+01 
       1.975676261241e+00       7.409890870527e+00 
       2.487228853582e+00       4.207735708637e+00 
       3.131235608617e+00       2.372064259995e+00 
       3.941992078003e+00       1.328343482217e+00 
       4.962674000089e+00       7.394146232488e-01 
       6.247636409162e+00       4.092946405198e-01 
       7.865308239144e+00       2.254266866813e-01 
       9.901836413853e+00       1.235784234107e-01 
       1.246567348483e+01       6.745131981906e-02 
       1.569335312518e+01       3.666823820900e-02 
       1.975676104555e+01       1.985862158448e-02 
       2.487228853498e+01       1.071565997466e-02 
       3.131235608617e+01       5.762096589898e-03 
       3.941992078003e+01       3.087531261662e-03 
       4.962674000089e+01       1.648262319812e-03 
       6.247636409162e+01       8.763698206439e-04 
       7.865308239144e+01       4.637393941490e-04 
       9.901836413853e+01       2.439358329750e-04 
       1.246567348483e+02       1.273079476267e-04 
       1.569335312518e+02       6.572741004978e-05 
       1.975676104555e+02       3.342815574271e-05 
       2.487228853498e+02       1.665370810302e-05 
       3.131235608617e+02       8.073954174217e-06 
       3.941992078003e+02       3.789204664199e-06 
       4.962674000089e+02       1.721769403126e-06 
       6.247636409162e+02       7.667371895876e-07 
       7.865308239144e+02       3.437633075451e-07 
       9.901836413853e+02       1.605731333115e-07 
       1.246567348483e+03       7.907879676066e-08 
       1.569335312518e+03       3.951914225263e-08 
       1.975676104555e+03       1.902372253036e-08 
       2.487228853498e+03       9.458174267828e-09 
       3.131235608617e+03       4.905222669054e-09 
       3.941992078003e+03       2.456632722250e-09 
       4.962674000089e+03       1.255366947076e-09 
       6.247636409162e+03       6.490630107642e-10 
