# Matter power spectrum P(k) at redshift z=0
# for k=1.03902e-05 to 10400.9 h/Mpc,
# number of wavenumbers equal to 152
#    1:k (h/Mpc)              2:P (Mpc/h)^3        
       1.039020730028e-05       4.874662068677e+01 
       1.308049600413e-05       6.091772646414e+01 
       1.646736881847e-05       7.612770770519e+01 
       2.073118907096e-05       9.513514068925e+01 
       2.609902073814e-05       1.188880412505e+02 
       3.285672043019e-05       1.485709098417e+02 
       4.136416029779e-05       1.856636122735e+02 
       5.207439253641e-05       2.320148286978e+02 
       6.555777606783e-05       2.899333848516e+02 
       8.253235023250e-05       3.623018125718e+02 
       1.039020730028e-04       4.527168558497e+02 
       1.308049600413e-04       5.656625013700e+02 
       1.646736881847e-04       7.067211982706e+02 
       2.073118907096e-04       8.828282666951e+02 
       2.609902073814e-04       1.102572044211e+03 
       3.285672043019e-04       1.376537029899e+03 
       4.136416029779e-04       1.717678118637e+03 
       5.207439253641e-04       2.141701811613e+03 
       6.555777606783e-04       2.667416392619e+03 
       8.253235023250e-04       3.316990929669e+03 
       1.039020730028e-03       4.115989126878e+03 
       1.308049600413e-03       5.092879063683e+03 
       1.646736881847e-03       6.277474932585e+03 
       2.073118907096e-03       7.698688863221e+03 
       2.609902073814e-03       9.379795083407e+03 
       3.285672043019e-03       1.133192064275e+04 
       4.136416029779e-03       1.354481961039e+04 
       5.207439253641e-03       1.597439805398e+04 
       6.555777606783e-03       1.852818123592e+04 
       8.253235023250e-03       2.105072506176e+04 
       1.039020730028e-02       2.330228721306e+04 
       1.308049600413e-02       2.495548344385e+04 
       1.646736881845e-02       2.560744134981e+04 
       2.073118891276e-02       2.486128889370e+04 
       2.609889896706e-02       2.253051378899e+04 
       3.283971297933e-02       1.897130616032e+04 
       4.079356262944e-02       1.540482124776e+04 
       4.752015166632e-02       1.335989387875e+04 
       5.239481028097e-02       1.235860893320e+04 
       5.641131911577e-02       1.173659133855e+04 
       5.999590757796e-02       1.126759313298e+04 
       6.333828390374e-02       1.085837596555e+04 
       6.653873314774e-02       1.046072112155e+04 
       6.965733331224e-02       1.004937775710e+04 
       7.273352095174e-02       9.613196650675e+03 
       7.579507475039e-02       9.148039550787e+03 
       7.886271054522e-02       8.658462643412e+03 
       8.195263312834e-02       8.153283197508e+03 
       8.507804756739e-02       7.645225448352e+03 
       8.825010163054e-02       7.148153160576e+03 
       9.147849866152e-02       6.676227186602e+03 
       9.477191016850e-02       6.242585824464e+03 
       9.813826163670e-02       5.856878345739e+03 
       1.015849352320e-01       5.525001194117e+03 
       1.051189163259e-01       5.248148732982e+03 
       1.087469010046e-01       5.023125738173e+03 
       1.124753758293e-01       4.841516250485e+03 
       1.163106774523e-01       4.691327682867e+03 
       1.202590373600e-01       4.557245167733e+03 
       1.243266155048e-01       4.422633153885e+03 
       1.285195255917e-01       4.271971511387e+03 
       1.328438541235e-01       4.094872870629e+03 
       1.373056748713e-01       3.886987905949e+03 
       1.419110601419e-01       3.652577322778e+03 
       1.466660900219e-01       3.403268963488e+03 
       1.515768606555e-01       3.155698445784e+03 
       1.566494925298e-01       2.926959478187e+03 
       1.618901396942e-01       2.730642574582e+03 
       1.673050008094e-01       2.573242494748e+03 
       1.729003328998e-01       2.452802421762e+03 
       1.786824686726e-01       2.358752418213e+03 
       1.846578382555e-01       2.276216128809e+03 
       1.908329962029e-01       2.188042946639e+03 
       1.972146546215e-01       2.081344881823e+03 
       2.038097232820e-01       1.953625514976e+03 
       2.106253576112e-01       1.814276324761e+03 
       2.176690155230e-01       1.678293258563e+03 
       2.249485241370e-01       1.558948434431e+03 
       2.324721575858e-01       1.463377804685e+03 
       2.402487273220e-01       1.389636337954e+03 
       2.482876866447e-01       1.327442729445e+03 
       2.565992515763e-01       1.263577933432e+03 
       2.651945407848e-01       1.190221457464e+03 
       2.740857379920e-01       1.108486550506e+03 
       2.832862813012e-01       1.027299873782e+03 
       2.928110851822e-01       9.565918321665e+02 
       3.026768025905e-01       8.993992919327e+02 
       3.129021370022e-01       8.506302003708e+02 
       3.235082172493e-01       8.023847226393e+02 
       3.345190522418e-01       7.501092868670e+02 
       3.459620884306e-01       6.966303805812e+02 
       3.578689008861e-01       6.476358739675e+02 
       3.702760601777e-01       6.057792246940e+02 
       3.832262334513e-01       5.678495268268e+02 
       3.967696017356e-01       5.297459825120e+02 
       4.109657105973e-01       4.912776990744e+02 
       4.258859244430e-01       4.553052671170e+02 
       4.416167371343e-01       4.228841982188e+02 
       4.582643223479e-01       3.922425146574e+02 
       4.759609203735e-01       3.618442510316e+02 
       4.948740165338e-01       3.328071656124e+02 
       5.152198897967e-01       3.058659371259e+02 
       5.372842363932e-01       2.796690288085e+02 
       5.614546980844e-01       2.542584066285e+02 
       5.882743358543e-01       2.299716312961e+02 
       6.185339160756e-01       2.061357556515e+02 
       6.534405790436e-01       1.828118731669e+02 
       6.949475751758e-01       1.595720989508e+02 
       7.464502966034e-01       1.361344547187e+02 
       8.143741099258e-01       1.119862805170e+02 
       9.119268599882e-01       8.666029470702e+01 
       1.066093864103e+00       6.054130785295e+01 
       1.311666547981e+00       3.732057767127e+01 
       1.648476358058e+00       2.168548206314e+01 
       2.075254743611e+00       1.243753265117e+01 
       2.612590728999e+00       7.074620836495e+00 
       3.289056859246e+00       3.994197526416e+00 
       4.140677260941e+00       2.239935487252e+00 
       5.212803825837e+00       1.248435656257e+00 
       6.562531203044e+00       6.918785253434e-01 
       8.261737297205e+00       3.814667124197e-01 
       1.040091102902e+01       2.093284068558e-01 
       1.309397120024e+01       1.143614051369e-01 
       1.648433308529e+01       6.222227922502e-02 
       2.075254581754e+01       3.372428278857e-02 
       2.612590728913e+01       1.821172239732e-02 
       3.289056859246e+01       9.799357964916e-03 
       4.140677260941e+01       5.254176629907e-03 
       5.212803825837e+01       2.806656108920e-03 
       6.562531203044e+01       1.493107404265e-03 
       8.261737297205e+01       7.905218537584e-04 
       1.040091102902e+02       4.160325212291e-04 
       1.309397120024e+02       2.172236573075e-04 
       1.648433308529e+02       1.121996215891e-04 
       2.075254581754e+02       5.709013119291e-05 
       2.612590728913e+02       2.845929657431e-05 
       3.289056859246e+02       1.381112951873e-05 
       4.140677260941e+02       6.493905076281e-06 
       5.212803825837e+02       2.962157824412e-06 
       6.562531203044e+02       1.329095364511e-06 
       8.261737297205e+02       6.035178369671e-07 
       1.040091102902e+03       2.857408315474e-07 
       1.309397120024e+03       1.403870592750e-07 
       1.648433308529e+03       6.835517286839e-08 
       2.075254581754e+03       3.293457983703e-08 
       2.612590728913e+03       1.688995962263e-08 
       3.289056859246e+03       8.404417748254e-09 
       4.140677260941e+03       4.360117600432e-09 
       5.212803825837e+03       2.228164606379e-09 
       6.562531203044e+03       1.147013990654e-09 
       8.261737297205e+03       5.884084713329e-10 
       1.040091102902e+04       3.050043071266e-10 
       1.309397120024e+04       1.597307063996e-10 
       1.648433308529e+04       8.354365965871e-11 
       2.075254581755e+04       4.364237997713e-11 
       2.612590728914e+04       2.277185778682e-11 
       3.289056859248e+04       1.186880793118e-11 
       4.140677260944e+04       6.179541256860e-12 
       5.212803825841e+04       3.214151165706e-12 
       6.562531203050e+04       1.670153500245e-12 
       8.261737297213e+04       8.670504839046e-13 
       1.040091102903e+05       4.497250209319e-13 
       1.309397120026e+05       2.330666426558e-13 
       1.648433308531e+05       1.206864141865e-13 
       2.075254581757e+05       6.244472560167e-14 
       2.612590728917e+05       3.228534041250e-14 
       3.289056859251e+05       1.668013582146e-14 
       4.140677260948e+05       8.611723667806e-15 
       5.212803825846e+05       4.443118821120e-15 
       6.562531203056e+05       2.290886454678e-15 
       8.261737297220e+05       1.180448111555e-15 
       1.040091102904e+06       6.078932664372e-16 
       1.309397120027e+06       3.128626883781e-16 
       1.648433308532e+06       1.609291402743e-16 
       2.075254581759e+06       8.273287958710e-17 
       2.612590728919e+06       4.251006645570e-17 
       3.289056859255e+06       2.183146696067e-17 
       4.140677260952e+06       1.120620341662e-17 
       5.212803825851e+06       5.749434969238e-18 
       6.562531203062e+06       2.948419300640e-18 
       8.261737297228e+06       1.511321250110e-18 
       1.040091102905e+07       7.743433596968e-19 
       1.309397120028e+07       3.965748284763e-19 
       1.648433308534e+07       2.030190458384e-19 
       2.075254581761e+07       1.038899554691e-19 
       2.612590728922e+07       5.314229881162e-20 
       3.289056859258e+07       2.717326173538e-20 
       4.140677260956e+07       1.388936320596e-20 
       5.212803825856e+07       7.096861286735e-21 
       6.562531203068e+07       3.624915099650e-21 
       8.261737297236e+07       1.850891084658e-21 
       1.040091102906e+08       9.447549979896e-22 
       1.309397120029e+08       4.820771058160e-22 
       1.648433308535e+08       2.459100718804e-22 
       2.075254581763e+08       1.254012955178e-22 
       2.612590728924e+08       6.392885086808e-23 
       3.289056859261e+08       3.258097633638e-23 
       4.140677260959e+08       1.659994515741e-23 
       5.212803825861e+08       8.455270532266e-24 
       6.562531203074e+08       4.305558445120e-24 
       8.261737297243e+08       2.191872712827e-24 
       1.040091102907e+09       1.115546483135e-24 
       1.309397120031e+09       5.676087268644e-25 
       1.648433308537e+09       2.887366903203e-25 
       2.075254581765e+09       1.468414911749e-25 
       2.612590728926e+09       7.466065699605e-26 
       3.289056859264e+09       3.795187789739e-26 
       4.140677260963e+09       1.928747320716e-26 
       5.212803825865e+09       9.799865097735e-27 
       6.562531203080e+09       4.978168385066e-27 
       8.261737297251e+09       2.528283414954e-27 
       1.040091102908e+10       1.283779753685e-27 
       1.309397120032e+10       6.517270227147e-28 
       1.648433308538e+10       3.307906051735e-28 
       2.075254581767e+10       1.678628430822e-28 
       2.612590728929e+10       8.516705684033e-29 
       3.289056859267e+10       4.320221355867e-29 
       4.140677260967e+10       2.191085098790e-29 
       5.212803825870e+10       1.111048257007e-29 
       6.562531203086e+10       5.632854486517e-30 
       8.261737297258e+10       2.855272314711e-30 
       1.040091102909e+11       1.447076022824e-30 
       1.309397120033e+11       7.332656685406e-31 
       1.648433308540e+11       3.715000608999e-31 
       2.075254581769e+11       1.881851137568e-31 
       2.612590728931e+11       9.531072050610e-32 
       3.289056859270e+11       4.826469728537e-32 
       4.140677260971e+11       2.443711725142e-32 
       5.212803825875e+11       1.237097940015e-32 
       6.562531203092e+11       6.261711624423e-33 
       8.261737297266e+11       3.168969238678e-33 
       1.040091102910e+12       1.603540934711e-33 
