# Matter power spectrum P(k) at redshift z=9.5
# for k=1.02819e-05 to 10292.4 h/Mpc,
# number of wavenumbers equal to 152
#    1:k (h/Mpc)              2:P (Mpc/h)^3        
       1.028186309556e-05       5.578681904841e-01 
       1.294409873158e-05       7.023138124673e-01 
       1.629565482596e-05       8.841594551074e-01 
       2.051501396223e-05       1.113088316575e+00 
       2.582687240037e-05       1.401290198644e+00 
       3.251410597199e-05       1.764109927314e+00 
       4.093283424990e-05       2.220863038595e+00 
       5.153138521396e-05       2.795861455626e+00 
       6.487417035081e-05       3.519702315862e+00 
       8.167174162370e-05       4.430885654906e+00 
       1.028186309556e-04       5.577841335871e+00 
       1.294409873158e-04       7.021461595948e+00 
       1.629565482596e-04       8.838251240843e+00 
       2.051501396223e-04       1.112421796526e+01 
       2.582687240037e-04       1.399962075480e+01 
       3.251410597199e-04       1.761465511007e+01 
       4.093283424990e-04       2.215604129223e+01 
       5.153138521396e-04       2.785422999262e+01 
       6.487417035081e-04       3.499044282678e+01 
       8.167174162370e-04       4.390189842264e+01 
       1.028186309556e-03       5.498230195537e+01 
       1.294409873158e-03       6.867336609178e+01 
       1.629565482596e-03       8.544185287826e+01 
       2.051501396223e-03       1.057447492740e+02 
       2.582687240037e-03       1.299785801401e+02 
       3.251410597199e-03       1.584016415479e+02 
       4.093283424990e-03       1.909941250857e+02 
       5.153138521396e-03       2.272569194230e+02 
       6.487417035081e-03       2.659974931725e+02 
       8.167174162370e-03       3.050633571995e+02 
       1.028186309556e-02       3.410778188568e+02 
       1.294409873158e-02       3.692651234371e+02 
       1.629565482590e-02       3.836388836994e+02 
       2.051501365311e-02       3.781214313736e+02 
       2.582667253972e-02       3.495297786893e+02 
       3.248988695204e-02       3.023898880826e+02 
       4.021880175384e-02       2.541889456204e+02 
       4.652144083979e-02       2.262629558094e+02 
       5.113531061808e-02       2.115496348303e+02 
       5.497442673502e-02       2.017615833855e+02 
       5.841854908973e-02       1.940065887080e+02 
       6.163969256634e-02       1.870381279054e+02 
       6.473002904072e-02       1.802272010469e+02 
       6.774531431751e-02       1.732406202066e+02 
       7.072241628960e-02       1.659263675400e+02 
       7.368745547832e-02       1.582578684861e+02 
       7.666000484630e-02       1.503019014205e+02 
       7.965543770801e-02       1.421933509070e+02 
       8.268632566147e-02       1.341116024787e+02 
       8.576331404303e-02       1.262568944732e+02 
       8.889569325250e-02       1.188265922907e+02 
       9.209178448803e-02       1.119928196435e+02 
       9.535920759703e-02       1.058841086581e+02 
       9.870507141333e-02       1.005686599733e+02 
       1.021361115577e-01       9.604906387519e+01 
       1.056587916662e-01       9.225580240702e+01 
       1.092793785549e-01       8.905244680229e+01 
       1.130039984285e-01       8.624637365421e+01 
       1.168386790778e-01       8.360860461221e+01 
       1.207893815985e-01       8.090374955150e+01 
       1.248620242409e-01       7.792978084638e+01 
       1.290625003803e-01       7.455904228571e+01 
       1.333966921901e-01       7.077077032527e+01 
       1.378704813260e-01       6.666126390697e+01 
       1.424897577513e-01       6.242473219340e+01 
       1.472604277150e-01       5.830725109854e+01 
       1.521884218237e-01       5.454694113116e+01 
       1.572797041003e-01       5.131387444534e+01 
       1.625402828938e-01       4.866496288416e+01 
       1.679762244856e-01       4.653008622556e+01 
       1.735936702284e-01       4.472742121414e+01 
       1.793988580407e-01       4.301740676445e+01 
       1.853981490815e-01       4.118027391528e+01 
       1.915980604284e-01       3.906591158877e+01 
       1.980053046017e-01       3.669137441571e+01 
       2.046268368053e-01       3.422609422729e+01 
       2.114699108172e-01       3.189925757894e+01 
       2.185421445592e-01       2.987657705551e+01 
       2.258515965235e-01       2.821051389803e+01 
       2.334068544475e-01       2.683187491857e+01 
       2.412171379337e-01       2.557467525223e+01 
       2.492924171242e-01       2.426255809289e+01 
       2.576435500978e-01       2.282361291142e+01 
       2.662824424022e-01       2.131791431987e+01 
       2.752222331166e-01       1.988066920109e+01 
       2.844775131425e-01       1.863026465873e+01 
       2.940645831437e-01       1.757180650660e+01 
       3.040017608551e-01       1.660693074180e+01 
       3.143097505674e-01       1.563569927092e+01 
       3.250120917842e-01       1.462546747258e+01 
       3.361357098084e-01       1.363697063754e+01 
       3.477115990261e-01       1.274149712292e+01 
       3.597756809812e-01       1.194638949961e+01 
       3.723698955839e-01       1.119607187029e+01 
       3.855436075238e-01       1.044640152814e+01 
       3.993554452615e-01       9.714958698678e+00 
       4.138757435632e-01       9.036041314708e+00 
       4.291898437481e-01       8.406732295526e+00 
       4.454026382203e-01       7.801940129904e+00 
       4.626449623634e-01       7.211439631994e+00 
       4.810828019284e-01       6.651434807809e+00 
       5.009309209595e-01       6.121877659941e+00 
       5.224736704039e-01       5.606033694009e+00 
       5.460979262521e-01       5.108699540906e+00 
       5.723474651910e-01       4.627787411517e+00 
       6.020172733138e-01       4.155697254158e+00 
       6.363269206526e-01       3.691357548106e+00 
       6.772618081761e-01       3.226833779034e+00 
       7.282988925093e-01       2.755475142401e+00 
       7.960727852782e-01       2.266760504052e+00 
       8.942998125020e-01       1.750810030250e+00 
       1.050618116200e+00       1.218170974605e+00 
       1.297349434593e+00       7.512521512293e-01 
       1.631255788595e+00       4.401595906715e-01 
       2.053595908975e+00       2.547783138703e-01 
       2.585323968624e+00       1.462325927729e-01 
       3.254730041774e+00       8.329535421982e-02 
       4.097462358120e+00       4.711921212663e-02 
       5.158399486507e+00       2.648776546001e-02 
       6.494040197750e+00       1.480475964125e-02 
       8.175512230160e+00       8.231453302711e-03 
       1.029236010098e+01       4.554700660823e-03 
       1.295731367846e+01       2.509058010342e-03 
       1.631229145840e+01       1.376542424811e-03 
       2.053595824158e+01       7.522920272485e-04 
       2.585323968587e+01       4.096693543594e-04 
       3.254730041774e+01       2.223352203011e-04 
       4.097462358120e+01       1.202717430953e-04 
       5.158399486507e+01       6.485177708100e-05 
       6.494040197750e+01       3.485451855152e-05 
       8.175512230160e+01       1.866736340761e-05 
       1.029236010098e+02       9.959020866420e-06 
       1.295731367846e+02       5.288113635589e-06 
       1.631229145840e+02       2.791496489897e-06 
       2.053595824158e+02       1.462346854731e-06 
       2.585323968587e+02       7.583741984775e-07 
       3.254730041774e+02       3.882596188210e-07 
       4.097462358120e+02       1.957862529111e-07 
       5.158399486507e+02       9.727689444766e-08 
       6.494040197750e+02       4.787845071820e-08 
       8.175512230160e+02       2.356114642647e-08 
       1.029236010098e+03       1.165953790067e-08 
       1.295731367846e+03       5.803104271197e-09 
       1.631229145840e+03       2.912546889086e-09 
       2.053595824158e+03       1.472995485216e-09 
       2.585323968587e+03       7.505916101882e-10 
       3.254730041774e+03       3.849084920429e-10 
       4.097462358120e+03       1.983835055604e-10 
       5.158399486507e+03       1.026313210491e-10 
       6.494040197750e+03       5.323536523352e-11 
       8.175512230160e+03       2.765825537509e-11 
       1.029236010098e+04       1.437875830697e-11 
       1.295731367846e+04       7.584915001151e-12 
       1.631229145839e+04       3.995998503860e-12 
       2.053595824156e+04       2.102675206791e-12 
       2.585323968584e+04       1.105137807795e-12 
       3.254730041770e+04       5.802048916551e-13 
       4.097462358113e+04       3.042907795098e-13 
       5.158399486497e+04       1.594259305261e-13 
       6.494040197736e+04       8.344702739642e-14 
       8.175512230141e+04       4.363774441985e-14 
       1.029236010096e+05       2.279973998632e-14 
       1.295731367843e+05       1.190225673333e-14 
       1.631229145836e+05       6.208336660572e-15 
       2.053595824151e+05       3.235799276287e-15 
       2.585323968578e+05       1.685238223515e-15 
       3.254730041762e+05       8.770548392775e-16 
       4.097462358103e+05       4.561309512965e-16 
       5.158399486485e+05       2.370613062659e-16 
       6.494040197721e+05       1.231262190668e-16 
       8.175512230122e+05       6.391002833895e-17 
       1.029236010093e+06       3.315319746275e-17 
       1.295731367840e+06       1.718813066430e-17 
       1.631229145832e+06       8.906090790677e-18 
       2.053595824146e+06       4.612207634647e-18 
       2.585323968572e+06       2.387269618955e-18 
       3.254730041755e+06       1.235015037320e-18 
       4.097462358094e+06       6.385988004374e-19 
       5.158399486473e+06       3.300468828913e-19 
       6.494040197705e+06       1.704987354547e-19 
       8.175512230102e+06       8.803810839061e-20 
       1.029236010091e+07       4.543913073630e-20 
       1.295731367837e+07       2.344253679408e-20 
       1.631229145828e+07       1.208926089418e-20 
       2.053595824142e+07       6.231900281876e-21 
       2.585323968566e+07       3.211231994118e-21 
       3.254730041747e+07       1.654085485783e-21 
       4.097462358084e+07       8.516943269331e-22 
       5.158399486461e+07       4.383826604027e-22 
       6.494040197690e+07       2.255645765602e-22 
       8.175512230083e+07       1.160219845749e-22 
       1.029236010088e+08       5.965753980700e-23 
       1.295731367834e+08       3.066547512269e-23 
       1.631229145824e+08       1.575784697110e-23 
       2.053595824137e+08       8.094877217978e-24 
       2.585323968559e+08       4.157125349007e-24 
       3.254730041739e+08       2.134266184668e-24 
       4.097462358074e+08       1.095417530784e-24 
       5.158399486449e+08       5.620686388003e-25 
       6.494040197675e+08       2.883237423836e-25 
       8.175512230064e+08       1.478616568920e-25 
       1.029236010086e+09       7.580842467490e-26 
       1.295731367830e+09       3.885694565015e-26 
       1.631229145820e+09       1.991184902144e-26 
       2.053595824132e+09       1.020113844296e-26 
       2.585323968553e+09       5.224949683625e-27 
       3.254730041732e+09       2.675557133978e-27 
       4.097462358065e+09       1.369768411992e-27 
       5.158399486437e+09       7.011048180845e-28 
       6.494040197660e+09       3.587762329250e-28 
       8.175512230045e+09       1.835571253418e-28 
       1.029236010083e+10       9.389178534005e-29 
       1.295731367827e+10       4.801694837649e-29 
       1.631229145816e+10       2.455126704522e-29 
       2.053595824127e+10       1.255068395682e-29 
       2.585323968547e+10       6.414704997973e-30 
       3.254730041724e+10       3.277958333712e-30 
       4.097462358055e+10       1.674746970556e-30 
       5.158399486425e+10       8.554911982556e-31 
       6.494040197644e+10       4.369220481845e-31 
       8.175512230025e+10       2.231083899246e-31 
       1.029236010081e+11       1.139076218025e-31 
       1.295731367824e+11       5.814548330172e-32 
       1.631229145813e+11       2.967610104244e-32 
       2.053595824122e+11       1.514351375958e-32 
       2.585323968541e+11       7.726391292055e-33 
       3.254730041716e+11       3.941469783872e-33 
       4.097462358046e+11       2.010353206478e-33 
       5.158399486412e+11       1.025227779314e-33 
       6.494040197629e+11       5.227611881624e-34 
       8.175512230006e+11       2.665154506403e-34 
       1.029236010079e+12       1.358559340622e-34 
