# Matter power spectrum P(k) at redshift z=0.5
# for k=1.02819e-05 to 10292.4 h/Mpc,
# number of wavenumbers equal to 152
#    1:k (h/Mpc)              2:P (Mpc/h)^3        
       1.028186309556e-05       2.255408065074e+01 
       1.294409873158e-05       2.839385308936e+01 
       1.629565482596e-05       3.574566319584e+01 
       2.051501396223e-05       4.500095791889e+01 
       2.582687240037e-05       5.665251996650e+01 
       3.251410597199e-05       7.132062724025e+01 
       4.093283424990e-05       8.978601939936e+01 
       5.153138521396e-05       1.130312512196e+02 
       6.487417035081e-05       1.422926287954e+02 
       8.167174162370e-05       1.791252726878e+02 
       1.028186309556e-04       2.254843765481e+02 
       1.294409873158e-04       2.838262546392e+02 
       1.629565482596e-04       3.572331015675e+02 
       2.051501396223e-04       4.495652993635e+02 
       2.582687240037e-04       5.656441313451e+02 
       3.251410597199e-04       7.114651320116e+02 
       4.093283424990e-04       8.944371575122e+02 
       5.153138521396e-04       1.123634394720e+03 
       6.487417035081e-04       1.410039149627e+03 
       8.167174162370e-04       1.766743279919e+03 
       1.028186309556e-03       2.209051426928e+03 
       1.294409873158e-03       2.754344521294e+03 
       1.629565482596e-03       3.421386949735e+03 
       2.051501396223e-03       4.229010985938e+03 
       2.582687240037e-03       5.193733874296e+03 
       3.251410597199e-03       6.325961458782e+03 
       4.093283424990e-03       7.624681459263e+03 
       5.153138521396e-03       9.070076810414e+03 
       6.487417035081e-03       1.061395729157e+04 
       8.167174162370e-03       1.217223057567e+04 
       1.028186309556e-02       1.360822681170e+04 
       1.294409873158e-02       1.473181991098e+04 
       1.629565482590e-02       1.530454176894e+04 
       2.051501365311e-02       1.508457644429e+04 
       2.582667253972e-02       1.394357077064e+04 
       3.248988695204e-02       1.206315045432e+04 
       4.021880175384e-02       1.014012313525e+04 
       4.652144083979e-02       9.026015850913e+03 
       5.113531061808e-02       8.439203460015e+03 
       5.497442673502e-02       8.048782506074e+03 
       5.841854908973e-02       7.739405082682e+03 
       6.163969256634e-02       7.461427255078e+03 
       6.473002904072e-02       7.189599794445e+03 
       6.774531431751e-02       6.911019792849e+03 
       7.072241628960e-02       6.619213254785e+03 
       7.368745547832e-02       6.313120989229e+03 
       7.666000484630e-02       5.995868823799e+03 
       7.965543770801e-02       5.672395201413e+03 
       8.268632566147e-02       5.349991484048e+03 
       8.576331404303e-02       5.036582956606e+03 
       8.889569325250e-02       4.740168016528e+03 
       9.209178448803e-02       4.467567406970e+03 
       9.535920759703e-02       4.223877278881e+03 
       9.870507141333e-02       4.011830477009e+03 
       1.021361115577e-01       3.831566774508e+03 
       1.056587916662e-01       3.680236312697e+03 
       1.092793785549e-01       3.552432148765e+03 
       1.130039984285e-01       3.440492622818e+03 
       1.168386790778e-01       3.335255652683e+03 
       1.207893815985e-01       3.227316875896e+03 
       1.248620242409e-01       3.108819676872e+03 
       1.290625003803e-01       2.974351799048e+03 
       1.333966921901e-01       2.823159959938e+03 
       1.378704813260e-01       2.659283992054e+03 
       1.424897577513e-01       2.490232959251e+03 
       1.472604277150e-01       2.325961250625e+03 
       1.521884218237e-01       2.175960417313e+03 
       1.572797041003e-01       2.047021112406e+03 
       1.625402828938e-01       1.941351066070e+03 
       1.679762244856e-01       1.856188796056e+03 
       1.735936702284e-01       1.784284017499e+03 
       1.793988580407e-01       1.716068087378e+03 
       1.853981490815e-01       1.642787868681e+03 
       1.915980604284e-01       1.558376558089e+03 
       1.980053046017e-01       1.463665140696e+03 
       2.046268368053e-01       1.365323052615e+03 
       2.114699108172e-01       1.272512519609e+03 
       2.185421445592e-01       1.191843908190e+03 
       2.258515965235e-01       1.125358113806e+03 
       2.334068544475e-01       1.070383868525e+03 
       2.412171379337e-01       1.020207132559e+03 
       2.492924171242e-01       9.678561562442e+02 
       2.576435500978e-01       9.104641955090e+02 
       2.662824424022e-01       8.504194256830e+02 
       2.752222331166e-01       7.930850262204e+02 
       2.844775131425e-01       7.432038748835e+02 
       2.940645831437e-01       7.009644142441e+02 
       3.040017608551e-01       6.624733816394e+02 
       3.143097505674e-01       6.237279871796e+02 
       3.250120917842e-01       5.834474851684e+02 
       3.361357098084e-01       5.439981543512e+02 
       3.477115990261e-01       5.082749847646e+02 
       3.597756809812e-01       4.765589879216e+02 
       3.723698955839e-01       4.466294265479e+02 
       3.855436075238e-01       4.167334484647e+02 
       3.993554452615e-01       3.875440091494e+02 
       4.138757435632e-01       3.604603791749e+02 
       4.291898437481e-01       3.353636020913e+02 
       4.454026382203e-01       3.112297363292e+02 
       4.626449623634e-01       2.876804192973e+02 
       4.810828019284e-01       2.653346454755e+02 
       5.009309209595e-01       2.442102414349e+02 
       5.224736704039e-01       2.236319354640e+02 
       5.460979262521e-01       2.037923915752e+02 
       5.723474651910e-01       1.846084858887e+02 
       6.020172733138e-01       1.657808270006e+02 
       6.363269206526e-01       1.472528890446e+02 
       6.772618081761e-01       1.287257837659e+02 
       7.282988925093e-01       1.099194413424e+02 
       7.960727852782e-01       9.042687862370e+01 
       8.942998125020e-01       6.984428063117e+01 
       1.050618116200e+00       4.859559554512e+01 
       1.297349434593e+00       2.996831685056e+01 
       1.631255788595e+00       1.755896048497e+01 
       2.053595908975e+00       1.016368908369e+01 
       2.585323968624e+00       5.833372831698e+00 
       3.254730041774e+00       3.322702564678e+00 
       4.097462358120e+00       1.879609381810e+00 
       5.158399486507e+00       1.056631277305e+00 
       6.494040197750e+00       5.905545452699e-01 
       8.175512230160e+00       3.283377246807e-01 
       1.029236010098e+01       1.816748339765e-01 
       1.295731367846e+01       1.000722071639e-01 
       1.631229145840e+01       5.489550321619e-02 
       2.053595824158e+01       2.999573407295e-02 
       2.585323968587e+01       1.633003136404e-02 
       3.254730041774e+01       8.858507027762e-03 
       4.097462358120e+01       4.788548825426e-03 
       5.158399486507e+01       2.579097513602e-03 
       6.494040197750e+01       1.383640532364e-03 
       8.175512230160e+01       7.389643100056e-04 
       1.029236010098e+02       3.924967874272e-04 
       1.295731367846e+02       2.069942190536e-04 
       1.631229145840e+02       1.081177065045e-04 
       2.053595824158e+02       5.573893537495e-05 
       2.585323968587e+02       2.823260536031e-05 
       3.254730041774e+02       1.397947476312e-05 
       4.097462358120e+02       6.743344087233e-06 
       5.158399486507e+02       3.175518867788e-06 
       6.494040197750e+02       1.478260165407e-06 
       8.175512230160e+02       6.968196440352e-07 
       1.029236010098e+03       3.405936231177e-07 
       1.295731367846e+03       1.715382856545e-07 
       1.631229145840e+03       8.548276329637e-08 
       2.053595824158e+03       4.213618450103e-08 
       2.585323968587e+03       2.194023765461e-08 
       3.254730041774e+03       1.109917284964e-08 
       4.097462358120e+03       5.823744456364e-09 
       5.158399486507e+03       3.008482713063e-09 
       6.494040197750e+03       1.564483199075e-09 
       8.175512230160e+03       8.112083474318e-10 
       1.029236010098e+04       4.233014130038e-10 
       1.295731367846e+04       2.232950279124e-10 
       1.631229145839e+04       1.176396304140e-10 
       2.053595824156e+04       6.190140811332e-11 
       2.585323968584e+04       3.253454753301e-11 
       3.254730041770e+04       1.708085950303e-11 
       4.097462358113e+04       8.958125185824e-12 
       5.158399486497e+04       4.693397038911e-12 
       6.494040197736e+04       2.456626911292e-12 
       8.175512230141e+04       1.284667179103e-12 
       1.029236010096e+05       6.712097071449e-13 
       1.295731367843e+05       3.503947966571e-13 
       1.631229145836e+05       1.827694453665e-13 
       2.053595824151e+05       9.525985322287e-14 
       2.585323968578e+05       4.961233133157e-14 
       3.254730041762e+05       2.581993137530e-14 
       4.097462358103e+05       1.342820235771e-14 
       5.158399486485e+05       6.978932656670e-15 
       6.494040197721e+05       3.624756838949e-15 
       8.175512230122e+05       1.881470202324e-15 
       1.029236010093e+06       9.760088480501e-16 
       1.295731367840e+06       5.060075315101e-16 
       1.631229145832e+06       2.621895949253e-16 
       2.053595824146e+06       1.357804316014e-16 
       2.585323968572e+06       7.027968489010e-17 
       3.254730041755e+06       3.635804978549e-17 
       4.097462358094e+06       1.879993868710e-17 
       5.158399486473e+06       9.716368333256e-18 
       6.494040197705e+06       5.019373306966e-18 
       8.175512230102e+06       2.591785388163e-18 
       1.029236010091e+07       1.337698835720e-18 
       1.295731367837e+07       6.901332324722e-19 
       1.631229145828e+07       3.559000790909e-19 
       2.053595824142e+07       1.834631432492e-19 
       2.585323968566e+07       9.453660820868e-20 
       3.254730041747e+07       4.869521473364e-20 
       4.097462358084e+07       2.507333417402e-20 
       5.158399486461e+07       1.290570406868e-20 
       6.494040197690e+07       6.640476315348e-21 
       8.175512230083e+07       3.415612736620e-21 
       1.029236010088e+08       1.756279670157e-21 
       1.295731367834e+08       9.027718995440e-22 
       1.631229145824e+08       4.639008978635e-22 
       2.053595824137e+08       2.383079881662e-22 
       2.585323968559e+08       1.223831012874e-22 
       3.254730041739e+08       6.283142621978e-23 
       4.097462358074e+08       3.224838881848e-23 
       5.158399486449e+08       1.654693986295e-23 
       6.494040197675e+08       8.488065864099e-24 
       8.175512230064e+08       4.352952247700e-24 
       1.029236010086e+09       2.231751351361e-24 
       1.295731367830e+09       1.143923532726e-24 
       1.631229145820e+09       5.861920512434e-25 
       2.053595824132e+09       3.003149663527e-25 
       2.585323968553e+09       1.538191641263e-25 
       3.254730041732e+09       7.876668424395e-26 
       4.097462358065e+09       4.032510262051e-26 
       5.158399486437e+09       2.064007571607e-26 
       6.494040197660e+09       1.056214195322e-26 
       8.175512230045e+09       5.403803921404e-27 
       1.029236010083e+10       2.764113879334e-27 
       1.295731367827e+10       1.413588132019e-27 
       1.631229145816e+10       7.227735392309e-28 
       2.053595824127e+10       3.694840778089e-28 
       2.585323968547e+10       1.888447967255e-28 
       3.254730041724e+10       9.650098880619e-29 
       4.097462358055e+10       4.930347558012e-29 
       5.158399486425e+10       2.518511162806e-29 
       6.494040197644e+10       1.286270458273e-29 
       8.175512230025e+10       6.568167757734e-30 
       1.029236010081e+11       3.353367254078e-30 
       1.295731367824e+11       1.711765697423e-30 
       1.631229145813e+11       8.736453618264e-31 
       2.053595824122e+11       4.458153225348e-31 
       2.585323968541e+11       2.274599990850e-31 
       3.254730041716e+11       1.160343399065e-31 
       4.097462358046e+11       5.918350769734e-32 
       5.158399486412e+11       3.018204759892e-32 
       6.494040197629e+11       1.538975375262e-32 
       8.175512230006e+11       7.846043756693e-33 
       1.029236010079e+12       3.999511475592e-33 
