# Matter power spectrum P(k) at redshift z=12.5
# for k=1.03822e-05 to 10392.9 h/Mpc,
# number of wavenumbers equal to 152
#    1:k (h/Mpc)              2:P (Mpc/h)^3        
       1.038219230196e-05       4.622945206671e-01 
       1.307040571907e-05       5.766580759739e-01 
       1.645466590220e-05       7.193128251865e-01 
       2.071519704687e-05       8.972570755054e-01 
       2.607888797262e-05       1.119219966333e+00 
       3.283137478007e-05       1.396089183656e+00 
       4.133225201477e-05       1.741444102430e+00 
       5.203422238807e-05       2.172219939818e+00 
       6.550720484729e-05       2.709534560592e+00 
       8.246868483786e-05       3.379716508991e+00 
       1.038219230196e-04       4.215580839123e+00 
       1.307040571907e-04       5.258007707518e+00 
       1.645466590220e-04       6.557886151161e+00 
       2.071519704687e-04       8.178488919167e+00 
       2.607888797262e-04       1.019833714064e+01 
       3.283137478007e-04       1.271458328258e+01 
       4.133225201477e-04       1.584686264124e+01 
       5.203422238807e-04       1.974139430372e+01 
       6.550720484729e-04       2.457478110407e+01 
       8.246868483786e-04       3.055637109537e+01 
       1.038219230196e-03       3.792713753219e+01 
       1.307040571907e-03       4.695196466561e+01 
       1.645466590220e-03       5.790036305560e+01 
       2.071519704687e-03       7.101982872355e+01 
       2.607888797262e-03       8.649437523528e+01 
       3.283137478007e-03       1.043992242621e+02 
       4.133225201477e-03       1.246284778325e+02 
       5.203422238807e-03       1.467675362741e+02 
       6.550720484729e-03       1.699555367427e+02 
       8.246868483786e-03       1.927507877956e+02 
       1.038219230196e-02       2.129831945436e+02 
       1.307040571907e-02       2.276798969959e+02 
       1.645466590218e-02       2.332170531209e+02 
       2.071519688507e-02       2.260493759716e+02 
       2.607876417226e-02       2.045766796314e+02 
       3.281416722823e-02       1.720903890597e+02 
       4.075744376176e-02       1.396805612525e+02 
       4.746658777003e-02       1.211140629824e+02 
       5.233009061300e-02       1.119867374033e+02 
       5.633876997938e-02       1.062885729371e+02 
       5.991701375256e-02       1.019810894786e+02 
       6.325382191649e-02       9.821529123509e+01 
       6.644915140549e-02       9.456399753544e+01 
       6.956290348649e-02       9.080043887998e+01 
       7.263440849079e-02       8.681633140239e+01 
       7.569137574516e-02       8.258533712851e+01 
       7.875447272837e-02       7.814260046723e+01 
       8.183986863846e-02       7.356875709446e+01 
       8.496074110659e-02       6.897497354771e+01 
       8.812821588611e-02       6.448795654980e+01 
       9.135197802118e-02       6.023446273480e+01 
       9.464068332738e-02       5.632694336175e+01 
       9.800224345987e-02       5.285198393136e+01 
       1.014440281024e-01       4.986066645867e+01 
       1.049730111281e-01       4.736328891354e+01 
       1.085958778455e-01       4.532763374611e+01 
       1.123191045667e-01       4.367973136265e+01 
       1.161490180798e-01       4.230911870678e+01 
       1.200918402850e-01       4.107899797697e+01 
       1.241537217471e-01       3.984213331795e+01 
       1.283407669205e-01       3.846366479867e+01 
       1.326590531502e-01       3.684786313567e+01 
       1.371146451078e-01       3.496089993715e+01 
       1.417136060343e-01       3.284202023398e+01 
       1.464620069664e-01       3.059690426480e+01 
       1.513659349991e-01       2.837227072160e+01 
       1.564315015614e-01       2.632060760018e+01 
       1.616648516253e-01       2.456074805180e+01 
       1.670721747463e-01       2.314806139192e+01 
       1.726597188044e-01       2.206232257626e+01 
       1.784338073098e-01       2.120988365393e+01 
       1.844008611238e-01       2.045554890987e+01 
       1.905674254422e-01       1.964966318365e+01 
       1.969402028920e-01       1.867862002123e+01 
       2.035260936059e-01       1.752538130302e+01 
       2.103322431697e-01       1.627281708160e+01 
       2.173660993969e-01       1.505466416246e+01 
       2.246354789811e-01       1.398782396266e+01 
       2.321486452227e-01       1.313156386008e+01 
       2.399143982438e-01       1.246773543953e+01 
       2.479421794051e-01       1.190347464646e+01 
       2.562421920582e-01       1.132332645633e+01 
       2.648255413223e-01       1.065999897746e+01 
       2.737043963274e-01       9.925654609694e+00 
       2.828921793508e-01       9.198989465764e+00 
       2.924037875840e-01       8.567179861207e+00 
       3.022558549994e-01       8.054048625598e+00 
       3.124670640937e-01       7.614125289752e+00 
       3.230585203843e-01       7.178341845625e+00 
       3.340542067337e-01       6.707826801464e+00 
       3.454815403454e-01       6.228904442940e+00 
       3.573720632874e-01       5.791003355120e+00 
       3.697623087076e-01       5.415903073397e+00 
       3.826949011147e-01       5.074622609244e+00 
       3.962199727176e-01       4.732095184432e+00 
       4.103970129069e-01       4.387435384280e+00 
       4.252973211223e-01       4.065865020559e+00 
       4.410073157209e-01       3.775315459010e+00 
       4.576330822164e-01       3.500354303253e+00 
       4.753067575460e-01       3.228037905423e+00 
       4.941957055755e-01       2.968380436074e+00 
       5.145160626260e-01       2.727208413502e+00 
       5.365533585280e-01       2.492670603534e+00 
       5.606950447507e-01       2.265551783469e+00 
       5.874839753840e-01       2.048335999912e+00 
       6.177107211601e-01       1.835291093200e+00 
       6.525823218278e-01       1.626875724153e+00 
       6.940522612693e-01       1.419318952561e+00 
       7.455171781678e-01       1.210097307291e+00 
       8.134065949556e-01       9.946401415394e-01 
       9.109395868563e-01       7.688405958896e-01 
       1.065113380274e+00       5.362847673194e-01 
       1.310628484582e+00       3.299514636706e-01 
       1.647201751434e+00       1.913750636190e-01 
       2.073650984165e+00       1.095638958974e-01 
       2.610571719889e+00       6.220854244485e-02 
       3.286515077374e+00       3.505884031122e-02 
       4.137477347151e+00       1.962459697507e-02 
       5.208775373051e+00       1.091799872885e-02 
       6.557459681462e+00       6.039964928941e-03 
       8.255352629808e+00       3.324164836683e-03 
       1.039287320899e+01       1.820858716190e-03 
       1.308385218435e+01       9.930444839127e-04 
       1.647159399903e+01       5.393902948603e-04 
       2.073650825814e+01       2.918756190837e-04 
       2.610571719805e+01       1.573825000565e-04 
       3.286515077374e+01       8.457638492875e-05 
       4.137477347151e+01       4.530293105017e-05 
       5.208775373051e+01       2.418824946721e-05 
       6.557459681462e+01       1.287196490901e-05 
       8.255352629808e+01       6.825541210850e-06 
       1.039287320899e+02       3.604533715984e-06 
       1.308385218435e+02       1.894199415667e-06 
       1.647159399903e+02       9.891321138772e-07 
       2.073650825814e+02       5.122229258697e-07 
       2.610571719805e+02       2.623246293573e-07 
       3.286515077374e+02       1.324256872246e-07 
       4.137477347151e+02       6.571320376038e-08 
       5.208775373051e+02       3.205816449860e-08 
       6.557459681462e+02       1.546875329521e-08 
       8.255352629808e+02       7.465667443392e-09 
       1.039287320899e+03       3.631040699977e-09 
       1.308385218435e+03       1.778589424726e-09 
       1.647159399903e+03       8.799834693832e-10 
       2.073650825814e+03       4.393600599850e-10 
       2.610571719805e+03       2.213054345801e-10 
       3.286515077374e+03       1.122680357224e-10 
       4.137477347151e+03       5.727473873355e-11 
       5.208775373051e+03       2.933893744036e-11 
       6.557459681462e+03       1.507177838498e-11 
       8.255352629808e+03       7.756066269766e-12 
       1.039287320899e+04       3.995196716362e-12 
       1.308385218436e+04       2.088442524189e-12 
       1.647159399905e+04       1.090308595123e-12 
       2.073650825816e+04       5.685204653980e-13 
       2.610571719809e+04       2.960995821583e-13 
       3.286515077380e+04       1.540451439236e-13 
       4.137477347159e+04       8.005687883929e-14 
       5.208775373063e+04       4.156331303559e-14 
       6.557459681478e+04       2.155766045907e-14 
       8.255352629831e+04       1.117097154667e-14 
       1.039287320902e+05       5.783555110263e-15 
       1.308385218439e+05       2.991776616202e-15 
       1.647159399910e+05       1.546352833768e-15 
       2.073650825822e+05       7.986327111126e-16 
       2.610571719816e+05       4.121523516761e-16 
       3.286515077389e+05       2.125460478496e-16 
       4.137477347171e+05       1.095328878293e-16 
       5.208775373077e+05       5.640834327844e-17 
       6.557459681497e+05       2.903086070969e-17 
       8.255352629854e+05       1.493152437752e-17 
       1.039287320905e+06       7.675124804371e-18 
       1.308385218443e+06       3.942872418486e-18 
       1.647159399914e+06       2.024391259950e-18 
       2.073650825828e+06       1.038816136884e-18 
       2.610571719824e+06       5.327863501600e-19 
       3.286515077398e+06       2.731146271346e-19 
       4.137477347182e+06       1.399333577103e-19 
       5.208775373092e+06       7.166194814999e-20 
       6.557459681515e+06       3.668202982743e-20 
       8.255352629877e+06       1.876815377329e-20 
       1.039287320908e+07       9.598402855163e-21 
       1.308385218447e+07       4.906718615385e-21 
       1.647159399919e+07       2.507283173224e-21 
       2.073650825834e+07       1.280680340240e-21 
       2.610571719831e+07       6.538950993236e-22 
       3.286515077407e+07       3.337413858455e-22 
       4.137477347194e+07       1.702751065500e-22 
       5.208775373107e+07       8.684316867831e-23 
       6.557459681533e+07       4.427592968415e-23 
       8.255352629900e+07       2.256582446070e-23 
       1.039287320911e+08       1.149714529092e-23 
       1.308385218450e+08       5.855821043915e-24 
       1.647159399923e+08       2.981590951031e-24 
       2.073650825840e+08       1.517659038989e-24 
       2.610571719838e+08       7.722706352276e-25 
       3.286515077417e+08       3.928593932313e-25 
       4.137477347205e+08       1.997929290370e-25 
       5.208775373121e+08       1.015784010180e-25 
       6.557459681552e+08       5.163019291875e-26 
       8.255352629923e+08       2.623553799795e-26 
       1.039287320914e+09       1.332792967692e-26 
       1.308385218454e+09       6.768999056181e-27 
       1.647159399928e+09       3.436985688329e-27 
       2.073650825845e+09       1.744716579906e-27 
       2.610571719846e+09       8.854585870873e-28 
       3.286515077426e+09       4.492727254742e-28 
       4.137477347217e+09       2.279042636358e-28 
       5.208775373136e+09       1.155839507449e-28 
       6.557459681570e+09       5.860670924391e-29 
       8.255352629947e+09       2.971007991407e-29 
       1.039287320916e+10       1.505805538432e-29 
       1.308385218458e+10       7.630348857917e-30 
       1.647159399933e+10       3.865735396911e-30 
       2.073650825851e+10       1.958095267769e-30 
       2.610571719853e+10       9.916334388346e-31 
       3.286515077435e+10       5.020948862580e-31 
       4.137477347229e+10       2.541787934420e-31 
       5.208775373150e+10       1.286510264285e-31 
       6.557459681588e+10       6.510421774566e-32 
       8.255352629970e+10       3.294036309095e-32 
       1.039287320919e+11       1.666373863771e-32 
       1.308385218461e+11       8.428352582078e-33 
       1.647159399937e+11       4.262265253503e-33 
       2.073650825857e+11       2.155098313581e-33 
       2.610571719860e+11       1.089491399739e-33 
       3.286515077444e+11       5.506959326201e-34 
       4.137477347240e+11       2.783123505610e-34 
       5.208775373165e+11       1.406328606593e-34 
       6.557459681607e+11       7.105195088015e-35 
       8.255352629993e+11       3.589229104060e-35 
       1.039287320922e+12       1.812856456400e-35 
